-10, 0, 4473, 10595
-9.9, 0, 4524, 10595
-9.8, 0, 4574, 10595
-9.7, 0, 4616, 10595
-9.6, 0, 4659, 10595
-9.5, 0, 4711, 10595
-9.4, 0, 4754, 10595
-9.3, 0, 4798, 10595
-9.2, 0, 4843, 10595
-9.1, 0, 4883, 10595
-9, 0, 4942, 10595
-8.9, 0, 4986, 10595
-8.8, 0, 5044, 10595
-8.7, 0, 5094, 10595
-8.6, 0, 5150, 10595
-8.5, 0, 5216, 10595
-8.4, 0, 5269, 10595
-8.3, 0, 5324, 10595
-8.2, 0, 5385, 10595
-8.1, 0, 5446, 10595
-8, 0, 5502, 10595
-7.9, 0, 5555, 10595
-7.8, 0, 5605, 10595
-7.7, 0, 5655, 10595
-7.6, 0, 5724, 10595
-7.5, 0, 5776, 10595
-7.4, 0, 5829, 10595
-7.3, 0, 5890, 10595
-7.2, 0, 5951, 10595
-7.1, 0, 6016, 10595
-7, 0, 6082, 10595
-6.9, 0, 6157, 10595
-6.8, 0, 6216, 10595
-6.7, 0, 6269, 10595
-6.6, 0, 6323, 10595
-6.5, 0, 6381, 10595
-6.4, 0, 6436, 10595
-6.3, 0, 6491, 10595
-6.2, 0, 6549, 10595
-6.1, 0, 6617, 10595
-6, 0, 6672, 10595
-5.9, 0, 6731, 10595
-5.8, 0, 6794, 10595
-5.7, 0, 6866, 10595
-5.6, 0, 6929, 10595
-5.5, 0, 6994, 10595
-5.4, 0, 7034, 10595
-5.3, 0, 7101, 10595
-5.2, 0, 7162, 10595
-5.1, 0, 7233, 10595
-5, 0, 7288, 10595
-4.9, 0, 7360, 10595
-4.8, 0, 7423, 10595
-4.7, 0, 7485, 10595
-4.6, 0, 7551, 10595
-4.5, 0, 7615, 10595
-4.4, 0, 7668, 10595
-4.3, 0, 7721, 10595
-4.2, 0, 7784, 10595
-4.1, 0, 7856, 10595
-4, 0, 7922, 10595
-3.9, 0, 7977, 10595
-3.8, 0, 8048, 10595
-3.7, 0, 8137, 10595
-3.6, 0, 8204, 10595
-3.5, 0, 8268, 10595
-3.4, 0, 8333, 10595
-3.3, 0, 8400, 10595
-3.2, 0, 8458, 10595
-3.1, 0, 8514, 10595
-3, 0, 8572, 10595
-2.9, 0, 8642, 10595
-2.8, 0, 8701, 10595
-2.7, 0, 8745, 10595
-2.6, 0, 8806, 10595
-2.5, 0, 8852, 10595
-2.4, 0, 8882, 10595
-2.3, 0, 8936, 10595
-2.2, 0, 8982, 10595
-2.1, 0, 9021, 10595
-2, 0, 9063, 10595
-1.9, 0, 9113, 10595
-1.8, 0, 9160, 10595
-1.7, 0, 9233, 10595
-1.6, 0, 9296, 10595
-1.5, 0, 9392, 10595
-1.4, 0, 9478, 10595
-1.3, 0, 9580, 10595
-1.2, 0, 9671, 10595
-1.1, 0, 9763, 10595
-1, 0, 9857, 10595
-0.9, 0, 9942, 10595
-0.8, 0, 10010, 10595
-0.7, 0, 10058, 10595
-0.6, 0, 10106, 10595
-0.5, 0, 10137, 10595
-0.4, 0, 10152, 10595
-0.3, 0, 10179, 10595
-0.2, 0, 10183, 10595
-0.1, 0, 10188, 10595
-1.87905e-14, 0, 10186, 10595
0.1, 0, 10186, 10595
0.2, 0, 10186, 10595
0.3, 0, 10184, 10595
0.4, 0, 10178, 10595
0.5, 0, 10175, 10595
0.6, 0, 10172, 10595
0.7, 0, 10168, 10595
0.8, 0, 10167, 10595
0.9, 0, 10162, 10595
1, 0, 10160, 10595
1.1, 0, 10158, 10595
1.2, 0, 10155, 10595
1.3, 0, 10154, 10595
1.4, 0, 10152, 10595
1.5, 0, 10150, 10595
1.6, 0, 10145, 10595
1.7, 0, 10141, 10595
1.8, 0, 10138, 10595
1.9, 0, 10132, 10595
2, 0, 10129, 10595
2.1, 0, 10126, 10595
2.2, 0, 10121, 10595
2.3, 0, 10119, 10595
2.4, 0, 10114, 10595
2.5, 0, 10111, 10595
2.6, 0, 10107, 10595
2.7, 0, 10104, 10595
2.8, 0, 10101, 10595
2.9, 0, 10100, 10595
3, 0, 10095, 10595
3.1, 0, 10091, 10595
3.2, 0, 10086, 10595
3.3, 0, 10081, 10595
3.4, 0, 10076, 10595
3.5, 0, 10073, 10595
3.6, 0, 10072, 10595
3.7, 0, 10065, 10595
3.8, 0, 10062, 10595
3.9, 0, 10059, 10595
4, 0, 10055, 10595
4.1, 0, 10050, 10595
4.2, 0, 10049, 10595
4.3, 0, 10046, 10595
4.4, 0, 10042, 10595
4.5, 0, 10036, 10595
4.6, 0, 10033, 10595
4.7, 0, 10028, 10595
4.8, 0, 10027, 10595
4.9, 0, 10025, 10595
5, 0, 10019, 10595
5.1, 0, 10011, 10595
5.2, 0, 10006, 10595
5.3, 0, 10002, 10595
5.4, 0, 9994, 10595
5.5, 0, 9989, 10595
5.6, 0, 9985, 10595
5.7, 0, 9981, 10595
5.8, 0, 9976, 10595
5.9, 0, 9972, 10595
6, 0, 9966, 10595
6.1, 0, 9961, 10595
6.2, 0, 9958, 10595
6.3, 0, 9954, 10595
6.4, 0, 9951, 10595
6.5, 0, 9946, 10595
6.6, 0, 9941, 10595
6.7, 0, 9936, 10595
6.8, 0, 9932, 10595
6.9, 0, 9925, 10595
7, 0, 9916, 10595
7.1, 0, 9910, 10595
7.2, 0, 9910, 10595
7.3, 0, 9903, 10595
7.4, 0, 9896, 10595
7.5, 0, 9892, 10595
7.6, 0, 9883, 10595
7.7, 0, 9879, 10595
7.8, 0, 9874, 10595
7.9, 0, 9867, 10595
8, 0, 9863, 10595
8.1, 0, 9860, 10595
8.2, 0, 9854, 10595
8.3, 0, 9841, 10595
8.4, 0, 9834, 10595
8.5, 0, 9832, 10595
8.6, 0, 9825, 10595
8.7, 0, 9817, 10595
8.8, 0, 9812, 10595
8.9, 0, 9807, 10595
9, 0, 9801, 10595
9.1, 0, 9794, 10595
9.2, 0, 9788, 10595
9.3, 0, 9785, 10595
9.4, 0, 9777, 10595
9.5, 0, 9772, 10595
9.6, 0, 9761, 10595
9.7, 0, 9749, 10595
9.8, 0, 9740, 10595
9.9, 0, 9735, 10595
10, 0, 9727, 10595
-10, 0.1, 2740, 7312
-9.9, 0.1, 2780, 7312
-9.8, 0.1, 2816, 7312
-9.7, 0.1, 2846, 7312
-9.6, 0.1, 2879, 7312
-9.5, 0.1, 2916, 7312
-9.4, 0.1, 2947, 7312
-9.3, 0.1, 2981, 7312
-9.2, 0.1, 3014, 7312
-9.1, 0.1, 3046, 7312
-9, 0.1, 3093, 7312
-8.9, 0.1, 3128, 7312
-8.8, 0.1, 3169, 7312
-8.7, 0.1, 3208, 7312
-8.6, 0.1, 3256, 7312
-8.5, 0.1, 3302, 7312
-8.4, 0.1, 3343, 7312
-8.3, 0.1, 3384, 7312
-8.2, 0.1, 3422, 7312
-8.1, 0.1, 3472, 7312
-8, 0.1, 3510, 7312
-7.9, 0.1, 3552, 7312
-7.8, 0.1, 3590, 7312
-7.7, 0.1, 3625, 7312
-7.6, 0.1, 3678, 7312
-7.5, 0.1, 3719, 7312
-7.4, 0.1, 3763, 7312
-7.3, 0.1, 3805, 7312
-7.2, 0.1, 3853, 7312
-7.1, 0.1, 3906, 7312
-7, 0.1, 3962, 7312
-6.9, 0.1, 4019, 7312
-6.8, 0.1, 4059, 7312
-6.7, 0.1, 4104, 7312
-6.6, 0.1, 4139, 7312
-6.5, 0.1, 4179, 7312
-6.4, 0.1, 4212, 7312
-6.3, 0.1, 4255, 7312
-6.2, 0.1, 4299, 7312
-6.1, 0.1, 4348, 7312
-6, 0.1, 4393, 7312
-5.9, 0.1, 4438, 7312
-5.8, 0.1, 4481, 7312
-5.7, 0.1, 4544, 7312
-5.6, 0.1, 4597, 7312
-5.5, 0.1, 4644, 7312
-5.4, 0.1, 4675, 7312
-5.3, 0.1, 4729, 7312
-5.2, 0.1, 4771, 7312
-5.1, 0.1, 4831, 7312
-5, 0.1, 4879, 7312
-4.9, 0.1, 4937, 7312
-4.8, 0.1, 4982, 7312
-4.7, 0.1, 5031, 7312
-4.6, 0.1, 5079, 7312
-4.5, 0.1, 5126, 7312
-4.4, 0.1, 5167, 7312
-4.3, 0.1, 5206, 7312
-4.2, 0.1, 5255, 7312
-4.1, 0.1, 5316, 7312
-4, 0.1, 5371, 7312
-3.9, 0.1, 5411, 7312
-3.8, 0.1, 5470, 7312
-3.7, 0.1, 5543, 7312
-3.6, 0.1, 5592, 7312
-3.5, 0.1, 5642, 7312
-3.4, 0.1, 5691, 7312
-3.3, 0.1, 5742, 7312
-3.2, 0.1, 5788, 7312
-3.1, 0.1, 5830, 7312
-3, 0.1, 5881, 7312
-2.9, 0.1, 5938, 7312
-2.8, 0.1, 5984, 7312
-2.7, 0.1, 6017, 7312
-2.6, 0.1, 6055, 7312
-2.5, 0.1, 6092, 7312
-2.4, 0.1, 6119, 7312
-2.3, 0.1, 6152, 7312
-2.2, 0.1, 6187, 7312
-2.1, 0.1, 6206, 7312
-2, 0.1, 6231, 7312
-1.9, 0.1, 6267, 7312
-1.8, 0.1, 6295, 7312
-1.7, 0.1, 6346, 7312
-1.6, 0.1, 6394, 7312
-1.5, 0.1, 6467, 7312
-1.4, 0.1, 6531, 7312
-1.3, 0.1, 6608, 7312
-1.2, 0.1, 6683, 7312
-1.1, 0.1, 6764, 7312
-1, 0.1, 6842, 7312
-0.9, 0.1, 6912, 7312
-0.8, 0.1, 6971, 7312
-0.7, 0.1, 7013, 7312
-0.6, 0.1, 7052, 7312
-0.5, 0.1, 7077, 7312
-0.4, 0.1, 7092, 7312
-0.3, 0.1, 7116, 7312
-0.2, 0.1, 7121, 7312
-0.1, 0.1, 7125, 7312
-1.87905e-14, 0.1, 7124, 7312
0.1, 0.1, 7124, 7312
0.2, 0.1, 7124, 7312
0.3, 0.1, 7123, 7312
0.4, 0.1, 7119, 7312
0.5, 0.1, 7117, 7312
0.6, 0.1, 7115, 7312
0.7, 0.1, 7114, 7312
0.8, 0.1, 7113, 7312
0.9, 0.1, 7112, 7312
1, 0.1, 7112, 7312
1.1, 0.1, 7111, 7312
1.2, 0.1, 7111, 7312
1.3, 0.1, 7111, 7312
1.4, 0.1, 7110, 7312
1.5, 0.1, 7109, 7312
1.6, 0.1, 7106, 7312
1.7, 0.1, 7103, 7312
1.8, 0.1, 7101, 7312
1.9, 0.1, 7096, 7312
2, 0.1, 7094, 7312
2.1, 0.1, 7092, 7312
2.2, 0.1, 7090, 7312
2.3, 0.1, 7088, 7312
2.4, 0.1, 7085, 7312
2.5, 0.1, 7083, 7312
2.6, 0.1, 7080, 7312
2.7, 0.1, 7079, 7312
2.8, 0.1, 7077, 7312
2.9, 0.1, 7076, 7312
3, 0.1, 7074, 7312
3.1, 0.1, 7073, 7312
3.2, 0.1, 7072, 7312
3.3, 0.1, 7069, 7312
3.4, 0.1, 7067, 7312
3.5, 0.1, 7065, 7312
3.6, 0.1, 7065, 7312
3.7, 0.1, 7060, 7312
3.8, 0.1, 7057, 7312
3.9, 0.1, 7056, 7312
4, 0.1, 7052, 7312
4.1, 0.1, 7048, 7312
4.2, 0.1, 7047, 7312
4.3, 0.1, 7046, 7312
4.4, 0.1, 7043, 7312
4.5, 0.1, 7038, 7312
4.6, 0.1, 7036, 7312
4.7, 0.1, 7031, 7312
4.8, 0.1, 7030, 7312
4.9, 0.1, 7028, 7312
5, 0.1, 7022, 7312
5.1, 0.1, 7017, 7312
5.2, 0.1, 7013, 7312
5.3, 0.1, 7009, 7312
5.4, 0.1, 7005, 7312
5.5, 0.1, 7001, 7312
5.6, 0.1, 6997, 7312
5.7, 0.1, 6993, 7312
5.8, 0.1, 6988, 7312
5.9, 0.1, 6986, 7312
6, 0.1, 6985, 7312
6.1, 0.1, 6982, 7312
6.2, 0.1, 6979, 7312
6.3, 0.1, 6976, 7312
6.4, 0.1, 6973, 7312
6.5, 0.1, 6971, 7312
6.6, 0.1, 6967, 7312
6.7, 0.1, 6964, 7312
6.8, 0.1, 6962, 7312
6.9, 0.1, 6957, 7312
7, 0.1, 6953, 7312
7.1, 0.1, 6949, 7312
7.2, 0.1, 6949, 7312
7.3, 0.1, 6944, 7312
7.4, 0.1, 6940, 7312
7.5, 0.1, 6938, 7312
7.6, 0.1, 6933, 7312
7.7, 0.1, 6933, 7312
7.8, 0.1, 6930, 7312
7.9, 0.1, 6925, 7312
8, 0.1, 6923, 7312
8.1, 0.1, 6920, 7312
8.2, 0.1, 6916, 7312
8.3, 0.1, 6909, 7312
8.4, 0.1, 6906, 7312
8.5, 0.1, 6904, 7312
8.6, 0.1, 6902, 7312
8.7, 0.1, 6898, 7312
8.8, 0.1, 6894, 7312
8.9, 0.1, 6892, 7312
9, 0.1, 6889, 7312
9.1, 0.1, 6886, 7312
9.2, 0.1, 6884, 7312
9.3, 0.1, 6883, 7312
9.4, 0.1, 6878, 7312
9.5, 0.1, 6873, 7312
9.6, 0.1, 6864, 7312
9.7, 0.1, 6856, 7312
9.8, 0.1, 6851, 7312
9.9, 0.1, 6849, 7312
10, 0.1, 6844, 7312
-10, 0.2, 1850, 5643
-9.9, 0.2, 1873, 5643
-9.8, 0.2, 1898, 5643
-9.7, 0.2, 1917, 5643
-9.6, 0.2, 1942, 5643
-9.5, 0.2, 1968, 5643
-9.4, 0.2, 1987, 5643
-9.3, 0.2, 2007, 5643
-9.2, 0.2, 2034, 5643
-9.1, 0.2, 2057, 5643
-9, 0.2, 2087, 5643
-8.9, 0.2, 2114, 5643
-8.8, 0.2, 2139, 5643
-8.7, 0.2, 2170, 5643
-8.6, 0.2, 2210, 5643
-8.5, 0.2, 2244, 5643
-8.4, 0.2, 2269, 5643
-8.3, 0.2, 2300, 5643
-8.2, 0.2, 2322, 5643
-8.1, 0.2, 2357, 5643
-8, 0.2, 2390, 5643
-7.9, 0.2, 2423, 5643
-7.8, 0.2, 2454, 5643
-7.7, 0.2, 2481, 5643
-7.6, 0.2, 2524, 5643
-7.5, 0.2, 2558, 5643
-7.4, 0.2, 2587, 5643
-7.3, 0.2, 2618, 5643
-7.2, 0.2, 2653, 5643
-7.1, 0.2, 2696, 5643
-7, 0.2, 2741, 5643
-6.9, 0.2, 2784, 5643
-6.8, 0.2, 2815, 5643
-6.7, 0.2, 2847, 5643
-6.6, 0.2, 2877, 5643
-6.5, 0.2, 2909, 5643
-6.4, 0.2, 2932, 5643
-6.3, 0.2, 2963, 5643
-6.2, 0.2, 2999, 5643
-6.1, 0.2, 3035, 5643
-6, 0.2, 3072, 5643
-5.9, 0.2, 3110, 5643
-5.8, 0.2, 3142, 5643
-5.7, 0.2, 3198, 5643
-5.6, 0.2, 3242, 5643
-5.5, 0.2, 3282, 5643
-5.4, 0.2, 3303, 5643
-5.3, 0.2, 3350, 5643
-5.2, 0.2, 3383, 5643
-5.1, 0.2, 3436, 5643
-5, 0.2, 3476, 5643
-4.9, 0.2, 3524, 5643
-4.8, 0.2, 3561, 5643
-4.7, 0.2, 3601, 5643
-4.6, 0.2, 3644, 5643
-4.5, 0.2, 3682, 5643
-4.4, 0.2, 3717, 5643
-4.3, 0.2, 3752, 5643
-4.2, 0.2, 3797, 5643
-4.1, 0.2, 3849, 5643
-4, 0.2, 3896, 5643
-3.9, 0.2, 3933, 5643
-3.8, 0.2, 3984, 5643
-3.7, 0.2, 4047, 5643
-3.6, 0.2, 4092, 5643
-3.5, 0.2, 4136, 5643
-3.4, 0.2, 4174, 5643
-3.3, 0.2, 4217, 5643
-3.2, 0.2, 4257, 5643
-3.1, 0.2, 4289, 5643
-3, 0.2, 4335, 5643
-2.9, 0.2, 4388, 5643
-2.8, 0.2, 4429, 5643
-2.7, 0.2, 4458, 5643
-2.6, 0.2, 4488, 5643
-2.5, 0.2, 4520, 5643
-2.4, 0.2, 4541, 5643
-2.3, 0.2, 4571, 5643
-2.2, 0.2, 4601, 5643
-2.1, 0.2, 4616, 5643
-2, 0.2, 4639, 5643
-1.9, 0.2, 4668, 5643
-1.8, 0.2, 4696, 5643
-1.7, 0.2, 4744, 5643
-1.6, 0.2, 4792, 5643
-1.5, 0.2, 4865, 5643
-1.4, 0.2, 4929, 5643
-1.3, 0.2, 5007, 5643
-1.2, 0.2, 5081, 5643
-1.1, 0.2, 5160, 5643
-1, 0.2, 5237, 5643
-0.9, 0.2, 5304, 5643
-0.8, 0.2, 5360, 5643
-0.7, 0.2, 5401, 5643
-0.6, 0.2, 5440, 5643
-0.5, 0.2, 5465, 5643
-0.4, 0.2, 5482, 5643
-0.3, 0.2, 5505, 5643
-0.2, 0.2, 5510, 5643
-0.1, 0.2, 5514, 5643
-1.87905e-14, 0.2, 5513, 5643
0.1, 0.2, 5513, 5643
0.2, 0.2, 5513, 5643
0.3, 0.2, 5513, 5643
0.4, 0.2, 5512, 5643
0.5, 0.2, 5510, 5643
0.6, 0.2, 5508, 5643
0.7, 0.2, 5508, 5643
0.8, 0.2, 5507, 5643
0.9, 0.2, 5506, 5643
1, 0.2, 5506, 5643
1.1, 0.2, 5506, 5643
1.2, 0.2, 5506, 5643
1.3, 0.2, 5506, 5643
1.4, 0.2, 5505, 5643
1.5, 0.2, 5504, 5643
1.6, 0.2, 5501, 5643
1.7, 0.2, 5499, 5643
1.8, 0.2, 5498, 5643
1.9, 0.2, 5495, 5643
2, 0.2, 5495, 5643
2.1, 0.2, 5493, 5643
2.2, 0.2, 5491, 5643
2.3, 0.2, 5490, 5643
2.4, 0.2, 5489, 5643
2.5, 0.2, 5488, 5643
2.6, 0.2, 5485, 5643
2.7, 0.2, 5485, 5643
2.8, 0.2, 5483, 5643
2.9, 0.2, 5483, 5643
3, 0.2, 5481, 5643
3.1, 0.2, 5481, 5643
3.2, 0.2, 5481, 5643
3.3, 0.2, 5478, 5643
3.4, 0.2, 5477, 5643
3.5, 0.2, 5477, 5643
3.6, 0.2, 5477, 5643
3.7, 0.2, 5473, 5643
3.8, 0.2, 5471, 5643
3.9, 0.2, 5470, 5643
4, 0.2, 5467, 5643
4.1, 0.2, 5464, 5643
4.2, 0.2, 5463, 5643
4.3, 0.2, 5462, 5643
4.4, 0.2, 5459, 5643
4.5, 0.2, 5454, 5643
4.6, 0.2, 5452, 5643
4.7, 0.2, 5448, 5643
4.8, 0.2, 5448, 5643
4.9, 0.2, 5447, 5643
5, 0.2, 5442, 5643
5.1, 0.2, 5437, 5643
5.2, 0.2, 5434, 5643
5.3, 0.2, 5431, 5643
5.4, 0.2, 5429, 5643
5.5, 0.2, 5428, 5643
5.6, 0.2, 5426, 5643
5.7, 0.2, 5424, 5643
5.8, 0.2, 5419, 5643
5.9, 0.2, 5418, 5643
6, 0.2, 5417, 5643
6.1, 0.2, 5414, 5643
6.2, 0.2, 5412, 5643
6.3, 0.2, 5411, 5643
6.4, 0.2, 5409, 5643
6.5, 0.2, 5407, 5643
6.6, 0.2, 5405, 5643
6.7, 0.2, 5404, 5643
6.8, 0.2, 5403, 5643
6.9, 0.2, 5399, 5643
7, 0.2, 5397, 5643
7.1, 0.2, 5395, 5643
7.2, 0.2, 5395, 5643
7.3, 0.2, 5391, 5643
7.4, 0.2, 5388, 5643
7.5, 0.2, 5386, 5643
7.6, 0.2, 5382, 5643
7.7, 0.2, 5382, 5643
7.8, 0.2, 5380, 5643
7.9, 0.2, 5379, 5643
8, 0.2, 5377, 5643
8.1, 0.2, 5377, 5643
8.2, 0.2, 5374, 5643
8.3, 0.2, 5370, 5643
8.4, 0.2, 5368, 5643
8.5, 0.2, 5367, 5643
8.6, 0.2, 5365, 5643
8.7, 0.2, 5362, 5643
8.8, 0.2, 5359, 5643
8.9, 0.2, 5358, 5643
9, 0.2, 5356, 5643
9.1, 0.2, 5354, 5643
9.2, 0.2, 5353, 5643
9.3, 0.2, 5352, 5643
9.4, 0.2, 5348, 5643
9.5, 0.2, 5345, 5643
9.6, 0.2, 5338, 5643
9.7, 0.2, 5333, 5643
9.8, 0.2, 5328, 5643
9.9, 0.2, 5326, 5643
10, 0.2, 5325, 5643
-10, 0.3, 1296, 4286
-9.9, 0.3, 1311, 4286
-9.8, 0.3, 1333, 4286
-9.7, 0.3, 1350, 4286
-9.6, 0.3, 1368, 4286
-9.5, 0.3, 1389, 4286
-9.4, 0.3, 1401, 4286
-9.3, 0.3, 1414, 4286
-9.2, 0.3, 1431, 4286
-9.1, 0.3, 1451, 4286
-9, 0.3, 1471, 4286
-8.9, 0.3, 1487, 4286
-8.8, 0.3, 1503, 4286
-8.7, 0.3, 1523, 4286
-8.6, 0.3, 1556, 4286
-8.5, 0.3, 1580, 4286
-8.4, 0.3, 1600, 4286
-8.3, 0.3, 1625, 4286
-8.2, 0.3, 1644, 4286
-8.1, 0.3, 1670, 4286
-8, 0.3, 1695, 4286
-7.9, 0.3, 1723, 4286
-7.8, 0.3, 1747, 4286
-7.7, 0.3, 1766, 4286
-7.6, 0.3, 1796, 4286
-7.5, 0.3, 1819, 4286
-7.4, 0.3, 1836, 4286
-7.3, 0.3, 1862, 4286
-7.2, 0.3, 1884, 4286
-7.1, 0.3, 1921, 4286
-7, 0.3, 1955, 4286
-6.9, 0.3, 1986, 4286
-6.8, 0.3, 2006, 4286
-6.7, 0.3, 2032, 4286
-6.6, 0.3, 2050, 4286
-6.5, 0.3, 2079, 4286
-6.4, 0.3, 2095, 4286
-6.3, 0.3, 2114, 4286
-6.2, 0.3, 2142, 4286
-6.1, 0.3, 2162, 4286
-6, 0.3, 2189, 4286
-5.9, 0.3, 2220, 4286
-5.8, 0.3, 2245, 4286
-5.7, 0.3, 2282, 4286
-5.6, 0.3, 2312, 4286
-5.5, 0.3, 2343, 4286
-5.4, 0.3, 2361, 4286
-5.3, 0.3, 2397, 4286
-5.2, 0.3, 2415, 4286
-5.1, 0.3, 2456, 4286
-5, 0.3, 2482, 4286
-4.9, 0.3, 2520, 4286
-4.8, 0.3, 2550, 4286
-4.7, 0.3, 2582, 4286
-4.6, 0.3, 2615, 4286
-4.5, 0.3, 2645, 4286
-4.4, 0.3, 2677, 4286
-4.3, 0.3, 2708, 4286
-4.2, 0.3, 2748, 4286
-4.1, 0.3, 2790, 4286
-4, 0.3, 2829, 4286
-3.9, 0.3, 2860, 4286
-3.8, 0.3, 2909, 4286
-3.7, 0.3, 2962, 4286
-3.6, 0.3, 2999, 4286
-3.5, 0.3, 3032, 4286
-3.4, 0.3, 3063, 4286
-3.3, 0.3, 3099, 4286
-3.2, 0.3, 3129, 4286
-3.1, 0.3, 3157, 4286
-3, 0.3, 3195, 4286
-2.9, 0.3, 3239, 4286
-2.8, 0.3, 3271, 4286
-2.7, 0.3, 3295, 4286
-2.6, 0.3, 3320, 4286
-2.5, 0.3, 3347, 4286
-2.4, 0.3, 3361, 4286
-2.3, 0.3, 3385, 4286
-2.2, 0.3, 3412, 4286
-2.1, 0.3, 3423, 4286
-2, 0.3, 3442, 4286
-1.9, 0.3, 3464, 4286
-1.8, 0.3, 3489, 4286
-1.7, 0.3, 3529, 4286
-1.6, 0.3, 3571, 4286
-1.5, 0.3, 3638, 4286
-1.4, 0.3, 3692, 4286
-1.3, 0.3, 3765, 4286
-1.2, 0.3, 3830, 4286
-1.1, 0.3, 3901, 4286
-1, 0.3, 3967, 4286
-0.9, 0.3, 4027, 4286
-0.8, 0.3, 4079, 4286
-0.7, 0.3, 4114, 4286
-0.6, 0.3, 4144, 4286
-0.5, 0.3, 4166, 4286
-0.4, 0.3, 4181, 4286
-0.3, 0.3, 4200, 4286
-0.2, 0.3, 4205, 4286
-0.1, 0.3, 4208, 4286
-1.87905e-14, 0.3, 4208, 4286
0.1, 0.3, 4208, 4286
0.2, 0.3, 4208, 4286
0.3, 0.3, 4209, 4286
0.4, 0.3, 4208, 4286
0.5, 0.3, 4208, 4286
0.6, 0.3, 4206, 4286
0.7, 0.3, 4206, 4286
0.8, 0.3, 4206, 4286
0.9, 0.3, 4206, 4286
1, 0.3, 4206, 4286
1.1, 0.3, 4206, 4286
1.2, 0.3, 4206, 4286
1.3, 0.3, 4206, 4286
1.4, 0.3, 4206, 4286
1.5, 0.3, 4206, 4286
1.6, 0.3, 4203, 4286
1.7, 0.3, 4202, 4286
1.8, 0.3, 4201, 4286
1.9, 0.3, 4198, 4286
2, 0.3, 4198, 4286
2.1, 0.3, 4197, 4286
2.2, 0.3, 4197, 4286
2.3, 0.3, 4196, 4286
2.4, 0.3, 4196, 4286
2.5, 0.3, 4195, 4286
2.6, 0.3, 4193, 4286
2.7, 0.3, 4193, 4286
2.8, 0.3, 4192, 4286
2.9, 0.3, 4192, 4286
3, 0.3, 4190, 4286
3.1, 0.3, 4190, 4286
3.2, 0.3, 4190, 4286
3.3, 0.3, 4188, 4286
3.4, 0.3, 4187, 4286
3.5, 0.3, 4187, 4286
3.6, 0.3, 4187, 4286
3.7, 0.3, 4185, 4286
3.8, 0.3, 4183, 4286
3.9, 0.3, 4182, 4286
4, 0.3, 4180, 4286
4.1, 0.3, 4177, 4286
4.2, 0.3, 4176, 4286
4.3, 0.3, 4175, 4286
4.4, 0.3, 4175, 4286
4.5, 0.3, 4172, 4286
4.6, 0.3, 4172, 4286
4.7, 0.3, 4168, 4286
4.8, 0.3, 4168, 4286
4.9, 0.3, 4167, 4286
5, 0.3, 4163, 4286
5.1, 0.3, 4159, 4286
5.2, 0.3, 4156, 4286
5.3, 0.3, 4154, 4286
5.4, 0.3, 4153, 4286
5.5, 0.3, 4152, 4286
5.6, 0.3, 4152, 4286
5.7, 0.3, 4150, 4286
5.8, 0.3, 4146, 4286
5.9, 0.3, 4145, 4286
6, 0.3, 4144, 4286
6.1, 0.3, 4142, 4286
6.2, 0.3, 4142, 4286
6.3, 0.3, 4141, 4286
6.4, 0.3, 4140, 4286
6.5, 0.3, 4139, 4286
6.6, 0.3, 4138, 4286
6.7, 0.3, 4138, 4286
6.8, 0.3, 4137, 4286
6.9, 0.3, 4135, 4286
7, 0.3, 4133, 4286
7.1, 0.3, 4132, 4286
7.2, 0.3, 4132, 4286
7.3, 0.3, 4129, 4286
7.4, 0.3, 4128, 4286
7.5, 0.3, 4128, 4286
7.6, 0.3, 4125, 4286
7.7, 0.3, 4125, 4286
7.8, 0.3, 4123, 4286
7.9, 0.3, 4122, 4286
8, 0.3, 4121, 4286
8.1, 0.3, 4121, 4286
8.2, 0.3, 4119, 4286
8.3, 0.3, 4116, 4286
8.4, 0.3, 4116, 4286
8.5, 0.3, 4115, 4286
8.6, 0.3, 4114, 4286
8.7, 0.3, 4113, 4286
8.8, 0.3, 4110, 4286
8.9, 0.3, 4110, 4286
9, 0.3, 4109, 4286
9.1, 0.3, 4107, 4286
9.2, 0.3, 4106, 4286
9.3, 0.3, 4106, 4286
9.4, 0.3, 4104, 4286
9.5, 0.3, 4102, 4286
9.6, 0.3, 4097, 4286
9.7, 0.3, 4094, 4286
9.8, 0.3, 4090, 4286
9.9, 0.3, 4088, 4286
10, 0.3, 4088, 4286
-10, 0.4, 903, 3242
-9.9, 0.4, 916, 3242
-9.8, 0.4, 930, 3242
-9.7, 0.4, 941, 3242
-9.6, 0.4, 955, 3242
-9.5, 0.4, 972, 3242
-9.4, 0.4, 980, 3242
-9.3, 0.4, 990, 3242
-9.2, 0.4, 1003, 3242
-9.1, 0.4, 1018, 3242
-9, 0.4, 1031, 3242
-8.9, 0.4, 1046, 3242
-8.8, 0.4, 1058, 3242
-8.7, 0.4, 1077, 3242
-8.6, 0.4, 1103, 3242
-8.5, 0.4, 1122, 3242
-8.4, 0.4, 1140, 3242
-8.3, 0.4, 1161, 3242
-8.2, 0.4, 1178, 3242
-8.1, 0.4, 1197, 3242
-8, 0.4, 1216, 3242
-7.9, 0.4, 1241, 3242
-7.8, 0.4, 1258, 3242
-7.7, 0.4, 1273, 3242
-7.6, 0.4, 1296, 3242
-7.5, 0.4, 1314, 3242
-7.4, 0.4, 1324, 3242
-7.3, 0.4, 1339, 3242
-7.2, 0.4, 1353, 3242
-7.1, 0.4, 1382, 3242
-7, 0.4, 1407, 3242
-6.9, 0.4, 1426, 3242
-6.8, 0.4, 1441, 3242
-6.7, 0.4, 1464, 3242
-6.6, 0.4, 1475, 3242
-6.5, 0.4, 1497, 3242
-6.4, 0.4, 1512, 3242
-6.3, 0.4, 1526, 3242
-6.2, 0.4, 1549, 3242
-6.1, 0.4, 1562, 3242
-6, 0.4, 1583, 3242
-5.9, 0.4, 1610, 3242
-5.8, 0.4, 1634, 3242
-5.7, 0.4, 1665, 3242
-5.6, 0.4, 1683, 3242
-5.5, 0.4, 1710, 3242
-5.4, 0.4, 1722, 3242
-5.3, 0.4, 1751, 3242
-5.2, 0.4, 1765, 3242
-5.1, 0.4, 1796, 3242
-5, 0.4, 1817, 3242
-4.9, 0.4, 1850, 3242
-4.8, 0.4, 1874, 3242
-4.7, 0.4, 1899, 3242
-4.6, 0.4, 1927, 3242
-4.5, 0.4, 1951, 3242
-4.4, 0.4, 1978, 3242
-4.3, 0.4, 2005, 3242
-4.2, 0.4, 2031, 3242
-4.1, 0.4, 2066, 3242
-4, 0.4, 2093, 3242
-3.9, 0.4, 2124, 3242
-3.8, 0.4, 2164, 3242
-3.7, 0.4, 2206, 3242
-3.6, 0.4, 2236, 3242
-3.5, 0.4, 2262, 3242
-3.4, 0.4, 2290, 3242
-3.3, 0.4, 2321, 3242
-3.2, 0.4, 2349, 3242
-3.1, 0.4, 2371, 3242
-3, 0.4, 2402, 3242
-2.9, 0.4, 2441, 3242
-2.8, 0.4, 2469, 3242
-2.7, 0.4, 2487, 3242
-2.6, 0.4, 2506, 3242
-2.5, 0.4, 2525, 3242
-2.4, 0.4, 2536, 3242
-2.3, 0.4, 2555, 3242
-2.2, 0.4, 2575, 3242
-2.1, 0.4, 2583, 3242
-2, 0.4, 2598, 3242
-1.9, 0.4, 2618, 3242
-1.8, 0.4, 2638, 3242
-1.7, 0.4, 2667, 3242
-1.6, 0.4, 2704, 3242
-1.5, 0.4, 2756, 3242
-1.4, 0.4, 2797, 3242
-1.3, 0.4, 2852, 3242
-1.2, 0.4, 2903, 3242
-1.1, 0.4, 2958, 3242
-1, 0.4, 3011, 3242
-0.9, 0.4, 3063, 3242
-0.8, 0.4, 3108, 3242
-0.7, 0.4, 3136, 3242
-0.6, 0.4, 3157, 3242
-0.5, 0.4, 3177, 3242
-0.4, 0.4, 3187, 3242
-0.3, 0.4, 3201, 3242
-0.2, 0.4, 3205, 3242
-0.1, 0.4, 3207, 3242
-1.87905e-14, 0.4, 3207, 3242
0.1, 0.4, 3206, 3242
0.2, 0.4, 3206, 3242
0.3, 0.4, 3207, 3242
0.4, 0.4, 3206, 3242
0.5, 0.4, 3206, 3242
0.6, 0.4, 3205, 3242
0.7, 0.4, 3205, 3242
0.8, 0.4, 3205, 3242
0.9, 0.4, 3205, 3242
1, 0.4, 3205, 3242
1.1, 0.4, 3205, 3242
1.2, 0.4, 3205, 3242
1.3, 0.4, 3205, 3242
1.4, 0.4, 3205, 3242
1.5, 0.4, 3205, 3242
1.6, 0.4, 3203, 3242
1.7, 0.4, 3202, 3242
1.8, 0.4, 3201, 3242
1.9, 0.4, 3200, 3242
2, 0.4, 3200, 3242
2.1, 0.4, 3200, 3242
2.2, 0.4, 3200, 3242
2.3, 0.4, 3199, 3242
2.4, 0.4, 3199, 3242
2.5, 0.4, 3198, 3242
2.6, 0.4, 3196, 3242
2.7, 0.4, 3196, 3242
2.8, 0.4, 3196, 3242
2.9, 0.4, 3196, 3242
3, 0.4, 3194, 3242
3.1, 0.4, 3194, 3242
3.2, 0.4, 3194, 3242
3.3, 0.4, 3192, 3242
3.4, 0.4, 3191, 3242
3.5, 0.4, 3191, 3242
3.6, 0.4, 3191, 3242
3.7, 0.4, 3190, 3242
3.8, 0.4, 3190, 3242
3.9, 0.4, 3189, 3242
4, 0.4, 3187, 3242
4.1, 0.4, 3184, 3242
4.2, 0.4, 3183, 3242
4.3, 0.4, 3183, 3242
4.4, 0.4, 3183, 3242
4.5, 0.4, 3180, 3242
4.6, 0.4, 3180, 3242
4.7, 0.4, 3177, 3242
4.8, 0.4, 3177, 3242
4.9, 0.4, 3177, 3242
5, 0.4, 3176, 3242
5.1, 0.4, 3173, 3242
5.2, 0.4, 3172, 3242
5.3, 0.4, 3171, 3242
5.4, 0.4, 3170, 3242
5.5, 0.4, 3170, 3242
5.6, 0.4, 3170, 3242
5.7, 0.4, 3168, 3242
5.8, 0.4, 3165, 3242
5.9, 0.4, 3164, 3242
6, 0.4, 3163, 3242
6.1, 0.4, 3162, 3242
6.2, 0.4, 3162, 3242
6.3, 0.4, 3162, 3242
6.4, 0.4, 3162, 3242
6.5, 0.4, 3162, 3242
6.6, 0.4, 3162, 3242
6.7, 0.4, 3162, 3242
6.8, 0.4, 3161, 3242
6.9, 0.4, 3159, 3242
7, 0.4, 3158, 3242
7.1, 0.4, 3157, 3242
7.2, 0.4, 3157, 3242
7.3, 0.4, 3155, 3242
7.4, 0.4, 3154, 3242
7.5, 0.4, 3154, 3242
7.6, 0.4, 3152, 3242
7.7, 0.4, 3152, 3242
7.8, 0.4, 3152, 3242
7.9, 0.4, 3151, 3242
8, 0.4, 3150, 3242
8.1, 0.4, 3150, 3242
8.2, 0.4, 3150, 3242
8.3, 0.4, 3149, 3242
8.4, 0.4, 3149, 3242
8.5, 0.4, 3148, 3242
8.6, 0.4, 3148, 3242
8.7, 0.4, 3147, 3242
8.8, 0.4, 3146, 3242
8.9, 0.4, 3146, 3242
9, 0.4, 3146, 3242
9.1, 0.4, 3146, 3242
9.2, 0.4, 3145, 3242
9.3, 0.4, 3145, 3242
9.4, 0.4, 3144, 3242
9.5, 0.4, 3143, 3242
9.6, 0.4, 3142, 3242
9.7, 0.4, 3140, 3242
9.8, 0.4, 3138, 3242
9.9, 0.4, 3137, 3242
10, 0.4, 3137, 3242
-10, 0.5, 621, 2394
-9.9, 0.5, 629, 2394
-9.8, 0.5, 638, 2394
-9.7, 0.5, 645, 2394
-9.6, 0.5, 655, 2394
-9.5, 0.5, 668, 2394
-9.4, 0.5, 675, 2394
-9.3, 0.5, 682, 2394
-9.2, 0.5, 689, 2394
-9.1, 0.5, 701, 2394
-9, 0.5, 708, 2394
-8.9, 0.5, 717, 2394
-8.8, 0.5, 727, 2394
-8.7, 0.5, 740, 2394
-8.6, 0.5, 761, 2394
-8.5, 0.5, 776, 2394
-8.4, 0.5, 791, 2394
-8.3, 0.5, 806, 2394
-8.2, 0.5, 819, 2394
-8.1, 0.5, 833, 2394
-8, 0.5, 850, 2394
-7.9, 0.5, 871, 2394
-7.8, 0.5, 885, 2394
-7.7, 0.5, 895, 2394
-7.6, 0.5, 910, 2394
-7.5, 0.5, 925, 2394
-7.4, 0.5, 933, 2394
-7.3, 0.5, 943, 2394
-7.2, 0.5, 954, 2394
-7.1, 0.5, 978, 2394
-7, 0.5, 994, 2394
-6.9, 0.5, 1010, 2394
-6.8, 0.5, 1020, 2394
-6.7, 0.5, 1038, 2394
-6.6, 0.5, 1046, 2394
-6.5, 0.5, 1065, 2394
-6.4, 0.5, 1077, 2394
-6.3, 0.5, 1086, 2394
-6.2, 0.5, 1107, 2394
-6.1, 0.5, 1116, 2394
-6, 0.5, 1132, 2394
-5.9, 0.5, 1153, 2394
-5.8, 0.5, 1170, 2394
-5.7, 0.5, 1190, 2394
-5.6, 0.5, 1206, 2394
-5.5, 0.5, 1229, 2394
-5.4, 0.5, 1241, 2394
-5.3, 0.5, 1265, 2394
-5.2, 0.5, 1275, 2394
-5.1, 0.5, 1298, 2394
-5, 0.5, 1312, 2394
-4.9, 0.5, 1338, 2394
-4.8, 0.5, 1357, 2394
-4.7, 0.5, 1376, 2394
-4.6, 0.5, 1396, 2394
-4.5, 0.5, 1413, 2394
-4.4, 0.5, 1437, 2394
-4.3, 0.5, 1460, 2394
-4.2, 0.5, 1483, 2394
-4.1, 0.5, 1507, 2394
-4, 0.5, 1529, 2394
-3.9, 0.5, 1556, 2394
-3.8, 0.5, 1589, 2394
-3.7, 0.5, 1621, 2394
-3.6, 0.5, 1648, 2394
-3.5, 0.5, 1671, 2394
-3.4, 0.5, 1698, 2394
-3.3, 0.5, 1724, 2394
-3.2, 0.5, 1746, 2394
-3.1, 0.5, 1764, 2394
-3, 0.5, 1788, 2394
-2.9, 0.5, 1815, 2394
-2.8, 0.5, 1838, 2394
-2.7, 0.5, 1853, 2394
-2.6, 0.5, 1869, 2394
-2.5, 0.5, 1886, 2394
-2.4, 0.5, 1896, 2394
-2.3, 0.5, 1909, 2394
-2.2, 0.5, 1923, 2394
-2.1, 0.5, 1929, 2394
-2, 0.5, 1939, 2394
-1.9, 0.5, 1953, 2394
-1.8, 0.5, 1966, 2394
-1.7, 0.5, 1987, 2394
-1.6, 0.5, 2012, 2394
-1.5, 0.5, 2051, 2394
-1.4, 0.5, 2086, 2394
-1.3, 0.5, 2126, 2394
-1.2, 0.5, 2165, 2394
-1.1, 0.5, 2200, 2394
-1, 0.5, 2236, 2394
-0.9, 0.5, 2275, 2394
-0.8, 0.5, 2304, 2394
-0.7, 0.5, 2326, 2394
-0.6, 0.5, 2343, 2394
-0.5, 0.5, 2355, 2394
-0.4, 0.5, 2363, 2394
-0.3, 0.5, 2371, 2394
-0.2, 0.5, 2375, 2394
-0.1, 0.5, 2376, 2394
-1.87905e-14, 0.5, 2377, 2394
0.1, 0.5, 2376, 2394
0.2, 0.5, 2376, 2394
0.3, 0.5, 2377, 2394
0.4, 0.5, 2376, 2394
0.5, 0.5, 2376, 2394
0.6, 0.5, 2375, 2394
0.7, 0.5, 2375, 2394
0.8, 0.5, 2375, 2394
0.9, 0.5, 2375, 2394
1, 0.5, 2375, 2394
1.1, 0.5, 2375, 2394
1.2, 0.5, 2375, 2394
1.3, 0.5, 2375, 2394
1.4, 0.5, 2375, 2394
1.5, 0.5, 2375, 2394
1.6, 0.5, 2373, 2394
1.7, 0.5, 2373, 2394
1.8, 0.5, 2373, 2394
1.9, 0.5, 2372, 2394
2, 0.5, 2372, 2394
2.1, 0.5, 2372, 2394
2.2, 0.5, 2372, 2394
2.3, 0.5, 2372, 2394
2.4, 0.5, 2372, 2394
2.5, 0.5, 2372, 2394
2.6, 0.5, 2370, 2394
2.7, 0.5, 2370, 2394
2.8, 0.5, 2370, 2394
2.9, 0.5, 2370, 2394
3, 0.5, 2370, 2394
3.1, 0.5, 2370, 2394
3.2, 0.5, 2370, 2394
3.3, 0.5, 2370, 2394
3.4, 0.5, 2369, 2394
3.5, 0.5, 2369, 2394
3.6, 0.5, 2369, 2394
3.7, 0.5, 2368, 2394
3.8, 0.5, 2368, 2394
3.9, 0.5, 2367, 2394
4, 0.5, 2365, 2394
4.1, 0.5, 2364, 2394
4.2, 0.5, 2364, 2394
4.3, 0.5, 2364, 2394
4.4, 0.5, 2364, 2394
4.5, 0.5, 2363, 2394
4.6, 0.5, 2363, 2394
4.7, 0.5, 2363, 2394
4.8, 0.5, 2363, 2394
4.9, 0.5, 2363, 2394
5, 0.5, 2363, 2394
5.1, 0.5, 2363, 2394
5.2, 0.5, 2363, 2394
5.3, 0.5, 2363, 2394
5.4, 0.5, 2363, 2394
5.5, 0.5, 2363, 2394
5.6, 0.5, 2363, 2394
5.7, 0.5, 2363, 2394
5.8, 0.5, 2363, 2394
5.9, 0.5, 2363, 2394
6, 0.5, 2363, 2394
6.1, 0.5, 2363, 2394
6.2, 0.5, 2363, 2394
6.3, 0.5, 2363, 2394
6.4, 0.5, 2363, 2394
6.5, 0.5, 2363, 2394
6.6, 0.5, 2363, 2394
6.7, 0.5, 2363, 2394
6.8, 0.5, 2363, 2394
6.9, 0.5, 2363, 2394
7, 0.5, 2363, 2394
7.1, 0.5, 2363, 2394
7.2, 0.5, 2363, 2394
7.3, 0.5, 2362, 2394
7.4, 0.5, 2361, 2394
7.5, 0.5, 2361, 2394
7.6, 0.5, 2360, 2394
7.7, 0.5, 2360, 2394
7.8, 0.5, 2360, 2394
7.9, 0.5, 2360, 2394
8, 0.5, 2359, 2394
8.1, 0.5, 2359, 2394
8.2, 0.5, 2359, 2394
8.3, 0.5, 2358, 2394
8.4, 0.5, 2358, 2394
8.5, 0.5, 2357, 2394
8.6, 0.5, 2357, 2394
8.7, 0.5, 2356, 2394
8.8, 0.5, 2356, 2394
8.9, 0.5, 2356, 2394
9, 0.5, 2356, 2394
9.1, 0.5, 2356, 2394
9.2, 0.5, 2356, 2394
9.3, 0.5, 2356, 2394
9.4, 0.5, 2356, 2394
9.5, 0.5, 2355, 2394
9.6, 0.5, 2354, 2394
9.7, 0.5, 2352, 2394
9.8, 0.5, 2351, 2394
9.9, 0.5, 2351, 2394
10, 0.5, 2351, 2394
-10, 0.6, 438, 1774
-9.9, 0.6, 445, 1774
-9.8, 0.6, 454, 1774
-9.7, 0.6, 461, 1774
-9.6, 0.6, 469, 1774
-9.5, 0.6, 478, 1774
-9.4, 0.6, 483, 1774
-9.3, 0.6, 488, 1774
-9.2, 0.6, 492, 1774
-9.1, 0.6, 500, 1774
-9, 0.6, 505, 1774
-8.9, 0.6, 511, 1774
-8.8, 0.6, 520, 1774
-8.7, 0.6, 529, 1774
-8.6, 0.6, 547, 1774
-8.5, 0.6, 558, 1774
-8.4, 0.6, 568, 1774
-8.3, 0.6, 581, 1774
-8.2, 0.6, 591, 1774
-8.1, 0.6, 601, 1774
-8, 0.6, 613, 1774
-7.9, 0.6, 630, 1774
-7.8, 0.6, 641, 1774
-7.7, 0.6, 647, 1774
-7.6, 0.6, 659, 1774
-7.5, 0.6, 667, 1774
-7.4, 0.6, 673, 1774
-7.3, 0.6, 684, 1774
-7.2, 0.6, 694, 1774
-7.1, 0.6, 710, 1774
-7, 0.6, 722, 1774
-6.9, 0.6, 733, 1774
-6.8, 0.6, 739, 1774
-6.7, 0.6, 753, 1774
-6.6, 0.6, 761, 1774
-6.5, 0.6, 775, 1774
-6.4, 0.6, 784, 1774
-6.3, 0.6, 790, 1774
-6.2, 0.6, 804, 1774
-6.1, 0.6, 809, 1774
-6, 0.6, 820, 1774
-5.9, 0.6, 840, 1774
-5.8, 0.6, 854, 1774
-5.7, 0.6, 870, 1774
-5.6, 0.6, 883, 1774
-5.5, 0.6, 904, 1774
-5.4, 0.6, 912, 1774
-5.3, 0.6, 932, 1774
-5.2, 0.6, 940, 1774
-5.1, 0.6, 959, 1774
-5, 0.6, 971, 1774
-4.9, 0.6, 990, 1774
-4.8, 0.6, 1004, 1774
-4.7, 0.6, 1019, 1774
-4.6, 0.6, 1035, 1774
-4.5, 0.6, 1047, 1774
-4.4, 0.6, 1066, 1774
-4.3, 0.6, 1086, 1774
-4.2, 0.6, 1107, 1774
-4.1, 0.6, 1127, 1774
-4, 0.6, 1145, 1774
-3.9, 0.6, 1161, 1774
-3.8, 0.6, 1185, 1774
-3.7, 0.6, 1208, 1774
-3.6, 0.6, 1230, 1774
-3.5, 0.6, 1250, 1774
-3.4, 0.6, 1272, 1774
-3.3, 0.6, 1294, 1774
-3.2, 0.6, 1309, 1774
-3.1, 0.6, 1326, 1774
-3, 0.6, 1342, 1774
-2.9, 0.6, 1366, 1774
-2.8, 0.6, 1386, 1774
-2.7, 0.6, 1398, 1774
-2.6, 0.6, 1410, 1774
-2.5, 0.6, 1425, 1774
-2.4, 0.6, 1435, 1774
-2.3, 0.6, 1446, 1774
-2.2, 0.6, 1459, 1774
-2.1, 0.6, 1465, 1774
-2, 0.6, 1471, 1774
-1.9, 0.6, 1479, 1774
-1.8, 0.6, 1487, 1774
-1.7, 0.6, 1505, 1774
-1.6, 0.6, 1525, 1774
-1.5, 0.6, 1552, 1774
-1.4, 0.6, 1575, 1774
-1.3, 0.6, 1600, 1774
-1.2, 0.6, 1629, 1774
-1.1, 0.6, 1652, 1774
-1, 0.6, 1679, 1774
-0.9, 0.6, 1699, 1774
-0.8, 0.6, 1720, 1774
-0.7, 0.6, 1737, 1774
-0.6, 0.6, 1749, 1774
-0.5, 0.6, 1757, 1774
-0.4, 0.6, 1764, 1774
-0.3, 0.6, 1768, 1774
-0.2, 0.6, 1770, 1774
-0.1, 0.6, 1771, 1774
-1.87905e-14, 0.6, 1772, 1774
0.1, 0.6, 1772, 1774
0.2, 0.6, 1772, 1774
0.3, 0.6, 1773, 1774
0.4, 0.6, 1773, 1774
0.5, 0.6, 1773, 1774
0.6, 0.6, 1773, 1774
0.7, 0.6, 1773, 1774
0.8, 0.6, 1773, 1774
0.9, 0.6, 1773, 1774
1, 0.6, 1773, 1774
1.1, 0.6, 1773, 1774
1.2, 0.6, 1773, 1774
1.3, 0.6, 1773, 1774
1.4, 0.6, 1773, 1774
1.5, 0.6, 1773, 1774
1.6, 0.6, 1772, 1774
1.7, 0.6, 1772, 1774
1.8, 0.6, 1772, 1774
1.9, 0.6, 1772, 1774
2, 0.6, 1772, 1774
2.1, 0.6, 1772, 1774
2.2, 0.6, 1772, 1774
2.3, 0.6, 1772, 1774
2.4, 0.6, 1772, 1774
2.5, 0.6, 1772, 1774
2.6, 0.6, 1772, 1774
2.7, 0.6, 1772, 1774
2.8, 0.6, 1772, 1774
2.9, 0.6, 1772, 1774
3, 0.6, 1772, 1774
3.1, 0.6, 1772, 1774
3.2, 0.6, 1772, 1774
3.3, 0.6, 1772, 1774
3.4, 0.6, 1772, 1774
3.5, 0.6, 1772, 1774
3.6, 0.6, 1772, 1774
3.7, 0.6, 1772, 1774
3.8, 0.6, 1772, 1774
3.9, 0.6, 1772, 1774
4, 0.6, 1772, 1774
4.1, 0.6, 1772, 1774
4.2, 0.6, 1772, 1774
4.3, 0.6, 1772, 1774
4.4, 0.6, 1772, 1774
4.5, 0.6, 1772, 1774
4.6, 0.6, 1772, 1774
4.7, 0.6, 1772, 1774
4.8, 0.6, 1772, 1774
4.9, 0.6, 1772, 1774
5, 0.6, 1772, 1774
5.1, 0.6, 1772, 1774
5.2, 0.6, 1772, 1774
5.3, 0.6, 1772, 1774
5.4, 0.6, 1772, 1774
5.5, 0.6, 1772, 1774
5.6, 0.6, 1772, 1774
5.7, 0.6, 1772, 1774
5.8, 0.6, 1772, 1774
5.9, 0.6, 1772, 1774
6, 0.6, 1772, 1774
6.1, 0.6, 1772, 1774
6.2, 0.6, 1772, 1774
6.3, 0.6, 1772, 1774
6.4, 0.6, 1772, 1774
6.5, 0.6, 1772, 1774
6.6, 0.6, 1772, 1774
6.7, 0.6, 1772, 1774
6.8, 0.6, 1772, 1774
6.9, 0.6, 1772, 1774
7, 0.6, 1772, 1774
7.1, 0.6, 1772, 1774
7.2, 0.6, 1772, 1774
7.3, 0.6, 1771, 1774
7.4, 0.6, 1770, 1774
7.5, 0.6, 1770, 1774
7.6, 0.6, 1769, 1774
7.7, 0.6, 1769, 1774
7.8, 0.6, 1769, 1774
7.9, 0.6, 1769, 1774
8, 0.6, 1768, 1774
8.1, 0.6, 1768, 1774
8.2, 0.6, 1768, 1774
8.3, 0.6, 1767, 1774
8.4, 0.6, 1767, 1774
8.5, 0.6, 1766, 1774
8.6, 0.6, 1766, 1774
8.7, 0.6, 1766, 1774
8.8, 0.6, 1766, 1774
8.9, 0.6, 1766, 1774
9, 0.6, 1766, 1774
9.1, 0.6, 1766, 1774
9.2, 0.6, 1766, 1774
9.3, 0.6, 1766, 1774
9.4, 0.6, 1766, 1774
9.5, 0.6, 1766, 1774
9.6, 0.6, 1765, 1774
9.7, 0.6, 1764, 1774
9.8, 0.6, 1764, 1774
9.9, 0.6, 1764, 1774
10, 0.6, 1764, 1774
-10, 0.7, 323, 1346
-9.9, 0.7, 328, 1346
-9.8, 0.7, 335, 1346
-9.7, 0.7, 339, 1346
-9.6, 0.7, 347, 1346
-9.5, 0.7, 353, 1346
-9.4, 0.7, 358, 1346
-9.3, 0.7, 363, 1346
-9.2, 0.7, 367, 1346
-9.1, 0.7, 375, 1346
-9, 0.7, 380, 1346
-8.9, 0.7, 384, 1346
-8.8, 0.7, 393, 1346
-8.7, 0.7, 397, 1346
-8.6, 0.7, 412, 1346
-8.5, 0.7, 420, 1346
-8.4, 0.7, 427, 1346
-8.3, 0.7, 436, 1346
-8.2, 0.7, 445, 1346
-8.1, 0.7, 454, 1346
-8, 0.7, 462, 1346
-7.9, 0.7, 476, 1346
-7.8, 0.7, 486, 1346
-7.7, 0.7, 491, 1346
-7.6, 0.7, 498, 1346
-7.5, 0.7, 503, 1346
-7.4, 0.7, 508, 1346
-7.3, 0.7, 517, 1346
-7.2, 0.7, 525, 1346
-7.1, 0.7, 536, 1346
-7, 0.7, 548, 1346
-6.9, 0.7, 556, 1346
-6.8, 0.7, 560, 1346
-6.7, 0.7, 573, 1346
-6.6, 0.7, 580, 1346
-6.5, 0.7, 590, 1346
-6.4, 0.7, 597, 1346
-6.3, 0.7, 602, 1346
-6.2, 0.7, 613, 1346
-6.1, 0.7, 616, 1346
-6, 0.7, 624, 1346
-5.9, 0.7, 636, 1346
-5.8, 0.7, 645, 1346
-5.7, 0.7, 657, 1346
-5.6, 0.7, 668, 1346
-5.5, 0.7, 680, 1346
-5.4, 0.7, 686, 1346
-5.3, 0.7, 702, 1346
-5.2, 0.7, 709, 1346
-5.1, 0.7, 724, 1346
-5, 0.7, 734, 1346
-4.9, 0.7, 748, 1346
-4.8, 0.7, 758, 1346
-4.7, 0.7, 767, 1346
-4.6, 0.7, 781, 1346
-4.5, 0.7, 790, 1346
-4.4, 0.7, 804, 1346
-4.3, 0.7, 819, 1346
-4.2, 0.7, 835, 1346
-4.1, 0.7, 853, 1346
-4, 0.7, 867, 1346
-3.9, 0.7, 880, 1346
-3.8, 0.7, 898, 1346
-3.7, 0.7, 917, 1346
-3.6, 0.7, 935, 1346
-3.5, 0.7, 951, 1346
-3.4, 0.7, 965, 1346
-3.3, 0.7, 986, 1346
-3.2, 0.7, 996, 1346
-3.1, 0.7, 1012, 1346
-3, 0.7, 1025, 1346
-2.9, 0.7, 1044, 1346
-2.8, 0.7, 1059, 1346
-2.7, 0.7, 1070, 1346
-2.6, 0.7, 1080, 1346
-2.5, 0.7, 1093, 1346
-2.4, 0.7, 1099, 1346
-2.3, 0.7, 1109, 1346
-2.2, 0.7, 1119, 1346
-2.1, 0.7, 1123, 1346
-2, 0.7, 1127, 1346
-1.9, 0.7, 1131, 1346
-1.8, 0.7, 1135, 1346
-1.7, 0.7, 1151, 1346
-1.6, 0.7, 1168, 1346
-1.5, 0.7, 1186, 1346
-1.4, 0.7, 1206, 1346
-1.3, 0.7, 1223, 1346
-1.2, 0.7, 1246, 1346
-1.1, 0.7, 1266, 1346
-1, 0.7, 1282, 1346
-0.9, 0.7, 1298, 1346
-0.8, 0.7, 1308, 1346
-0.7, 0.7, 1319, 1346
-0.6, 0.7, 1329, 1346
-0.5, 0.7, 1334, 1346
-0.4, 0.7, 1340, 1346
-0.3, 0.7, 1343, 1346
-0.2, 0.7, 1344, 1346
-0.1, 0.7, 1345, 1346
-1.87905e-14, 0.7, 1346, 1346
0.1, 0.7, 1346, 1346
0.2, 0.7, 1346, 1346
0.3, 0.7, 1346, 1346
0.4, 0.7, 1346, 1346
0.5, 0.7, 1346, 1346
0.6, 0.7, 1346, 1346
0.7, 0.7, 1346, 1346
0.8, 0.7, 1346, 1346
0.9, 0.7, 1346, 1346
1, 0.7, 1346, 1346
1.1, 0.7, 1346, 1346
1.2, 0.7, 1346, 1346
1.3, 0.7, 1346, 1346
1.4, 0.7, 1346, 1346
1.5, 0.7, 1346, 1346
1.6, 0.7, 1345, 1346
1.7, 0.7, 1345, 1346
1.8, 0.7, 1345, 1346
1.9, 0.7, 1345, 1346
2, 0.7, 1345, 1346
2.1, 0.7, 1345, 1346
2.2, 0.7, 1345, 1346
2.3, 0.7, 1345, 1346
2.4, 0.7, 1345, 1346
2.5, 0.7, 1345, 1346
2.6, 0.7, 1345, 1346
2.7, 0.7, 1345, 1346
2.8, 0.7, 1345, 1346
2.9, 0.7, 1345, 1346
3, 0.7, 1345, 1346
3.1, 0.7, 1345, 1346
3.2, 0.7, 1345, 1346
3.3, 0.7, 1345, 1346
3.4, 0.7, 1345, 1346
3.5, 0.7, 1345, 1346
3.6, 0.7, 1345, 1346
3.7, 0.7, 1345, 1346
3.8, 0.7, 1345, 1346
3.9, 0.7, 1345, 1346
4, 0.7, 1345, 1346
4.1, 0.7, 1345, 1346
4.2, 0.7, 1345, 1346
4.3, 0.7, 1345, 1346
4.4, 0.7, 1345, 1346
4.5, 0.7, 1345, 1346
4.6, 0.7, 1345, 1346
4.7, 0.7, 1345, 1346
4.8, 0.7, 1345, 1346
4.9, 0.7, 1345, 1346
5, 0.7, 1345, 1346
5.1, 0.7, 1345, 1346
5.2, 0.7, 1345, 1346
5.3, 0.7, 1345, 1346
5.4, 0.7, 1345, 1346
5.5, 0.7, 1345, 1346
5.6, 0.7, 1345, 1346
5.7, 0.7, 1345, 1346
5.8, 0.7, 1345, 1346
5.9, 0.7, 1345, 1346
6, 0.7, 1345, 1346
6.1, 0.7, 1345, 1346
6.2, 0.7, 1345, 1346
6.3, 0.7, 1345, 1346
6.4, 0.7, 1345, 1346
6.5, 0.7, 1345, 1346
6.6, 0.7, 1345, 1346
6.7, 0.7, 1345, 1346
6.8, 0.7, 1345, 1346
6.9, 0.7, 1345, 1346
7, 0.7, 1345, 1346
7.1, 0.7, 1345, 1346
7.2, 0.7, 1345, 1346
7.3, 0.7, 1345, 1346
7.4, 0.7, 1345, 1346
7.5, 0.7, 1345, 1346
7.6, 0.7, 1345, 1346
7.7, 0.7, 1345, 1346
7.8, 0.7, 1345, 1346
7.9, 0.7, 1345, 1346
8, 0.7, 1345, 1346
8.1, 0.7, 1345, 1346
8.2, 0.7, 1345, 1346
8.3, 0.7, 1345, 1346
8.4, 0.7, 1345, 1346
8.5, 0.7, 1345, 1346
8.6, 0.7, 1345, 1346
8.7, 0.7, 1345, 1346
8.8, 0.7, 1345, 1346
8.9, 0.7, 1345, 1346
9, 0.7, 1345, 1346
9.1, 0.7, 1345, 1346
9.2, 0.7, 1345, 1346
9.3, 0.7, 1345, 1346
9.4, 0.7, 1345, 1346
9.5, 0.7, 1345, 1346
9.6, 0.7, 1345, 1346
9.7, 0.7, 1345, 1346
9.8, 0.7, 1345, 1346
9.9, 0.7, 1345, 1346
10, 0.7, 1345, 1346
-10, 0.8, 264, 1083
-9.9, 0.8, 269, 1083
-9.8, 0.8, 274, 1083
-9.7, 0.8, 276, 1083
-9.6, 0.8, 284, 1083
-9.5, 0.8, 290, 1083
-9.4, 0.8, 293, 1083
-9.3, 0.8, 296, 1083
-9.2, 0.8, 299, 1083
-9.1, 0.8, 304, 1083
-9, 0.8, 309, 1083
-8.9, 0.8, 312, 1083
-8.8, 0.8, 319, 1083
-8.7, 0.8, 323, 1083
-8.6, 0.8, 336, 1083
-8.5, 0.8, 341, 1083
-8.4, 0.8, 348, 1083
-8.3, 0.8, 354, 1083
-8.2, 0.8, 359, 1083
-8.1, 0.8, 365, 1083
-8, 0.8, 372, 1083
-7.9, 0.8, 385, 1083
-7.8, 0.8, 393, 1083
-7.7, 0.8, 397, 1083
-7.6, 0.8, 404, 1083
-7.5, 0.8, 409, 1083
-7.4, 0.8, 414, 1083
-7.3, 0.8, 421, 1083
-7.2, 0.8, 428, 1083
-7.1, 0.8, 438, 1083
-7, 0.8, 447, 1083
-6.9, 0.8, 453, 1083
-6.8, 0.8, 456, 1083
-6.7, 0.8, 466, 1083
-6.6, 0.8, 473, 1083
-6.5, 0.8, 482, 1083
-6.4, 0.8, 489, 1083
-6.3, 0.8, 494, 1083
-6.2, 0.8, 504, 1083
-6.1, 0.8, 506, 1083
-6, 0.8, 514, 1083
-5.9, 0.8, 525, 1083
-5.8, 0.8, 531, 1083
-5.7, 0.8, 537, 1083
-5.6, 0.8, 548, 1083
-5.5, 0.8, 558, 1083
-5.4, 0.8, 563, 1083
-5.3, 0.8, 578, 1083
-5.2, 0.8, 584, 1083
-5.1, 0.8, 598, 1083
-5, 0.8, 606, 1083
-4.9, 0.8, 616, 1083
-4.8, 0.8, 625, 1083
-4.7, 0.8, 633, 1083
-4.6, 0.8, 644, 1083
-4.5, 0.8, 651, 1083
-4.4, 0.8, 663, 1083
-4.3, 0.8, 675, 1083
-4.2, 0.8, 688, 1083
-4.1, 0.8, 703, 1083
-4, 0.8, 714, 1083
-3.9, 0.8, 726, 1083
-3.8, 0.8, 741, 1083
-3.7, 0.8, 759, 1083
-3.6, 0.8, 775, 1083
-3.5, 0.8, 787, 1083
-3.4, 0.8, 799, 1083
-3.3, 0.8, 814, 1083
-3.2, 0.8, 823, 1083
-3.1, 0.8, 836, 1083
-3, 0.8, 844, 1083
-2.9, 0.8, 855, 1083
-2.8, 0.8, 869, 1083
-2.7, 0.8, 878, 1083
-2.6, 0.8, 888, 1083
-2.5, 0.8, 899, 1083
-2.4, 0.8, 902, 1083
-2.3, 0.8, 911, 1083
-2.2, 0.8, 920, 1083
-2.1, 0.8, 924, 1083
-2, 0.8, 927, 1083
-1.9, 0.8, 929, 1083
-1.8, 0.8, 929, 1083
-1.7, 0.8, 943, 1083
-1.6, 0.8, 958, 1083
-1.5, 0.8, 972, 1083
-1.4, 0.8, 984, 1083
-1.3, 0.8, 993, 1083
-1.2, 0.8, 1011, 1083
-1.1, 0.8, 1026, 1083
-1, 0.8, 1039, 1083
-0.9, 0.8, 1048, 1083
-0.8, 0.8, 1056, 1083
-0.7, 0.8, 1063, 1083
-0.6, 0.8, 1072, 1083
-0.5, 0.8, 1075, 1083
-0.4, 0.8, 1077, 1083
-0.3, 0.8, 1080, 1083
-0.2, 0.8, 1081, 1083
-0.1, 0.8, 1082, 1083
-1.87905e-14, 0.8, 1083, 1083
0.1, 0.8, 1083, 1083
0.2, 0.8, 1083, 1083
0.3, 0.8, 1083, 1083
0.4, 0.8, 1083, 1083
0.5, 0.8, 1083, 1083
0.6, 0.8, 1083, 1083
0.7, 0.8, 1083, 1083
0.8, 0.8, 1083, 1083
0.9, 0.8, 1083, 1083
1, 0.8, 1083, 1083
1.1, 0.8, 1083, 1083
1.2, 0.8, 1083, 1083
1.3, 0.8, 1083, 1083
1.4, 0.8, 1083, 1083
1.5, 0.8, 1083, 1083
1.6, 0.8, 1082, 1083
1.7, 0.8, 1082, 1083
1.8, 0.8, 1082, 1083
1.9, 0.8, 1082, 1083
2, 0.8, 1082, 1083
2.1, 0.8, 1082, 1083
2.2, 0.8, 1082, 1083
2.3, 0.8, 1082, 1083
2.4, 0.8, 1082, 1083
2.5, 0.8, 1082, 1083
2.6, 0.8, 1082, 1083
2.7, 0.8, 1082, 1083
2.8, 0.8, 1082, 1083
2.9, 0.8, 1082, 1083
3, 0.8, 1082, 1083
3.1, 0.8, 1082, 1083
3.2, 0.8, 1082, 1083
3.3, 0.8, 1082, 1083
3.4, 0.8, 1082, 1083
3.5, 0.8, 1082, 1083
3.6, 0.8, 1082, 1083
3.7, 0.8, 1082, 1083
3.8, 0.8, 1082, 1083
3.9, 0.8, 1082, 1083
4, 0.8, 1082, 1083
4.1, 0.8, 1082, 1083
4.2, 0.8, 1082, 1083
4.3, 0.8, 1082, 1083
4.4, 0.8, 1082, 1083
4.5, 0.8, 1082, 1083
4.6, 0.8, 1082, 1083
4.7, 0.8, 1082, 1083
4.8, 0.8, 1082, 1083
4.9, 0.8, 1082, 1083
5, 0.8, 1082, 1083
5.1, 0.8, 1082, 1083
5.2, 0.8, 1082, 1083
5.3, 0.8, 1082, 1083
5.4, 0.8, 1082, 1083
5.5, 0.8, 1082, 1083
5.6, 0.8, 1082, 1083
5.7, 0.8, 1082, 1083
5.8, 0.8, 1082, 1083
5.9, 0.8, 1082, 1083
6, 0.8, 1082, 1083
6.1, 0.8, 1082, 1083
6.2, 0.8, 1082, 1083
6.3, 0.8, 1082, 1083
6.4, 0.8, 1082, 1083
6.5, 0.8, 1082, 1083
6.6, 0.8, 1082, 1083
6.7, 0.8, 1082, 1083
6.8, 0.8, 1082, 1083
6.9, 0.8, 1082, 1083
7, 0.8, 1082, 1083
7.1, 0.8, 1082, 1083
7.2, 0.8, 1082, 1083
7.3, 0.8, 1082, 1083
7.4, 0.8, 1082, 1083
7.5, 0.8, 1082, 1083
7.6, 0.8, 1082, 1083
7.7, 0.8, 1082, 1083
7.8, 0.8, 1082, 1083
7.9, 0.8, 1082, 1083
8, 0.8, 1082, 1083
8.1, 0.8, 1082, 1083
8.2, 0.8, 1082, 1083
8.3, 0.8, 1082, 1083
8.4, 0.8, 1082, 1083
8.5, 0.8, 1082, 1083
8.6, 0.8, 1082, 1083
8.7, 0.8, 1082, 1083
8.8, 0.8, 1082, 1083
8.9, 0.8, 1082, 1083
9, 0.8, 1082, 1083
9.1, 0.8, 1082, 1083
9.2, 0.8, 1082, 1083
9.3, 0.8, 1082, 1083
9.4, 0.8, 1082, 1083
9.5, 0.8, 1082, 1083
9.6, 0.8, 1082, 1083
9.7, 0.8, 1082, 1083
9.8, 0.8, 1082, 1083
9.9, 0.8, 1082, 1083
10, 0.8, 1082, 1083
-10, 0.9, 208, 877
-9.9, 0.9, 210, 877
-9.8, 0.9, 215, 877
-9.7, 0.9, 216, 877
-9.6, 0.9, 224, 877
-9.5, 0.9, 228, 877
-9.4, 0.9, 229, 877
-9.3, 0.9, 232, 877
-9.2, 0.9, 234, 877
-9.1, 0.9, 239, 877
-9, 0.9, 242, 877
-8.9, 0.9, 245, 877
-8.8, 0.9, 251, 877
-8.7, 0.9, 255, 877
-8.6, 0.9, 265, 877
-8.5, 0.9, 270, 877
-8.4, 0.9, 277, 877
-8.3, 0.9, 282, 877
-8.2, 0.9, 286, 877
-8.1, 0.9, 291, 877
-8, 0.9, 298, 877
-7.9, 0.9, 307, 877
-7.8, 0.9, 314, 877
-7.7, 0.9, 318, 877
-7.6, 0.9, 322, 877
-7.5, 0.9, 326, 877
-7.4, 0.9, 331, 877
-7.3, 0.9, 337, 877
-7.2, 0.9, 344, 877
-7.1, 0.9, 353, 877
-7, 0.9, 361, 877
-6.9, 0.9, 366, 877
-6.8, 0.9, 368, 877
-6.7, 0.9, 376, 877
-6.6, 0.9, 381, 877
-6.5, 0.9, 387, 877
-6.4, 0.9, 392, 877
-6.3, 0.9, 395, 877
-6.2, 0.9, 403, 877
-6.1, 0.9, 405, 877
-6, 0.9, 412, 877
-5.9, 0.9, 419, 877
-5.8, 0.9, 424, 877
-5.7, 0.9, 429, 877
-5.6, 0.9, 437, 877
-5.5, 0.9, 443, 877
-5.4, 0.9, 448, 877
-5.3, 0.9, 461, 877
-5.2, 0.9, 466, 877
-5.1, 0.9, 478, 877
-5, 0.9, 485, 877
-4.9, 0.9, 492, 877
-4.8, 0.9, 500, 877
-4.7, 0.9, 506, 877
-4.6, 0.9, 515, 877
-4.5, 0.9, 521, 877
-4.4, 0.9, 532, 877
-4.3, 0.9, 543, 877
-4.2, 0.9, 554, 877
-4.1, 0.9, 568, 877
-4, 0.9, 576, 877
-3.9, 0.9, 586, 877
-3.8, 0.9, 598, 877
-3.7, 0.9, 613, 877
-3.6, 0.9, 626, 877
-3.5, 0.9, 637, 877
-3.4, 0.9, 645, 877
-3.3, 0.9, 660, 877
-3.2, 0.9, 666, 877
-3.1, 0.9, 676, 877
-3, 0.9, 683, 877
-2.9, 0.9, 691, 877
-2.8, 0.9, 702, 877
-2.7, 0.9, 711, 877
-2.6, 0.9, 720, 877
-2.5, 0.9, 730, 877
-2.4, 0.9, 733, 877
-2.3, 0.9, 740, 877
-2.2, 0.9, 748, 877
-2.1, 0.9, 750, 877
-2, 0.9, 753, 877
-1.9, 0.9, 755, 877
-1.8, 0.9, 755, 877
-1.7, 0.9, 765, 877
-1.6, 0.9, 779, 877
-1.5, 0.9, 790, 877
-1.4, 0.9, 799, 877
-1.3, 0.9, 807, 877
-1.2, 0.9, 821, 877
-1.1, 0.9, 834, 877
-1, 0.9, 845, 877
-0.9, 0.9, 853, 877
-0.8, 0.9, 860, 877
-0.7, 0.9, 864, 877
-0.6, 0.9, 870, 877
-0.5, 0.9, 872, 877
-0.4, 0.9, 874, 877
-0.3, 0.9, 876, 877
-0.2, 0.9, 876, 877
-0.1, 0.9, 877, 877
-1.87905e-14, 0.9, 877, 877
0.1, 0.9, 877, 877
0.2, 0.9, 877, 877
0.3, 0.9, 877, 877
0.4, 0.9, 877, 877
0.5, 0.9, 877, 877
0.6, 0.9, 877, 877
0.7, 0.9, 877, 877
0.8, 0.9, 877, 877
0.9, 0.9, 877, 877
1, 0.9, 877, 877
1.1, 0.9, 877, 877
1.2, 0.9, 877, 877
1.3, 0.9, 877, 877
1.4, 0.9, 877, 877
1.5, 0.9, 877, 877
1.6, 0.9, 877, 877
1.7, 0.9, 877, 877
1.8, 0.9, 877, 877
1.9, 0.9, 877, 877
2, 0.9, 877, 877
2.1, 0.9, 877, 877
2.2, 0.9, 877, 877
2.3, 0.9, 877, 877
2.4, 0.9, 877, 877
2.5, 0.9, 877, 877
2.6, 0.9, 877, 877
2.7, 0.9, 877, 877
2.8, 0.9, 877, 877
2.9, 0.9, 877, 877
3, 0.9, 877, 877
3.1, 0.9, 877, 877
3.2, 0.9, 877, 877
3.3, 0.9, 877, 877
3.4, 0.9, 877, 877
3.5, 0.9, 877, 877
3.6, 0.9, 877, 877
3.7, 0.9, 877, 877
3.8, 0.9, 877, 877
3.9, 0.9, 877, 877
4, 0.9, 877, 877
4.1, 0.9, 877, 877
4.2, 0.9, 877, 877
4.3, 0.9, 877, 877
4.4, 0.9, 877, 877
4.5, 0.9, 877, 877
4.6, 0.9, 877, 877
4.7, 0.9, 877, 877
4.8, 0.9, 877, 877
4.9, 0.9, 877, 877
5, 0.9, 877, 877
5.1, 0.9, 877, 877
5.2, 0.9, 877, 877
5.3, 0.9, 877, 877
5.4, 0.9, 877, 877
5.5, 0.9, 877, 877
5.6, 0.9, 877, 877
5.7, 0.9, 877, 877
5.8, 0.9, 877, 877
5.9, 0.9, 877, 877
6, 0.9, 877, 877
6.1, 0.9, 877, 877
6.2, 0.9, 877, 877
6.3, 0.9, 877, 877
6.4, 0.9, 877, 877
6.5, 0.9, 877, 877
6.6, 0.9, 877, 877
6.7, 0.9, 877, 877
6.8, 0.9, 877, 877
6.9, 0.9, 877, 877
7, 0.9, 877, 877
7.1, 0.9, 877, 877
7.2, 0.9, 877, 877
7.3, 0.9, 877, 877
7.4, 0.9, 877, 877
7.5, 0.9, 877, 877
7.6, 0.9, 877, 877
7.7, 0.9, 877, 877
7.8, 0.9, 877, 877
7.9, 0.9, 877, 877
8, 0.9, 877, 877
8.1, 0.9, 877, 877
8.2, 0.9, 877, 877
8.3, 0.9, 877, 877
8.4, 0.9, 877, 877
8.5, 0.9, 877, 877
8.6, 0.9, 877, 877
8.7, 0.9, 877, 877
8.8, 0.9, 877, 877
8.9, 0.9, 877, 877
9, 0.9, 877, 877
9.1, 0.9, 877, 877
9.2, 0.9, 877, 877
9.3, 0.9, 877, 877
9.4, 0.9, 877, 877
9.5, 0.9, 877, 877
9.6, 0.9, 877, 877
9.7, 0.9, 877, 877
9.8, 0.9, 877, 877
9.9, 0.9, 877, 877
10, 0.9, 877, 877
-10, 1, 165, 705
-9.9, 1, 167, 705
-9.8, 1, 171, 705
-9.7, 1, 172, 705
-9.6, 1, 177, 705
-9.5, 1, 178, 705
-9.4, 1, 179, 705
-9.3, 1, 182, 705
-9.2, 1, 183, 705
-9.1, 1, 186, 705
-9, 1, 187, 705
-8.9, 1, 190, 705
-8.8, 1, 195, 705
-8.7, 1, 198, 705
-8.6, 1, 207, 705
-8.5, 1, 211, 705
-8.4, 1, 217, 705
-8.3, 1, 221, 705
-8.2, 1, 223, 705
-8.1, 1, 226, 705
-8, 1, 232, 705
-7.9, 1, 239, 705
-7.8, 1, 245, 705
-7.7, 1, 248, 705
-7.6, 1, 251, 705
-7.5, 1, 255, 705
-7.4, 1, 259, 705
-7.3, 1, 264, 705
-7.2, 1, 270, 705
-7.1, 1, 278, 705
-7, 1, 282, 705
-6.9, 1, 286, 705
-6.8, 1, 288, 705
-6.7, 1, 294, 705
-6.6, 1, 299, 705
-6.5, 1, 303, 705
-6.4, 1, 307, 705
-6.3, 1, 309, 705
-6.2, 1, 313, 705
-6.1, 1, 315, 705
-6, 1, 321, 705
-5.9, 1, 326, 705
-5.8, 1, 330, 705
-5.7, 1, 334, 705
-5.6, 1, 340, 705
-5.5, 1, 345, 705
-5.4, 1, 347, 705
-5.3, 1, 359, 705
-5.2, 1, 362, 705
-5.1, 1, 371, 705
-5, 1, 377, 705
-4.9, 1, 383, 705
-4.8, 1, 388, 705
-4.7, 1, 393, 705
-4.6, 1, 401, 705
-4.5, 1, 407, 705
-4.4, 1, 417, 705
-4.3, 1, 424, 705
-4.2, 1, 435, 705
-4.1, 1, 448, 705
-4, 1, 455, 705
-3.9, 1, 463, 705
-3.8, 1, 473, 705
-3.7, 1, 484, 705
-3.6, 1, 493, 705
-3.5, 1, 503, 705
-3.4, 1, 510, 705
-3.3, 1, 523, 705
-3.2, 1, 528, 705
-3.1, 1, 537, 705
-3, 1, 542, 705
-2.9, 1, 549, 705
-2.8, 1, 558, 705
-2.7, 1, 565, 705
-2.6, 1, 572, 705
-2.5, 1, 582, 705
-2.4, 1, 585, 705
-2.3, 1, 591, 705
-2.2, 1, 597, 705
-2.1, 1, 599, 705
-2, 1, 601, 705
-1.9, 1, 603, 705
-1.8, 1, 603, 705
-1.7, 1, 613, 705
-1.6, 1, 625, 705
-1.5, 1, 634, 705
-1.4, 1, 643, 705
-1.3, 1, 649, 705
-1.2, 1, 660, 705
-1.1, 1, 670, 705
-1, 1, 680, 705
-0.9, 1, 687, 705
-0.8, 1, 693, 705
-0.7, 1, 695, 705
-0.6, 1, 699, 705
-0.5, 1, 701, 705
-0.4, 1, 703, 705
-0.3, 1, 704, 705
-0.2, 1, 704, 705
-0.1, 1, 705, 705
-1.87905e-14, 1, 705, 705
0.1, 1, 705, 705
0.2, 1, 705, 705
0.3, 1, 705, 705
0.4, 1, 705, 705
0.5, 1, 705, 705
0.6, 1, 705, 705
0.7, 1, 705, 705
0.8, 1, 705, 705
0.9, 1, 705, 705
1, 1, 705, 705
1.1, 1, 705, 705
1.2, 1, 705, 705
1.3, 1, 705, 705
1.4, 1, 705, 705
1.5, 1, 705, 705
1.6, 1, 705, 705
1.7, 1, 705, 705
1.8, 1, 705, 705
1.9, 1, 705, 705
2, 1, 705, 705
2.1, 1, 705, 705
2.2, 1, 705, 705
2.3, 1, 705, 705
2.4, 1, 705, 705
2.5, 1, 705, 705
2.6, 1, 705, 705
2.7, 1, 705, 705
2.8, 1, 705, 705
2.9, 1, 705, 705
3, 1, 705, 705
3.1, 1, 705, 705
3.2, 1, 705, 705
3.3, 1, 705, 705
3.4, 1, 705, 705
3.5, 1, 705, 705
3.6, 1, 705, 705
3.7, 1, 705, 705
3.8, 1, 705, 705
3.9, 1, 705, 705
4, 1, 705, 705
4.1, 1, 705, 705
4.2, 1, 705, 705
4.3, 1, 705, 705
4.4, 1, 705, 705
4.5, 1, 705, 705
4.6, 1, 705, 705
4.7, 1, 705, 705
4.8, 1, 705, 705
4.9, 1, 705, 705
5, 1, 705, 705
5.1, 1, 705, 705
5.2, 1, 705, 705
5.3, 1, 705, 705
5.4, 1, 705, 705
5.5, 1, 705, 705
5.6, 1, 705, 705
5.7, 1, 705, 705
5.8, 1, 705, 705
5.9, 1, 705, 705
6, 1, 705, 705
6.1, 1, 705, 705
6.2, 1, 705, 705
6.3, 1, 705, 705
6.4, 1, 705, 705
6.5, 1, 705, 705
6.6, 1, 705, 705
6.7, 1, 705, 705
6.8, 1, 705, 705
6.9, 1, 705, 705
7, 1, 705, 705
7.1, 1, 705, 705
7.2, 1, 705, 705
7.3, 1, 705, 705
7.4, 1, 705, 705
7.5, 1, 705, 705
7.6, 1, 705, 705
7.7, 1, 705, 705
7.8, 1, 705, 705
7.9, 1, 705, 705
8, 1, 705, 705
8.1, 1, 705, 705
8.2, 1, 705, 705
8.3, 1, 705, 705
8.4, 1, 705, 705
8.5, 1, 705, 705
8.6, 1, 705, 705
8.7, 1, 705, 705
8.8, 1, 705, 705
8.9, 1, 705, 705
9, 1, 705, 705
9.1, 1, 705, 705
9.2, 1, 705, 705
9.3, 1, 705, 705
9.4, 1, 705, 705
9.5, 1, 705, 705
9.6, 1, 705, 705
9.7, 1, 705, 705
9.8, 1, 705, 705
9.9, 1, 705, 705
10, 1, 705, 705
