-50, 0.00129212
-49, 0.00139549
-48, 0.00155055
-47, 0.00149886
-46, 0.00165392
-45, 0.00160223
-44, 0.00180897
-43, 0.00201571
-42, 0.00211908
-41, 0.00232582
-40, 0.00258425
-39, 0.00268762
-38, 0.00284267
-37, 0.00330784
-36, 0.00341121
-35, 0.00387637
-34, 0.00423816
-33, 0.0048067
-32, 0.00527186
-31, 0.00578871
-30, 0.00677073
-29, 0.00770105
-28, 0.00888981
-27, 0.0111639
-26, 0.0168493
-25, 0.0259975
-24, 0.0374199
-23, 0.0517366
-22, 0.0681207
-21, 0.0827993
-20, 0.101251
-19, 0.125233
-18, 0.148801
-17, 0.178571
-16, 0.214234
-15, 0.256461
-14, 0.303597
-13, 0.363603
-12, 0.423713
-11, 0.489146
-10, 0.55675
-9, 0.628592
-8, 0.700227
-7, 0.77269
-6, 0.839105
-5, 0.892599
-4, 0.934102
-3, 0.965785
-2, 0.981497
-1, 0.988836
0, 0.99142
1, 0.991989
2, 0.992092
3, 0.991575
4, 0.990903
5, 0.990232
6, 0.989818
7, 0.988991
8, 0.988371
9, 0.987596
10, 0.986769
11, 0.98589
12, 0.983926
13, 0.981962
14, 0.979636
15, 0.977362
16, 0.973434
17, 0.969092
18, 0.960461
19, 0.941441
20, 0.894769
21, 0.798274
22, 0.620891
23, 0.386448
24, 0.178985
25, 0.0541658
26, 0.00966508
27, 0.000723589
28, 0
29, 0
30, 0
31, 0
32, 0
33, 0
34, 0
35, 0
36, 0
37, 0
38, 0
39, 0
40, 0
41, 0
42, 0
43, 0
44, 0
45, 0
46, 0
47, 0
48, 0
49, 0
