-50, 0.00935869, 0.00961865, 0, 0
-49.8, 0.00943868, 0.00971864, 0, 0
-49.6, 0.00949867, 0.00979863, 0, 0
-49.4, 0.00965865, 0.0099986, 0, 0
-49.2, 0.00971864, 0.0101386, 0, 0
-49, 0.00985862, 0.0102786, 0, 0
-48.8, 0.0099786, 0.0104585, 0, 0
-48.6, 0.0100986, 0.0105785, 0, 0
-48.4, 0.0101986, 0.0106585, 0, 0
-48.2, 0.0103386, 0.0107785, 0, 0
-48, 0.0105185, 0.0110585, 0, 0
-47.8, 0.0106585, 0.0112384, 0, 0
-47.6, 0.0107785, 0.0113584, 0, 0
-47.4, 0.0108985, 0.0113784, 0, 0
-47.2, 0.0112784, 0.0116584, 0, 0
-47, 0.0114184, 0.0117384, 0, 0
-46.8, 0.0115984, 0.0119183, 0, 0
-46.6, 0.0118183, 0.0121183, 0, 0
-46.4, 0.0120383, 0.0123583, 0, 0
-46.2, 0.0121183, 0.0124383, 0, 0
-46, 0.0122983, 0.0126182, 0, 0
-45.8, 0.0124383, 0.0127182, 0, 0
-45.6, 0.0127582, 0.0130382, 0, 0
-45.4, 0.0130182, 0.0132781, 0, 0
-45.2, 0.0133381, 0.0135581, 0, 0
-45, 0.0133981, 0.0135781, 0, 0
-44.8, 0.0137981, 0.013978, 0, 0
-44.6, 0.0138981, 0.014018, 0, 0
-44.4, 0.014338, 0.014458, 0, 0
-44.2, 0.014438, 0.014518, 0, 0
-44, 0.0149179, 0.0149779, 0, 0
-43.8, 0.0151379, 0.0151779, 0, 0
-43.6, 0.0154778, 0.0155578, 0, 0
-43.4, 0.0155578, 0.0156978, 0, 0
-43.2, 0.0158978, 0.0160378, 0, 0
-43, 0.0160378, 0.0161977, 0, 0
-42.8, 0.0162777, 0.0164977, 0, 0
-42.6, 0.0165177, 0.0167976, 0, 0
-42.4, 0.0168176, 0.0170776, 0, 0
-42.2, 0.0169576, 0.0172576, 0, 0
-42, 0.0175175, 0.0177975, 0, 0
-41.8, 0.0177575, 0.0180375, 0, 0
-41.6, 0.0182774, 0.0186174, 0, 0
-41.4, 0.0186574, 0.0190373, 0, 0
-41.2, 0.0187774, 0.0192173, 0, 0
-41, 0.0190973, 0.0196173, 0, 0
-40.8, 0.0192373, 0.0198972, 0, 0
-40.6, 0.0194973, 0.0201372, 0, 0
-40.4, 0.0199372, 0.0205971, 0, 0
-40.2, 0.0202972, 0.0209971, 0, 0
-40, 0.0206771, 0.021397, 0, 0
-39.8, 0.021077, 0.021777, 0, 0
-39.6, 0.021417, 0.0218769, 0, 0
-39.4, 0.021677, 0.0221769, 0, 0
-39.2, 0.0218969, 0.0223769, 0, 0
-39, 0.0224769, 0.0228768, 0, 0
-38.8, 0.0228368, 0.0232167, 0, 0
-38.6, 0.0232767, 0.0236567, 0, 0
-38.4, 0.0237567, 0.0241166, 0, 0
-38.2, 0.0241166, 0.0243966, 0, 0
-38, 0.0244366, 0.0245566, 0, 0
-37.8, 0.0248965, 0.0250565, 0, 0
-37.6, 0.0254164, 0.0255564, 0, 0
-37.4, 0.0259764, 0.0261163, 0, 0
-37.2, 0.0261363, 0.0262963, 0, 0
-37, 0.0266363, 0.0267962, 0, 0
-36.8, 0.0270162, 0.0272162, 0, 0
-36.6, 0.0271962, 0.0274162, 0, 0
-36.4, 0.0279761, 0.0281961, 0, 0
-36.2, 0.028456, 0.028676, 0, 0
-36, 0.028876, 0.0291359, 0, 0
-35.8, 0.0293359, 0.0295959, 0, 0
-35.6, 0.0299358, 0.0300358, 0, 0
-35.4, 0.0304757, 0.0305757, 0, 0
-35.2, 0.0309557, 0.0310557, 0, 0
-35, 0.0314156, 0.0315356, 0, 0
-34.8, 0.0320355, 0.0321755, 0, 0
-34.6, 0.0323555, 0.0325154, 0, 0
-34.4, 0.0328954, 0.0330754, 0, 0
-34.2, 0.0332753, 0.0334953, 0, 0
-34, 0.0337753, 0.0340152, 0, 0
-33.8, 0.0346352, 0.0349351, 0, 0
-33.6, 0.0350551, 0.035435, 0, 0
-33.4, 0.035715, 0.0361349, 0, 0
-33.2, 0.0362349, 0.0366949, 0, 0
-33, 0.0370548, 0.0375347, 0, 0
-32.8, 0.0375547, 0.0380747, 0, 0
-32.6, 0.0383146, 0.0388346, 0, 0
-32.4, 0.0390545, 0.0395345, 0, 0
-32.2, 0.0399144, 0.0404943, 0, 0
-32, 0.0406543, 0.0411742, 0, 0
-31.8, 0.0413142, 0.0418541, 0, 0
-31.6, 0.0424341, 0.043034, 0, 0
-31.4, 0.043174, 0.0436739, 0, 0
-31.2, 0.0437939, 0.0442938, 0, 0
-31, 0.0445938, 0.0451137, 0, 0
-30.8, 0.0456736, 0.0462135, 0, 0
-30.6, 0.0464535, 0.0470134, 0, 0
-30.4, 0.0475733, 0.0481333, 0, 0
-30.2, 0.0484532, 0.0490531, 0, 0
-30, 0.0492931, 0.049933, 0, 0
-29.8, 0.050133, 0.0507529, 0, 0
-29.6, 0.0514128, 0.0520127, 0, 0
-29.4, 0.0525126, 0.0531726, 0, 0
-29.2, 0.0536925, 0.0544524, 0, 0
-29, 0.0545724, 0.0552723, 0, 0
-28.8, 0.0555722, 0.0563721, 0, 0
-28.6, 0.0566721, 0.0575519, 0, 0
-28.4, 0.0580119, 0.0589118, 0, 0
-28.2, 0.0593717, 0.0602516, 0, 0
-28, 0.0607115, 0.0615314, 0, 0
-27.8, 0.0620313, 0.0627512, 0, 0
-27.6, 0.0633311, 0.064111, 0, 0
-27.4, 0.0649909, 0.0656708, 0, 0
-27.2, 0.0668506, 0.0674306, 0, 0
-27, 0.0685504, 0.0692503, 0, 0
-26.8, 0.0704101, 0.0710701, 0, 0
-26.6, 0.0728298, 0.0735297, 0, 0
-26.4, 0.0754694, 0.0761493, 0, 0
-26.2, 0.078569, 0.0792889, 0, 0
-26, 0.0809487, 0.0816886, 0.00181975, 0
-25.8, 0.0849281, 0.085708, 0.00329954, 0
-25.6, 0.0874278, 0.0882676, 0.0063991, 0
-25.4, 0.0910073, 0.0918871, 0.00891875, 0
-25.2, 0.0941068, 0.0950467, 0.0116784, 0
-25, 0.0967864, 0.0977263, 0.014318, 0
-24.8, 0.100006, 0.101006, 0.0174576, 0
-24.6, 0.103026, 0.104025, 0.0197572, 0
-24.4, 0.106405, 0.107265, 0.0221369, 0
-24.2, 0.109865, 0.110705, 0.0245566, 0
-24, 0.113364, 0.114204, 0.0266763, 0
-23.8, 0.116544, 0.117424, 0.0290959, 0
-23.6, 0.120003, 0.120823, 0.0314756, 0
-23.4, 0.123563, 0.124363, 0.0350551, 0
-23.2, 0.127282, 0.128042, 0.0373548, 0
-23, 0.130882, 0.131622, 0.0394345, 0
-22.8, 0.134521, 0.135261, 0.042934, 0
-22.6, 0.138321, 0.139181, 0.0452337, 0
-22.4, 0.1414, 0.14224, 0.0484332, 0
-22.2, 0.14518, 0.1461, 0.0514128, 0
-22, 0.149239, 0.150239, 0.0532126, 0
-21.8, 0.153239, 0.154238, 0.0559722, 0
-21.6, 0.156978, 0.158018, 0.0593117, 0
-21.4, 0.160797, 0.161857, 0.0624713, 0
-21.2, 0.164797, 0.165777, 0.0657508, 0
-21, 0.169416, 0.170456, 0.0683904, 0
-20.8, 0.173476, 0.174496, 0.07157, 0
-20.6, 0.177555, 0.178695, 0.0750895, 0
-20.4, 0.182194, 0.183274, 0.0781091, 0
-20.2, 0.186894, 0.188034, 0.0819885, 0
-20, 0.191693, 0.192953, 0.0850281, 0
-19.8, 0.196373, 0.197672, 0.0894275, 0
-19.6, 0.200892, 0.202272, 0.093167, 0
-19.4, 0.206471, 0.207731, 0.0965065, 0
-19.2, 0.21167, 0.21295, 0.100126, 0
-19, 0.21639, 0.21775, 0.104865, 0
-18.8, 0.222029, 0.223369, 0.108965, 0
-18.6, 0.226968, 0.228408, 0.113504, 0
-18.4, 0.232028, 0.233507, 0.117664, 0
-18.2, 0.237747, 0.239466, 0.122163, 0
-18, 0.242906, 0.244586, 0.126862, 0
-17.8, 0.248245, 0.250085, 0.131262, 0
-17.6, 0.254184, 0.256084, 0.135801, 0
-17.4, 0.260883, 0.262683, 0.14096, 0
-17.2, 0.266903, 0.268802, 0.14578, 0
-17, 0.273482, 0.275521, 0.150999, 0
-16.8, 0.279401, 0.281361, 0.156158, 0
-16.6, 0.28616, 0.28812, 0.162357, 0
-16.4, 0.293079, 0.295059, 0.168256, 0
-16.2, 0.300798, 0.302738, 0.173636, 0
-16, 0.308877, 0.310856, 0.180535, 0
-15.8, 0.315996, 0.317995, 0.186614, 0
-15.6, 0.324355, 0.326334, 0.193193, 0
-15.4, 0.331914, 0.334033, 0.200592, 0
-15.2, 0.339472, 0.341632, 0.207671, 0
-15, 0.347251, 0.349371, 0.21547, 0
-14.8, 0.35623, 0.35827, 0.223249, 0
-14.6, 0.365029, 0.367169, 0.231488, 0
-14.4, 0.373928, 0.376087, 0.240386, 0
-14.2, 0.383266, 0.385406, 0.248605, 0
-14, 0.391145, 0.393185, 0.257944, 0
-13.8, 0.400304, 0.402444, 0.267563, 0
-13.6, 0.409483, 0.411642, 0.277321, 0
-13.4, 0.419041, 0.421081, 0.28612, 0
-13.2, 0.42814, 0.4303, 0.295739, 0
-13, 0.437419, 0.439598, 0.304997, 0
-12.8, 0.446517, 0.448857, 0.314876, 0
-12.6, 0.456916, 0.459276, 0.325274, 0
-12.4, 0.466415, 0.468854, 0.335953, 0
-12.2, 0.476993, 0.479353, 0.347131, 0
-12, 0.486712, 0.489012, 0.35807, 0
-11.8, 0.495551, 0.49797, 0.368428, 0
-11.6, 0.505669, 0.508209, 0.379987, 0
-11.4, 0.515008, 0.517748, 0.390425, 0
-11.2, 0.524907, 0.527686, 0.400884, 0
-11, 0.534885, 0.537825, 0.412182, 0
-10.8, 0.544704, 0.547703, 0.423341, 0
-10.6, 0.554702, 0.557862, 0.434039, 0
-10.4, 0.563781, 0.566901, 0.445438, 0
-10.2, 0.5734, 0.576699, 0.455736, 0
-10, 0.582938, 0.586198, 0.466995, 0
-9.8, 0.592897, 0.596237, 0.478053, 0
-9.6, 0.601576, 0.605055, 0.489291, 0
-9.4, 0.612114, 0.615814, 0.50049, 0
-9.2, 0.621853, 0.625772, 0.512108, 0
-9, 0.632591, 0.636511, 0.522827, 0
-8.8, 0.64151, 0.64555, 0.534905, 0
-8.6, 0.650669, 0.654768, 0.545084, 0
-8.4, 0.660308, 0.664707, 0.557422, 0
-8.2, 0.669986, 0.674386, 0.56916, 0
-8, 0.679365, 0.683924, 0.580859, 0
-7.8, 0.689743, 0.694203, 0.592797, 0
-7.6, 0.698842, 0.703482, 0.604355, 0
-7.4, 0.708921, 0.71352, 0.615654, 0
-7.2, 0.719259, 0.723899, 0.627552, 0
-7, 0.728618, 0.733277, 0.63959, 0
-6.8, 0.738277, 0.743016, 0.651189, 0
-6.6, 0.747295, 0.751975, 0.663327, 0
-6.4, 0.757134, 0.761733, 0.675465, 0
-6.2, 0.767193, 0.771692, 0.687504, 0
-6, 0.775631, 0.780551, 0.700062, 0
-5.8, 0.78559, 0.790329, 0.71166, 0
-5.6, 0.793689, 0.798508, 0.723279, 0
-5.4, 0.802288, 0.807387, 0.735397, 0
-5.2, 0.811366, 0.816686, 0.747475, 0
-5, 0.820825, 0.826164, 0.758934, 0
-4.8, 0.828064, 0.833943, 0.770672, 0
-4.6, 0.837683, 0.843262, 0.781771, 0
-4.4, 0.845502, 0.851421, 0.793489, 0
-4.2, 0.85364, 0.85966, 0.805387, 0
-4, 0.862619, 0.868538, 0.816626, 0
-3.8, 0.870258, 0.876177, 0.828444, 0
-3.6, 0.878877, 0.884656, 0.840162, 0
-3.4, 0.886076, 0.892315, 0.851841, 0
-3.2, 0.893115, 0.899494, 0.863699, 0
-3, 0.899634, 0.906193, 0.875117, 0
-2.8, 0.905333, 0.911932, 0.885496, 0
-2.6, 0.910673, 0.917172, 0.895675, 0
-2.4, 0.916052, 0.922491, 0.903673, 0
-2.2, 0.922531, 0.92907, 0.910772, 0
-2, 0.92841, 0.934889, 0.917592, 0
-1.8, 0.935049, 0.941788, 0.924091, 0
-1.6, 0.940968, 0.947847, 0.93195, 0
-1.4, 0.946288, 0.953367, 0.944148, 0
-1.2, 0.950427, 0.957206, 0.959606, 0
-1, 0.952747, 0.959926, 0.974504, 0
-0.8, 0.953906, 0.960985, 0.984582, 0
-0.6, 0.954126, 0.961285, 0.989821, 0
-0.4, 0.954466, 0.961585, 0.992981, 0
-0.2, 0.954006, 0.961565, 0.994221, 0
1.72695e-13, 0.953387, 0.961085, 0.994421, 0.994461
0.2, 0.952807, 0.960725, 0.994441, 0.994461
0.4, 0.952447, 0.960346, 0.994461, 0.994461
0.6, 0.951927, 0.959766, 0.994461, 0.994461
0.8, 0.951247, 0.959446, 0.994461, 0.994461
1, 0.950507, 0.959046, 0.994461, 0.994461
1.2, 0.949807, 0.958666, 0.994461, 0.994461
1.4, 0.949227, 0.958206, 0.994461, 0.994461
1.6, 0.948427, 0.957886, 0.994461, 0.994461
1.8, 0.947647, 0.957606, 0.994461, 0.994461
2, 0.946927, 0.957106, 0.994461, 0.994461
2.2, 0.946168, 0.956706, 0.994461, 0.994461
2.4, 0.945688, 0.956126, 0.994461, 0.994461
2.6, 0.944988, 0.955506, 0.994461, 0.994461
2.8, 0.944008, 0.954586, 0.994461, 0.994461
3, 0.943568, 0.954126, 0.994461, 0.994461
3.2, 0.942648, 0.953806, 0.994461, 0.994461
3.4, 0.941788, 0.953287, 0.994461, 0.994461
3.6, 0.941008, 0.952707, 0.994461, 0.994461
3.8, 0.940348, 0.951847, 0.994461, 0.994461
4, 0.939448, 0.951407, 0.994461, 0.994461
4.2, 0.938729, 0.950647, 0.994461, 0.994461
4.4, 0.938209, 0.949827, 0.994461, 0.994461
4.6, 0.937489, 0.949207, 0.994461, 0.994461
4.8, 0.936749, 0.948267, 0.994461, 0.994461
5, 0.935989, 0.947467, 0.994461, 0.994461
5.2, 0.935269, 0.946647, 0.994461, 0.994461
5.4, 0.934429, 0.945668, 0.994461, 0.994461
5.6, 0.933729, 0.944948, 0.994461, 0.994461
5.8, 0.932829, 0.943888, 0.994461, 0.994461
6, 0.93175, 0.943228, 0.994461, 0.994461
6.2, 0.93109, 0.942528, 0.994461, 0.994461
6.4, 0.93031, 0.941908, 0.994461, 0.994461
6.6, 0.92897, 0.941148, 0.994461, 0.994461
6.8, 0.92827, 0.940608, 0.994461, 0.994461
7, 0.92769, 0.939868, 0.994461, 0.994461
7.2, 0.92669, 0.939069, 0.994461, 0.994461
7.4, 0.92565, 0.938169, 0.994461, 0.994461
7.6, 0.924851, 0.937529, 0.994461, 0.994461
7.8, 0.923871, 0.936589, 0.994461, 0.994461
8, 0.922811, 0.935889, 0.994461, 0.994461
8.2, 0.921491, 0.935109, 0.994461, 0.994461
8.4, 0.920671, 0.934369, 0.994461, 0.994461
8.6, 0.919291, 0.933589, 0.994461, 0.994461
8.8, 0.918151, 0.932969, 0.994461, 0.994461
9, 0.917012, 0.93205, 0.994461, 0.994461
9.2, 0.915512, 0.93129, 0.994461, 0.994461
9.4, 0.914252, 0.93039, 0.994461, 0.994461
9.6, 0.913052, 0.92957, 0.994461, 0.994461
9.8, 0.911732, 0.92871, 0.994461, 0.994461
10, 0.910233, 0.92793, 0.994461, 0.994461
10.2, 0.908913, 0.92707, 0.994461, 0.994461
10.4, 0.907373, 0.92635, 0.994461, 0.994461
10.6, 0.905613, 0.92561, 0.994461, 0.994461
10.8, 0.903993, 0.924391, 0.994461, 0.994461
11, 0.902274, 0.923491, 0.994461, 0.994461
11.2, 0.900034, 0.922391, 0.994461, 0.994461
11.4, 0.897994, 0.921371, 0.994461, 0.994461
11.6, 0.895935, 0.920371, 0.994461, 0.994461
11.8, 0.893915, 0.919371, 0.994461, 0.994461
12, 0.891875, 0.918351, 0.994461, 0.994461
12.2, 0.888876, 0.917112, 0.994461, 0.994461
12.4, 0.886836, 0.916252, 0.994461, 0.994461
12.6, 0.884036, 0.914732, 0.994461, 0.994461
12.8, 0.881817, 0.913512, 0.994461, 0.994461
13, 0.878517, 0.912232, 0.994461, 0.994461
13.2, 0.875877, 0.911272, 0.994461, 0.994461
13.4, 0.873058, 0.909633, 0.994461, 0.994461
13.6, 0.869638, 0.907473, 0.994461, 0.994461
13.8, 0.866199, 0.905753, 0.994461, 0.994461
14, 0.863339, 0.903653, 0.994461, 0.994461
14.2, 0.8598, 0.901834, 0.994461, 0.994461
14.4, 0.8562, 0.899514, 0.994461, 0.994461
14.6, 0.851901, 0.896754, 0.994421, 0.994461
14.8, 0.847861, 0.894735, 0.994421, 0.994461
15, 0.844002, 0.892695, 0.994421, 0.994461
15.2, 0.840182, 0.890155, 0.994401, 0.994461
15.4, 0.836043, 0.887816, 0.994381, 0.994461
15.6, 0.831184, 0.885736, 0.994381, 0.994461
15.8, 0.827024, 0.883116, 0.994321, 0.994461
16, 0.822545, 0.880717, 0.994221, 0.994461
16.2, 0.817566, 0.878357, 0.994141, 0.994461
16.4, 0.812786, 0.875637, 0.993961, 0.994461
16.6, 0.807547, 0.872498, 0.993741, 0.994461
16.8, 0.801688, 0.869578, 0.993401, 0.994461
17, 0.796608, 0.865999, 0.993001, 0.994461
17.2, 0.791389, 0.862819, 0.992561, 0.994461
17.4, 0.78491, 0.85942, 0.991901, 0.994461
17.6, 0.778811, 0.85584, 0.990981, 0.994461
17.8, 0.771372, 0.851941, 0.990101, 0.994461
18, 0.764313, 0.847361, 0.988842, 0.994461
18.2, 0.756994, 0.843422, 0.987042, 0.994461
18.4, 0.749075, 0.839422, 0.985002, 0.994461
18.6, 0.740336, 0.836503, 0.982143, 0.994461
18.8, 0.730898, 0.833083, 0.979063, 0.994461
19, 0.720819, 0.828724, 0.975223, 0.994461
19.2, 0.709941, 0.825044, 0.970564, 0.994461
19.4, 0.697882, 0.820745, 0.964645, 0.994461
19.6, 0.684464, 0.816286, 0.957766, 0.994461
19.8, 0.671026, 0.811486, 0.949367, 0.994461
20, 0.656768, 0.806707, 0.940448, 0.994461
20.2, 0.64117, 0.801908, 0.92931, 0.994461
20.4, 0.623033, 0.795669, 0.916132, 0.994461
20.6, 0.603276, 0.790029, 0.901434, 0.994461
20.8, 0.584798, 0.78389, 0.884976, 0.994461
21, 0.559402, 0.777651, 0.865839, 0.994461
21.2, 0.534545, 0.769812, 0.843782, 0.994461
21.4, 0.505729, 0.762193, 0.818145, 0.994461
21.6, 0.474234, 0.755774, 0.78887, 0.994461
21.8, 0.440958, 0.748975, 0.756574, 0.994461
22, 0.401984, 0.742296, 0.719039, 0.994461
22.2, 0.362829, 0.735317, 0.679385, 0.994461
22.4, 0.320495, 0.729478, 0.634231, 0.994461
22.6, 0.275181, 0.722739, 0.585778, 0.994461
22.8, 0.231568, 0.71502, 0.530466, 0.994461
23, 0.187194, 0.707801, 0.472674, 0.994461
23.2, 0.14444, 0.698442, 0.410643, 0.994461
23.4, 0.108005, 0.688984, 0.345052, 0.994461
23.6, 0.0760694, 0.678145, 0.275401, 0.994461
23.8, 0.049833, 0.666867, 0.208791, 0.994461
24, 0.0305957, 0.652789, 0.149719, 0.994461
24.2, 0.0153778, 0.634371, 0.102386, 0.994461
24.4, 0.007119, 0.610515, 0.0624313, 0.994461
24.6, 0.00239966, 0.550243, 0.0279761, 0.994461
24.8, 0.000839882, 0.409463, 0.00625912, 0.994461
25, 0.000179975, 0.207631, 0.000759894, 0
25.2, 9.9986e-05, 0.0567321, 0.000579919, 0
25.4, 3.99944e-05, 0.00557922, 0, 0
25.6, 0, 0.000239966, 0, 0
25.8, 0, 0, 0, 0
26, 0, 0, 0, 0
26.2, 0, 0, 0, 0
26.4, 0, 0, 0, 0
26.6, 0, 0, 0, 0
26.8, 0, 0, 0, 0
27, 0, 0, 0, 0
27.2, 0, 0, 0, 0
27.4, 0, 0, 0, 0
27.6, 0, 0, 0, 0
27.8, 0, 0, 0, 0
28, 0, 0, 0, 0
28.2, 0, 0, 0, 0
28.4, 0, 0, 0, 0
28.6, 0, 0, 0, 0
28.8, 0, 0, 0, 0
29, 0, 0, 0, 0
29.2, 0, 0, 0, 0
29.4, 0, 0, 0, 0
