-2.5, 0.906305, 0.911811, 0.89741, 0
-1.5, 0.931992, 0.937811, 0.933363, 0
-0.5, 0.941475, 0.947177, 0.973921, 0
0.5, 0.939418, 0.946275, 0.979917, 0.979917
1.5, 0.935969, 0.94414, 0.979897, 0.979917
2.5, 0.93207, 0.942082, 0.979819, 0.979917
3.5, 0.928328, 0.939359, 0.979799, 0.979917
4.5, 0.924311, 0.935715, 0.979701, 0.979917
