-10, 0, 7522, 22586
-9.9, 0, 7622, 22586
-9.8, 0, 7735, 22586
-9.7, 0, 7839, 22586
-9.6, 0, 7945, 22586
-9.5, 0, 8057, 22586
-9.4, 0, 8175, 22586
-9.3, 0, 8290, 22586
-9.2, 0, 8398, 22586
-9.1, 0, 8521, 22586
-9, 0, 8638, 22586
-8.9, 0, 8751, 22586
-8.8, 0, 8863, 22586
-8.7, 0, 9007, 22586
-8.6, 0, 9118, 22586
-8.5, 0, 9229, 22586
-8.4, 0, 9347, 22586
-8.3, 0, 9463, 22586
-8.2, 0, 9598, 22586
-8.1, 0, 9710, 22586
-8, 0, 9860, 22586
-7.9, 0, 9981, 22586
-7.8, 0, 10128, 22586
-7.7, 0, 10268, 22586
-7.6, 0, 10396, 22586
-7.5, 0, 10523, 22586
-7.4, 0, 10656, 22586
-7.3, 0, 10805, 22586
-7.2, 0, 10941, 22586
-7.1, 0, 11063, 22586
-7, 0, 11193, 22586
-6.9, 0, 11353, 22586
-6.8, 0, 11469, 22586
-6.7, 0, 11605, 22586
-6.6, 0, 11754, 22586
-6.5, 0, 11891, 22586
-6.4, 0, 12031, 22586
-6.3, 0, 12181, 22586
-6.2, 0, 12336, 22586
-6.1, 0, 12501, 22586
-6, 0, 12654, 22586
-5.9, 0, 12795, 22586
-5.8, 0, 12954, 22586
-5.7, 0, 13108, 22586
-5.6, 0, 13267, 22586
-5.5, 0, 13424, 22586
-5.4, 0, 13563, 22586
-5.3, 0, 13739, 22586
-5.2, 0, 13883, 22586
-5.1, 0, 14057, 22586
-5, 0, 14227, 22586
-4.9, 0, 14427, 22586
-4.8, 0, 14603, 22586
-4.7, 0, 14766, 22586
-4.6, 0, 14934, 22586
-4.5, 0, 15100, 22586
-4.4, 0, 15258, 22586
-4.3, 0, 15421, 22586
-4.2, 0, 15619, 22586
-4.1, 0, 15795, 22586
-4, 0, 15984, 22586
-3.9, 0, 16168, 22586
-3.8, 0, 16351, 22586
-3.7, 0, 16527, 22586
-3.6, 0, 16726, 22586
-3.5, 0, 16929, 22586
-3.4, 0, 17131, 22586
-3.3, 0, 17338, 22586
-3.2, 0, 17515, 22586
-3.1, 0, 17691, 22586
-3, 0, 17860, 22586
-2.9, 0, 18037, 22586
-2.8, 0, 18235, 22586
-2.7, 0, 18377, 22586
-2.6, 0, 18547, 22586
-2.5, 0, 18697, 22586
-2.4, 0, 18861, 22586
-2.3, 0, 19000, 22586
-2.2, 0, 19141, 22586
-2.1, 0, 19300, 22586
-2, 0, 19443, 22586
-1.9, 0, 19613, 22586
-1.8, 0, 19761, 22586
-1.7, 0, 19942, 22586
-1.6, 0, 20122, 22586
-1.5, 0, 20331, 22586
-1.4, 0, 20540, 22586
-1.3, 0, 20766, 22586
-1.2, 0, 20975, 22586
-1.1, 0, 21172, 22586
-1, 0, 21369, 22586
-0.9, 0, 21577, 22586
-0.8, 0, 21739, 22586
-0.7, 0, 21877, 22586
-0.6, 0, 22003, 22586
-0.5, 0, 22097, 22586
-0.4, 0, 22173, 22586
-0.3, 0, 22216, 22586
-0.2, 0, 22243, 22586
-0.1, 0, 22266, 22586
-1.87905e-14, 0, 22275, 22586
0.1, 0, 22285, 22586
0.2, 0, 22285, 22586
0.3, 0, 22286, 22586
0.4, 0, 22286, 22586
0.5, 0, 22286, 22586
0.6, 0, 22283, 22586
0.7, 0, 22281, 22586
0.8, 0, 22278, 22586
0.9, 0, 22277, 22586
1, 0, 22273, 22586
1.1, 0, 22270, 22586
1.2, 0, 22268, 22586
1.3, 0, 22267, 22586
1.4, 0, 22266, 22586
1.5, 0, 22263, 22586
1.6, 0, 22260, 22586
1.7, 0, 22257, 22586
1.8, 0, 22256, 22586
1.9, 0, 22254, 22586
2, 0, 22252, 22586
2.1, 0, 22252, 22586
2.2, 0, 22250, 22586
2.3, 0, 22248, 22586
2.4, 0, 22245, 22586
2.5, 0, 22242, 22586
2.6, 0, 22242, 22586
2.7, 0, 22240, 22586
2.8, 0, 22237, 22586
2.9, 0, 22234, 22586
3, 0, 22228, 22586
3.1, 0, 22226, 22586
3.2, 0, 22224, 22586
3.3, 0, 22223, 22586
3.4, 0, 22219, 22586
3.5, 0, 22215, 22586
3.6, 0, 22213, 22586
3.7, 0, 22208, 22586
3.8, 0, 22204, 22586
3.9, 0, 22202, 22586
4, 0, 22200, 22586
4.1, 0, 22197, 22586
4.2, 0, 22196, 22586
4.3, 0, 22195, 22586
4.4, 0, 22192, 22586
4.5, 0, 22190, 22586
4.6, 0, 22187, 22586
4.7, 0, 22185, 22586
4.8, 0, 22182, 22586
4.9, 0, 22182, 22586
5, 0, 22180, 22586
5.1, 0, 22179, 22586
5.2, 0, 22176, 22586
5.3, 0, 22173, 22586
5.4, 0, 22168, 22586
5.5, 0, 22167, 22586
5.6, 0, 22165, 22586
5.7, 0, 22160, 22586
5.8, 0, 22156, 22586
5.9, 0, 22153, 22586
6, 0, 22153, 22586
6.1, 0, 22151, 22586
6.2, 0, 22146, 22586
6.3, 0, 22144, 22586
6.4, 0, 22142, 22586
6.5, 0, 22141, 22586
6.6, 0, 22138, 22586
6.7, 0, 22138, 22586
6.8, 0, 22137, 22586
6.9, 0, 22133, 22586
7, 0, 22129, 22586
7.1, 0, 22125, 22586
7.2, 0, 22123, 22586
7.3, 0, 22117, 22586
7.4, 0, 22112, 22586
7.5, 0, 22109, 22586
7.6, 0, 22106, 22586
7.7, 0, 22102, 22586
7.8, 0, 22100, 22586
7.9, 0, 22099, 22586
8, 0, 22093, 22586
8.1, 0, 22087, 22586
8.2, 0, 22083, 22586
8.3, 0, 22077, 22586
8.4, 0, 22070, 22586
8.5, 0, 22065, 22586
8.6, 0, 22063, 22586
8.7, 0, 22059, 22586
8.8, 0, 22057, 22586
8.9, 0, 22051, 22586
9, 0, 22044, 22586
9.1, 0, 22037, 22586
9.2, 0, 22034, 22586
9.3, 0, 22025, 22586
9.4, 0, 22018, 22586
9.5, 0, 22013, 22586
9.6, 0, 22005, 22586
9.7, 0, 21997, 22586
9.8, 0, 21991, 22586
9.9, 0, 21987, 22586
10, 0, 21979, 22586
-10, 0.1, 5223, 16750
-9.9, 0.1, 5299, 16750
-9.8, 0.1, 5380, 16750
-9.7, 0.1, 5459, 16750
-9.6, 0.1, 5548, 16750
-9.5, 0.1, 5630, 16750
-9.4, 0.1, 5718, 16750
-9.3, 0.1, 5807, 16750
-9.2, 0.1, 5888, 16750
-9.1, 0.1, 5980, 16750
-9, 0.1, 6071, 16750
-8.9, 0.1, 6157, 16750
-8.8, 0.1, 6248, 16750
-8.7, 0.1, 6358, 16750
-8.6, 0.1, 6445, 16750
-8.5, 0.1, 6530, 16750
-8.4, 0.1, 6627, 16750
-8.3, 0.1, 6713, 16750
-8.2, 0.1, 6820, 16750
-8.1, 0.1, 6912, 16750
-8, 0.1, 7032, 16750
-7.9, 0.1, 7123, 16750
-7.8, 0.1, 7237, 16750
-7.7, 0.1, 7346, 16750
-7.6, 0.1, 7444, 16750
-7.5, 0.1, 7539, 16750
-7.4, 0.1, 7647, 16750
-7.3, 0.1, 7758, 16750
-7.2, 0.1, 7862, 16750
-7.1, 0.1, 7959, 16750
-7, 0.1, 8063, 16750
-6.9, 0.1, 8202, 16750
-6.8, 0.1, 8292, 16750
-6.7, 0.1, 8402, 16750
-6.6, 0.1, 8523, 16750
-6.5, 0.1, 8628, 16750
-6.4, 0.1, 8735, 16750
-6.3, 0.1, 8848, 16750
-6.2, 0.1, 8985, 16750
-6.1, 0.1, 9121, 16750
-6, 0.1, 9241, 16750
-5.9, 0.1, 9351, 16750
-5.8, 0.1, 9480, 16750
-5.7, 0.1, 9610, 16750
-5.6, 0.1, 9735, 16750
-5.5, 0.1, 9855, 16750
-5.4, 0.1, 9970, 16750
-5.3, 0.1, 10107, 16750
-5.2, 0.1, 10233, 16750
-5.1, 0.1, 10368, 16750
-5, 0.1, 10512, 16750
-4.9, 0.1, 10672, 16750
-4.8, 0.1, 10812, 16750
-4.7, 0.1, 10939, 16750
-4.6, 0.1, 11078, 16750
-4.5, 0.1, 11210, 16750
-4.4, 0.1, 11331, 16750
-4.3, 0.1, 11473, 16750
-4.2, 0.1, 11633, 16750
-4.1, 0.1, 11775, 16750
-4, 0.1, 11935, 16750
-3.9, 0.1, 12090, 16750
-3.8, 0.1, 12240, 16750
-3.7, 0.1, 12383, 16750
-3.6, 0.1, 12539, 16750
-3.5, 0.1, 12714, 16750
-3.4, 0.1, 12879, 16750
-3.3, 0.1, 13053, 16750
-3.2, 0.1, 13198, 16750
-3.1, 0.1, 13348, 16750
-3, 0.1, 13486, 16750
-2.9, 0.1, 13635, 16750
-2.8, 0.1, 13795, 16750
-2.7, 0.1, 13909, 16750
-2.6, 0.1, 14039, 16750
-2.5, 0.1, 14159, 16750
-2.4, 0.1, 14287, 16750
-2.3, 0.1, 14386, 16750
-2.2, 0.1, 14489, 16750
-2.1, 0.1, 14597, 16750
-2, 0.1, 14687, 16750
-1.9, 0.1, 14800, 16750
-1.8, 0.1, 14895, 16750
-1.7, 0.1, 14993, 16750
-1.6, 0.1, 15109, 16750
-1.5, 0.1, 15254, 16750
-1.4, 0.1, 15378, 16750
-1.3, 0.1, 15541, 16750
-1.2, 0.1, 15691, 16750
-1.1, 0.1, 15836, 16750
-1, 0.1, 15984, 16750
-0.9, 0.1, 16131, 16750
-0.8, 0.1, 16257, 16750
-0.7, 0.1, 16364, 16750
-0.6, 0.1, 16451, 16750
-0.5, 0.1, 16521, 16750
-0.4, 0.1, 16579, 16750
-0.3, 0.1, 16608, 16750
-0.2, 0.1, 16630, 16750
-0.1, 0.1, 16652, 16750
-1.87905e-14, 0.1, 16659, 16750
0.1, 0.1, 16666, 16750
0.2, 0.1, 16667, 16750
0.3, 0.1, 16667, 16750
0.4, 0.1, 16667, 16750
0.5, 0.1, 16665, 16750
0.6, 0.1, 16662, 16750
0.7, 0.1, 16661, 16750
0.8, 0.1, 16658, 16750
0.9, 0.1, 16658, 16750
1, 0.1, 16656, 16750
1.1, 0.1, 16655, 16750
1.2, 0.1, 16654, 16750
1.3, 0.1, 16653, 16750
1.4, 0.1, 16653, 16750
1.5, 0.1, 16652, 16750
1.6, 0.1, 16650, 16750
1.7, 0.1, 16649, 16750
1.8, 0.1, 16648, 16750
1.9, 0.1, 16647, 16750
2, 0.1, 16646, 16750
2.1, 0.1, 16646, 16750
2.2, 0.1, 16644, 16750
2.3, 0.1, 16642, 16750
2.4, 0.1, 16640, 16750
2.5, 0.1, 16639, 16750
2.6, 0.1, 16639, 16750
2.7, 0.1, 16639, 16750
2.8, 0.1, 16637, 16750
2.9, 0.1, 16637, 16750
3, 0.1, 16634, 16750
3.1, 0.1, 16634, 16750
3.2, 0.1, 16632, 16750
3.3, 0.1, 16632, 16750
3.4, 0.1, 16631, 16750
3.5, 0.1, 16628, 16750
3.6, 0.1, 16627, 16750
3.7, 0.1, 16623, 16750
3.8, 0.1, 16620, 16750
3.9, 0.1, 16618, 16750
4, 0.1, 16617, 16750
4.1, 0.1, 16616, 16750
4.2, 0.1, 16616, 16750
4.3, 0.1, 16615, 16750
4.4, 0.1, 16614, 16750
4.5, 0.1, 16612, 16750
4.6, 0.1, 16611, 16750
4.7, 0.1, 16609, 16750
4.8, 0.1, 16607, 16750
4.9, 0.1, 16607, 16750
5, 0.1, 16605, 16750
5.1, 0.1, 16604, 16750
5.2, 0.1, 16602, 16750
5.3, 0.1, 16600, 16750
5.4, 0.1, 16597, 16750
5.5, 0.1, 16596, 16750
5.6, 0.1, 16594, 16750
5.7, 0.1, 16590, 16750
5.8, 0.1, 16588, 16750
5.9, 0.1, 16587, 16750
6, 0.1, 16587, 16750
6.1, 0.1, 16585, 16750
6.2, 0.1, 16582, 16750
6.3, 0.1, 16582, 16750
6.4, 0.1, 16580, 16750
6.5, 0.1, 16580, 16750
6.6, 0.1, 16579, 16750
6.7, 0.1, 16579, 16750
6.8, 0.1, 16579, 16750
6.9, 0.1, 16577, 16750
7, 0.1, 16573, 16750
7.1, 0.1, 16571, 16750
7.2, 0.1, 16570, 16750
7.3, 0.1, 16564, 16750
7.4, 0.1, 16560, 16750
7.5, 0.1, 16559, 16750
7.6, 0.1, 16557, 16750
7.7, 0.1, 16555, 16750
7.8, 0.1, 16553, 16750
7.9, 0.1, 16552, 16750
8, 0.1, 16548, 16750
8.1, 0.1, 16545, 16750
8.2, 0.1, 16543, 16750
8.3, 0.1, 16542, 16750
8.4, 0.1, 16539, 16750
8.5, 0.1, 16535, 16750
8.6, 0.1, 16534, 16750
8.7, 0.1, 16532, 16750
8.8, 0.1, 16532, 16750
8.9, 0.1, 16529, 16750
9, 0.1, 16524, 16750
9.1, 0.1, 16520, 16750
9.2, 0.1, 16520, 16750
9.3, 0.1, 16516, 16750
9.4, 0.1, 16511, 16750
9.5, 0.1, 16509, 16750
9.6, 0.1, 16505, 16750
9.7, 0.1, 16501, 16750
9.8, 0.1, 16499, 16750
9.9, 0.1, 16496, 16750
10, 0.1, 16495, 16750
-10, 0.2, 4244, 13958
-9.9, 0.2, 4307, 13958
-9.8, 0.2, 4368, 13958
-9.7, 0.2, 4437, 13958
-9.6, 0.2, 4506, 13958
-9.5, 0.2, 4575, 13958
-9.4, 0.2, 4643, 13958
-9.3, 0.2, 4719, 13958
-9.2, 0.2, 4790, 13958
-9.1, 0.2, 4870, 13958
-9, 0.2, 4941, 13958
-8.9, 0.2, 5012, 13958
-8.8, 0.2, 5091, 13958
-8.7, 0.2, 5182, 13958
-8.6, 0.2, 5255, 13958
-8.5, 0.2, 5327, 13958
-8.4, 0.2, 5407, 13958
-8.3, 0.2, 5477, 13958
-8.2, 0.2, 5571, 13958
-8.1, 0.2, 5649, 13958
-8, 0.2, 5754, 13958
-7.9, 0.2, 5835, 13958
-7.8, 0.2, 5927, 13958
-7.7, 0.2, 6024, 13958
-7.6, 0.2, 6111, 13958
-7.5, 0.2, 6185, 13958
-7.4, 0.2, 6281, 13958
-7.3, 0.2, 6373, 13958
-7.2, 0.2, 6462, 13958
-7.1, 0.2, 6542, 13958
-7, 0.2, 6629, 13958
-6.9, 0.2, 6744, 13958
-6.8, 0.2, 6821, 13958
-6.7, 0.2, 6918, 13958
-6.6, 0.2, 7025, 13958
-6.5, 0.2, 7112, 13958
-6.4, 0.2, 7203, 13958
-6.3, 0.2, 7301, 13958
-6.2, 0.2, 7418, 13958
-6.1, 0.2, 7538, 13958
-6, 0.2, 7639, 13958
-5.9, 0.2, 7734, 13958
-5.8, 0.2, 7841, 13958
-5.7, 0.2, 7943, 13958
-5.6, 0.2, 8046, 13958
-5.5, 0.2, 8142, 13958
-5.4, 0.2, 8242, 13958
-5.3, 0.2, 8358, 13958
-5.2, 0.2, 8465, 13958
-5.1, 0.2, 8584, 13958
-5, 0.2, 8704, 13958
-4.9, 0.2, 8841, 13958
-4.8, 0.2, 8964, 13958
-4.7, 0.2, 9078, 13958
-4.6, 0.2, 9203, 13958
-4.5, 0.2, 9310, 13958
-4.4, 0.2, 9414, 13958
-4.3, 0.2, 9533, 13958
-4.2, 0.2, 9662, 13958
-4.1, 0.2, 9791, 13958
-4, 0.2, 9923, 13958
-3.9, 0.2, 10061, 13958
-3.8, 0.2, 10188, 13958
-3.7, 0.2, 10307, 13958
-3.6, 0.2, 10451, 13958
-3.5, 0.2, 10610, 13958
-3.4, 0.2, 10751, 13958
-3.3, 0.2, 10907, 13958
-3.2, 0.2, 11032, 13958
-3.1, 0.2, 11161, 13958
-3, 0.2, 11280, 13958
-2.9, 0.2, 11405, 13958
-2.8, 0.2, 11541, 13958
-2.7, 0.2, 11637, 13958
-2.6, 0.2, 11747, 13958
-2.5, 0.2, 11840, 13958
-2.4, 0.2, 11946, 13958
-2.3, 0.2, 12035, 13958
-2.2, 0.2, 12114, 13958
-2.1, 0.2, 12208, 13958
-2, 0.2, 12287, 13958
-1.9, 0.2, 12376, 13958
-1.8, 0.2, 12456, 13958
-1.7, 0.2, 12540, 13958
-1.6, 0.2, 12640, 13958
-1.5, 0.2, 12775, 13958
-1.4, 0.2, 12889, 13958
-1.3, 0.2, 13032, 13958
-1.2, 0.2, 13164, 13958
-1.1, 0.2, 13286, 13958
-1, 0.2, 13411, 13958
-0.9, 0.2, 13525, 13958
-0.8, 0.2, 13630, 13958
-0.7, 0.2, 13700, 13958
-0.6, 0.2, 13763, 13958
-0.5, 0.2, 13814, 13958
-0.4, 0.2, 13853, 13958
-0.3, 0.2, 13868, 13958
-0.2, 0.2, 13887, 13958
-0.1, 0.2, 13901, 13958
-1.87905e-14, 0.2, 13907, 13958
0.1, 0.2, 13911, 13958
0.2, 0.2, 13912, 13958
0.3, 0.2, 13912, 13958
0.4, 0.2, 13912, 13958
0.5, 0.2, 13910, 13958
0.6, 0.2, 13908, 13958
0.7, 0.2, 13908, 13958
0.8, 0.2, 13905, 13958
0.9, 0.2, 13905, 13958
1, 0.2, 13903, 13958
1.1, 0.2, 13902, 13958
1.2, 0.2, 13902, 13958
1.3, 0.2, 13902, 13958
1.4, 0.2, 13902, 13958
1.5, 0.2, 13902, 13958
1.6, 0.2, 13901, 13958
1.7, 0.2, 13900, 13958
1.8, 0.2, 13899, 13958
1.9, 0.2, 13899, 13958
2, 0.2, 13898, 13958
2.1, 0.2, 13898, 13958
2.2, 0.2, 13896, 13958
2.3, 0.2, 13894, 13958
2.4, 0.2, 13893, 13958
2.5, 0.2, 13892, 13958
2.6, 0.2, 13892, 13958
2.7, 0.2, 13892, 13958
2.8, 0.2, 13890, 13958
2.9, 0.2, 13890, 13958
3, 0.2, 13888, 13958
3.1, 0.2, 13888, 13958
3.2, 0.2, 13886, 13958
3.3, 0.2, 13886, 13958
3.4, 0.2, 13885, 13958
3.5, 0.2, 13883, 13958
3.6, 0.2, 13882, 13958
3.7, 0.2, 13878, 13958
3.8, 0.2, 13875, 13958
3.9, 0.2, 13873, 13958
4, 0.2, 13873, 13958
4.1, 0.2, 13873, 13958
4.2, 0.2, 13873, 13958
4.3, 0.2, 13873, 13958
4.4, 0.2, 13873, 13958
4.5, 0.2, 13871, 13958
4.6, 0.2, 13871, 13958
4.7, 0.2, 13869, 13958
4.8, 0.2, 13868, 13958
4.9, 0.2, 13868, 13958
5, 0.2, 13867, 13958
5.1, 0.2, 13866, 13958
5.2, 0.2, 13865, 13958
5.3, 0.2, 13864, 13958
5.4, 0.2, 13862, 13958
5.5, 0.2, 13861, 13958
5.6, 0.2, 13860, 13958
5.7, 0.2, 13859, 13958
5.8, 0.2, 13857, 13958
5.9, 0.2, 13856, 13958
6, 0.2, 13856, 13958
6.1, 0.2, 13855, 13958
6.2, 0.2, 13853, 13958
6.3, 0.2, 13853, 13958
6.4, 0.2, 13851, 13958
6.5, 0.2, 13851, 13958
6.6, 0.2, 13850, 13958
6.7, 0.2, 13850, 13958
6.8, 0.2, 13850, 13958
6.9, 0.2, 13849, 13958
7, 0.2, 13846, 13958
7.1, 0.2, 13845, 13958
7.2, 0.2, 13844, 13958
7.3, 0.2, 13840, 13958
7.4, 0.2, 13837, 13958
7.5, 0.2, 13836, 13958
7.6, 0.2, 13834, 13958
7.7, 0.2, 13833, 13958
7.8, 0.2, 13832, 13958
7.9, 0.2, 13832, 13958
8, 0.2, 13830, 13958
8.1, 0.2, 13827, 13958
8.2, 0.2, 13825, 13958
8.3, 0.2, 13824, 13958
8.4, 0.2, 13821, 13958
8.5, 0.2, 13818, 13958
8.6, 0.2, 13817, 13958
8.7, 0.2, 13815, 13958
8.8, 0.2, 13815, 13958
8.9, 0.2, 13813, 13958
9, 0.2, 13809, 13958
9.1, 0.2, 13806, 13958
9.2, 0.2, 13806, 13958
9.3, 0.2, 13803, 13958
9.4, 0.2, 13799, 13958
9.5, 0.2, 13797, 13958
9.6, 0.2, 13794, 13958
9.7, 0.2, 13792, 13958
9.8, 0.2, 13791, 13958
9.9, 0.2, 13788, 13958
10, 0.2, 13787, 13958
-10, 0.3, 3249, 10951
-9.9, 0.3, 3298, 10951
-9.8, 0.3, 3347, 10951
-9.7, 0.3, 3398, 10951
-9.6, 0.3, 3450, 10951
-9.5, 0.3, 3499, 10951
-9.4, 0.3, 3553, 10951
-9.3, 0.3, 3610, 10951
-9.2, 0.3, 3667, 10951
-9.1, 0.3, 3735, 10951
-9, 0.3, 3794, 10951
-8.9, 0.3, 3844, 10951
-8.8, 0.3, 3902, 10951
-8.7, 0.3, 3973, 10951
-8.6, 0.3, 4027, 10951
-8.5, 0.3, 4087, 10951
-8.4, 0.3, 4150, 10951
-8.3, 0.3, 4204, 10951
-8.2, 0.3, 4278, 10951
-8.1, 0.3, 4340, 10951
-8, 0.3, 4428, 10951
-7.9, 0.3, 4497, 10951
-7.8, 0.3, 4576, 10951
-7.7, 0.3, 4655, 10951
-7.6, 0.3, 4722, 10951
-7.5, 0.3, 4781, 10951
-7.4, 0.3, 4861, 10951
-7.3, 0.3, 4941, 10951
-7.2, 0.3, 5010, 10951
-7.1, 0.3, 5076, 10951
-7, 0.3, 5144, 10951
-6.9, 0.3, 5232, 10951
-6.8, 0.3, 5291, 10951
-6.7, 0.3, 5374, 10951
-6.6, 0.3, 5461, 10951
-6.5, 0.3, 5531, 10951
-6.4, 0.3, 5608, 10951
-6.3, 0.3, 5684, 10951
-6.2, 0.3, 5777, 10951
-6.1, 0.3, 5869, 10951
-6, 0.3, 5941, 10951
-5.9, 0.3, 6022, 10951
-5.8, 0.3, 6107, 10951
-5.7, 0.3, 6186, 10951
-5.6, 0.3, 6260, 10951
-5.5, 0.3, 6338, 10951
-5.4, 0.3, 6424, 10951
-5.3, 0.3, 6523, 10951
-5.2, 0.3, 6607, 10951
-5.1, 0.3, 6702, 10951
-5, 0.3, 6798, 10951
-4.9, 0.3, 6910, 10951
-4.8, 0.3, 7008, 10951
-4.7, 0.3, 7105, 10951
-4.6, 0.3, 7206, 10951
-4.5, 0.3, 7297, 10951
-4.4, 0.3, 7378, 10951
-4.3, 0.3, 7479, 10951
-4.2, 0.3, 7585, 10951
-4.1, 0.3, 7694, 10951
-4, 0.3, 7798, 10951
-3.9, 0.3, 7915, 10951
-3.8, 0.3, 8024, 10951
-3.7, 0.3, 8121, 10951
-3.6, 0.3, 8242, 10951
-3.5, 0.3, 8369, 10951
-3.4, 0.3, 8485, 10951
-3.3, 0.3, 8619, 10951
-3.2, 0.3, 8714, 10951
-3.1, 0.3, 8817, 10951
-3, 0.3, 8914, 10951
-2.9, 0.3, 9008, 10951
-2.8, 0.3, 9117, 10951
-2.7, 0.3, 9191, 10951
-2.6, 0.3, 9273, 10951
-2.5, 0.3, 9348, 10951
-2.4, 0.3, 9434, 10951
-2.3, 0.3, 9501, 10951
-2.2, 0.3, 9558, 10951
-2.1, 0.3, 9635, 10951
-2, 0.3, 9698, 10951
-1.9, 0.3, 9774, 10951
-1.8, 0.3, 9837, 10951
-1.7, 0.3, 9900, 10951
-1.6, 0.3, 9976, 10951
-1.5, 0.3, 10085, 10951
-1.4, 0.3, 10183, 10951
-1.3, 0.3, 10302, 10951
-1.2, 0.3, 10402, 10951
-1.1, 0.3, 10493, 10951
-1, 0.3, 10582, 10951
-0.9, 0.3, 10664, 10951
-0.8, 0.3, 10733, 10951
-0.7, 0.3, 10778, 10951
-0.6, 0.3, 10823, 10951
-0.5, 0.3, 10853, 10951
-0.4, 0.3, 10878, 10951
-0.3, 0.3, 10892, 10951
-0.2, 0.3, 10906, 10951
-0.1, 0.3, 10916, 10951
-1.87905e-14, 0.3, 10920, 10951
0.1, 0.3, 10923, 10951
0.2, 0.3, 10925, 10951
0.3, 0.3, 10925, 10951
0.4, 0.3, 10925, 10951
0.5, 0.3, 10924, 10951
0.6, 0.3, 10923, 10951
0.7, 0.3, 10923, 10951
0.8, 0.3, 10920, 10951
0.9, 0.3, 10920, 10951
1, 0.3, 10918, 10951
1.1, 0.3, 10917, 10951
1.2, 0.3, 10917, 10951
1.3, 0.3, 10917, 10951
1.4, 0.3, 10917, 10951
1.5, 0.3, 10917, 10951
1.6, 0.3, 10916, 10951
1.7, 0.3, 10915, 10951
1.8, 0.3, 10914, 10951
1.9, 0.3, 10914, 10951
2, 0.3, 10913, 10951
2.1, 0.3, 10913, 10951
2.2, 0.3, 10911, 10951
2.3, 0.3, 10909, 10951
2.4, 0.3, 10908, 10951
2.5, 0.3, 10907, 10951
2.6, 0.3, 10907, 10951
2.7, 0.3, 10907, 10951
2.8, 0.3, 10905, 10951
2.9, 0.3, 10905, 10951
3, 0.3, 10904, 10951
3.1, 0.3, 10904, 10951
3.2, 0.3, 10902, 10951
3.3, 0.3, 10902, 10951
3.4, 0.3, 10901, 10951
3.5, 0.3, 10900, 10951
3.6, 0.3, 10900, 10951
3.7, 0.3, 10896, 10951
3.8, 0.3, 10893, 10951
3.9, 0.3, 10892, 10951
4, 0.3, 10892, 10951
4.1, 0.3, 10892, 10951
4.2, 0.3, 10892, 10951
4.3, 0.3, 10892, 10951
4.4, 0.3, 10892, 10951
4.5, 0.3, 10891, 10951
4.6, 0.3, 10891, 10951
4.7, 0.3, 10890, 10951
4.8, 0.3, 10890, 10951
4.9, 0.3, 10890, 10951
5, 0.3, 10890, 10951
5.1, 0.3, 10889, 10951
5.2, 0.3, 10888, 10951
5.3, 0.3, 10887, 10951
5.4, 0.3, 10885, 10951
5.5, 0.3, 10885, 10951
5.6, 0.3, 10884, 10951
5.7, 0.3, 10883, 10951
5.8, 0.3, 10881, 10951
5.9, 0.3, 10880, 10951
6, 0.3, 10880, 10951
6.1, 0.3, 10879, 10951
6.2, 0.3, 10879, 10951
6.3, 0.3, 10879, 10951
6.4, 0.3, 10877, 10951
6.5, 0.3, 10877, 10951
6.6, 0.3, 10877, 10951
6.7, 0.3, 10877, 10951
6.8, 0.3, 10877, 10951
6.9, 0.3, 10876, 10951
7, 0.3, 10873, 10951
7.1, 0.3, 10872, 10951
7.2, 0.3, 10871, 10951
7.3, 0.3, 10869, 10951
7.4, 0.3, 10866, 10951
7.5, 0.3, 10866, 10951
7.6, 0.3, 10864, 10951
7.7, 0.3, 10864, 10951
7.8, 0.3, 10863, 10951
7.9, 0.3, 10863, 10951
8, 0.3, 10862, 10951
8.1, 0.3, 10861, 10951
8.2, 0.3, 10860, 10951
8.3, 0.3, 10859, 10951
8.4, 0.3, 10858, 10951
8.5, 0.3, 10857, 10951
8.6, 0.3, 10857, 10951
8.7, 0.3, 10855, 10951
8.8, 0.3, 10855, 10951
8.9, 0.3, 10853, 10951
9, 0.3, 10849, 10951
9.1, 0.3, 10847, 10951
9.2, 0.3, 10847, 10951
9.3, 0.3, 10846, 10951
9.4, 0.3, 10844, 10951
9.5, 0.3, 10844, 10951
9.6, 0.3, 10842, 10951
9.7, 0.3, 10841, 10951
9.8, 0.3, 10840, 10951
9.9, 0.3, 10839, 10951
10, 0.3, 10839, 10951
-10, 0.4, 2451, 8501
-9.9, 0.4, 2490, 8501
-9.8, 0.4, 2529, 8501
-9.7, 0.4, 2573, 8501
-9.6, 0.4, 2617, 8501
-9.5, 0.4, 2652, 8501
-9.4, 0.4, 2691, 8501
-9.3, 0.4, 2732, 8501
-9.2, 0.4, 2774, 8501
-9.1, 0.4, 2828, 8501
-9, 0.4, 2876, 8501
-8.9, 0.4, 2918, 8501
-8.8, 0.4, 2968, 8501
-8.7, 0.4, 3026, 8501
-8.6, 0.4, 3068, 8501
-8.5, 0.4, 3117, 8501
-8.4, 0.4, 3163, 8501
-8.3, 0.4, 3200, 8501
-8.2, 0.4, 3256, 8501
-8.1, 0.4, 3307, 8501
-8, 0.4, 3374, 8501
-7.9, 0.4, 3424, 8501
-7.8, 0.4, 3483, 8501
-7.7, 0.4, 3543, 8501
-7.6, 0.4, 3594, 8501
-7.5, 0.4, 3645, 8501
-7.4, 0.4, 3708, 8501
-7.3, 0.4, 3772, 8501
-7.2, 0.4, 3823, 8501
-7.1, 0.4, 3865, 8501
-7, 0.4, 3916, 8501
-6.9, 0.4, 3980, 8501
-6.8, 0.4, 4024, 8501
-6.7, 0.4, 4086, 8501
-6.6, 0.4, 4152, 8501
-6.5, 0.4, 4200, 8501
-6.4, 0.4, 4267, 8501
-6.3, 0.4, 4329, 8501
-6.2, 0.4, 4409, 8501
-6.1, 0.4, 4483, 8501
-6, 0.4, 4539, 8501
-5.9, 0.4, 4604, 8501
-5.8, 0.4, 4679, 8501
-5.7, 0.4, 4741, 8501
-5.6, 0.4, 4798, 8501
-5.5, 0.4, 4864, 8501
-5.4, 0.4, 4936, 8501
-5.3, 0.4, 5017, 8501
-5.2, 0.4, 5080, 8501
-5.1, 0.4, 5154, 8501
-5, 0.4, 5229, 8501
-4.9, 0.4, 5324, 8501
-4.8, 0.4, 5404, 8501
-4.7, 0.4, 5482, 8501
-4.6, 0.4, 5559, 8501
-4.5, 0.4, 5625, 8501
-4.4, 0.4, 5688, 8501
-4.3, 0.4, 5770, 8501
-4.2, 0.4, 5859, 8501
-4.1, 0.4, 5950, 8501
-4, 0.4, 6038, 8501
-3.9, 0.4, 6138, 8501
-3.8, 0.4, 6227, 8501
-3.7, 0.4, 6306, 8501
-3.6, 0.4, 6402, 8501
-3.5, 0.4, 6505, 8501
-3.4, 0.4, 6602, 8501
-3.3, 0.4, 6706, 8501
-3.2, 0.4, 6778, 8501
-3.1, 0.4, 6860, 8501
-3, 0.4, 6942, 8501
-2.9, 0.4, 7018, 8501
-2.8, 0.4, 7104, 8501
-2.7, 0.4, 7153, 8501
-2.6, 0.4, 7214, 8501
-2.5, 0.4, 7276, 8501
-2.4, 0.4, 7341, 8501
-2.3, 0.4, 7396, 8501
-2.2, 0.4, 7446, 8501
-2.1, 0.4, 7505, 8501
-2, 0.4, 7552, 8501
-1.9, 0.4, 7611, 8501
-1.8, 0.4, 7654, 8501
-1.7, 0.4, 7703, 8501
-1.6, 0.4, 7755, 8501
-1.5, 0.4, 7840, 8501
-1.4, 0.4, 7905, 8501
-1.3, 0.4, 8003, 8501
-1.2, 0.4, 8082, 8501
-1.1, 0.4, 8152, 8501
-1, 0.4, 8227, 8501
-0.9, 0.4, 8284, 8501
-0.8, 0.4, 8341, 8501
-0.7, 0.4, 8374, 8501
-0.6, 0.4, 8405, 8501
-0.5, 0.4, 8429, 8501
-0.4, 0.4, 8446, 8501
-0.3, 0.4, 8458, 8501
-0.2, 0.4, 8470, 8501
-0.1, 0.4, 8476, 8501
-1.87905e-14, 0.4, 8479, 8501
0.1, 0.4, 8482, 8501
0.2, 0.4, 8482, 8501
0.3, 0.4, 8482, 8501
0.4, 0.4, 8482, 8501
0.5, 0.4, 8482, 8501
0.6, 0.4, 8481, 8501
0.7, 0.4, 8481, 8501
0.8, 0.4, 8478, 8501
0.9, 0.4, 8478, 8501
1, 0.4, 8476, 8501
1.1, 0.4, 8475, 8501
1.2, 0.4, 8475, 8501
1.3, 0.4, 8475, 8501
1.4, 0.4, 8475, 8501
1.5, 0.4, 8475, 8501
1.6, 0.4, 8474, 8501
1.7, 0.4, 8474, 8501
1.8, 0.4, 8473, 8501
1.9, 0.4, 8473, 8501
2, 0.4, 8473, 8501
2.1, 0.4, 8473, 8501
2.2, 0.4, 8472, 8501
2.3, 0.4, 8471, 8501
2.4, 0.4, 8470, 8501
2.5, 0.4, 8469, 8501
2.6, 0.4, 8469, 8501
2.7, 0.4, 8469, 8501
2.8, 0.4, 8467, 8501
2.9, 0.4, 8467, 8501
3, 0.4, 8467, 8501
3.1, 0.4, 8467, 8501
3.2, 0.4, 8466, 8501
3.3, 0.4, 8466, 8501
3.4, 0.4, 8466, 8501
3.5, 0.4, 8465, 8501
3.6, 0.4, 8465, 8501
3.7, 0.4, 8462, 8501
3.8, 0.4, 8460, 8501
3.9, 0.4, 8460, 8501
4, 0.4, 8460, 8501
4.1, 0.4, 8460, 8501
4.2, 0.4, 8460, 8501
4.3, 0.4, 8460, 8501
4.4, 0.4, 8460, 8501
4.5, 0.4, 8460, 8501
4.6, 0.4, 8460, 8501
4.7, 0.4, 8460, 8501
4.8, 0.4, 8460, 8501
4.9, 0.4, 8460, 8501
5, 0.4, 8460, 8501
5.1, 0.4, 8459, 8501
5.2, 0.4, 8459, 8501
5.3, 0.4, 8459, 8501
5.4, 0.4, 8458, 8501
5.5, 0.4, 8458, 8501
5.6, 0.4, 8457, 8501
5.7, 0.4, 8457, 8501
5.8, 0.4, 8456, 8501
5.9, 0.4, 8456, 8501
6, 0.4, 8456, 8501
6.1, 0.4, 8456, 8501
6.2, 0.4, 8456, 8501
6.3, 0.4, 8456, 8501
6.4, 0.4, 8456, 8501
6.5, 0.4, 8456, 8501
6.6, 0.4, 8456, 8501
6.7, 0.4, 8456, 8501
6.8, 0.4, 8456, 8501
6.9, 0.4, 8455, 8501
7, 0.4, 8453, 8501
7.1, 0.4, 8452, 8501
7.2, 0.4, 8451, 8501
7.3, 0.4, 8451, 8501
7.4, 0.4, 8451, 8501
7.5, 0.4, 8451, 8501
7.6, 0.4, 8450, 8501
7.7, 0.4, 8450, 8501
7.8, 0.4, 8450, 8501
7.9, 0.4, 8450, 8501
8, 0.4, 8449, 8501
8.1, 0.4, 8449, 8501
8.2, 0.4, 8449, 8501
8.3, 0.4, 8448, 8501
8.4, 0.4, 8447, 8501
8.5, 0.4, 8447, 8501
8.6, 0.4, 8447, 8501
8.7, 0.4, 8447, 8501
8.8, 0.4, 8447, 8501
8.9, 0.4, 8447, 8501
9, 0.4, 8445, 8501
9.1, 0.4, 8443, 8501
9.2, 0.4, 8443, 8501
9.3, 0.4, 8443, 8501
9.4, 0.4, 8443, 8501
9.5, 0.4, 8443, 8501
9.6, 0.4, 8442, 8501
9.7, 0.4, 8441, 8501
9.8, 0.4, 8440, 8501
9.9, 0.4, 8440, 8501
10, 0.4, 8440, 8501
-10, 0.5, 1832, 6455
-9.9, 0.5, 1862, 6455
-9.8, 0.5, 1885, 6455
-9.7, 0.5, 1922, 6455
-9.6, 0.5, 1950, 6455
-9.5, 0.5, 1980, 6455
-9.4, 0.5, 2011, 6455
-9.3, 0.5, 2042, 6455
-9.2, 0.5, 2071, 6455
-9.1, 0.5, 2111, 6455
-9, 0.5, 2143, 6455
-8.9, 0.5, 2170, 6455
-8.8, 0.5, 2206, 6455
-8.7, 0.5, 2248, 6455
-8.6, 0.5, 2281, 6455
-8.5, 0.5, 2322, 6455
-8.4, 0.5, 2354, 6455
-8.3, 0.5, 2380, 6455
-8.2, 0.5, 2422, 6455
-8.1, 0.5, 2458, 6455
-8, 0.5, 2505, 6455
-7.9, 0.5, 2540, 6455
-7.8, 0.5, 2581, 6455
-7.7, 0.5, 2625, 6455
-7.6, 0.5, 2665, 6455
-7.5, 0.5, 2706, 6455
-7.4, 0.5, 2752, 6455
-7.3, 0.5, 2807, 6455
-7.2, 0.5, 2849, 6455
-7.1, 0.5, 2882, 6455
-7, 0.5, 2924, 6455
-6.9, 0.5, 2978, 6455
-6.8, 0.5, 3013, 6455
-6.7, 0.5, 3060, 6455
-6.6, 0.5, 3112, 6455
-6.5, 0.5, 3150, 6455
-6.4, 0.5, 3198, 6455
-6.3, 0.5, 3249, 6455
-6.2, 0.5, 3309, 6455
-6.1, 0.5, 3363, 6455
-6, 0.5, 3406, 6455
-5.9, 0.5, 3454, 6455
-5.8, 0.5, 3508, 6455
-5.7, 0.5, 3557, 6455
-5.6, 0.5, 3599, 6455
-5.5, 0.5, 3655, 6455
-5.4, 0.5, 3706, 6455
-5.3, 0.5, 3764, 6455
-5.2, 0.5, 3815, 6455
-5.1, 0.5, 3874, 6455
-5, 0.5, 3927, 6455
-4.9, 0.5, 4005, 6455
-4.8, 0.5, 4066, 6455
-4.7, 0.5, 4130, 6455
-4.6, 0.5, 4185, 6455
-4.5, 0.5, 4236, 6455
-4.4, 0.5, 4284, 6455
-4.3, 0.5, 4348, 6455
-4.2, 0.5, 4419, 6455
-4.1, 0.5, 4490, 6455
-4, 0.5, 4557, 6455
-3.9, 0.5, 4634, 6455
-3.8, 0.5, 4707, 6455
-3.7, 0.5, 4761, 6455
-3.6, 0.5, 4840, 6455
-3.5, 0.5, 4918, 6455
-3.4, 0.5, 4992, 6455
-3.3, 0.5, 5072, 6455
-3.2, 0.5, 5125, 6455
-3.1, 0.5, 5188, 6455
-3, 0.5, 5250, 6455
-2.9, 0.5, 5308, 6455
-2.8, 0.5, 5381, 6455
-2.7, 0.5, 5419, 6455
-2.6, 0.5, 5462, 6455
-2.5, 0.5, 5508, 6455
-2.4, 0.5, 5553, 6455
-2.3, 0.5, 5596, 6455
-2.2, 0.5, 5637, 6455
-2.1, 0.5, 5683, 6455
-2, 0.5, 5720, 6455
-1.9, 0.5, 5765, 6455
-1.8, 0.5, 5801, 6455
-1.7, 0.5, 5842, 6455
-1.6, 0.5, 5882, 6455
-1.5, 0.5, 5947, 6455
-1.4, 0.5, 5997, 6455
-1.3, 0.5, 6068, 6455
-1.2, 0.5, 6131, 6455
-1.1, 0.5, 6188, 6455
-1, 0.5, 6247, 6455
-0.9, 0.5, 6293, 6455
-0.8, 0.5, 6338, 6455
-0.7, 0.5, 6368, 6455
-0.6, 0.5, 6387, 6455
-0.5, 0.5, 6406, 6455
-0.4, 0.5, 6417, 6455
-0.3, 0.5, 6427, 6455
-0.2, 0.5, 6434, 6455
-0.1, 0.5, 6439, 6455
-1.87905e-14, 0.5, 6442, 6455
0.1, 0.5, 6444, 6455
0.2, 0.5, 6444, 6455
0.3, 0.5, 6444, 6455
0.4, 0.5, 6444, 6455
0.5, 0.5, 6444, 6455
0.6, 0.5, 6444, 6455
0.7, 0.5, 6444, 6455
0.8, 0.5, 6443, 6455
0.9, 0.5, 6443, 6455
1, 0.5, 6442, 6455
1.1, 0.5, 6441, 6455
1.2, 0.5, 6441, 6455
1.3, 0.5, 6441, 6455
1.4, 0.5, 6441, 6455
1.5, 0.5, 6441, 6455
1.6, 0.5, 6440, 6455
1.7, 0.5, 6440, 6455
1.8, 0.5, 6439, 6455
1.9, 0.5, 6439, 6455
2, 0.5, 6439, 6455
2.1, 0.5, 6439, 6455
2.2, 0.5, 6439, 6455
2.3, 0.5, 6439, 6455
2.4, 0.5, 6439, 6455
2.5, 0.5, 6439, 6455
2.6, 0.5, 6439, 6455
2.7, 0.5, 6439, 6455
2.8, 0.5, 6439, 6455
2.9, 0.5, 6439, 6455
3, 0.5, 6439, 6455
3.1, 0.5, 6439, 6455
3.2, 0.5, 6438, 6455
3.3, 0.5, 6438, 6455
3.4, 0.5, 6438, 6455
3.5, 0.5, 6438, 6455
3.6, 0.5, 6438, 6455
3.7, 0.5, 6438, 6455
3.8, 0.5, 6437, 6455
3.9, 0.5, 6437, 6455
4, 0.5, 6437, 6455
4.1, 0.5, 6437, 6455
4.2, 0.5, 6437, 6455
4.3, 0.5, 6437, 6455
4.4, 0.5, 6437, 6455
4.5, 0.5, 6437, 6455
4.6, 0.5, 6437, 6455
4.7, 0.5, 6437, 6455
4.8, 0.5, 6437, 6455
4.9, 0.5, 6437, 6455
5, 0.5, 6437, 6455
5.1, 0.5, 6437, 6455
5.2, 0.5, 6437, 6455
5.3, 0.5, 6437, 6455
5.4, 0.5, 6436, 6455
5.5, 0.5, 6436, 6455
5.6, 0.5, 6436, 6455
5.7, 0.5, 6436, 6455
5.8, 0.5, 6436, 6455
5.9, 0.5, 6436, 6455
6, 0.5, 6436, 6455
6.1, 0.5, 6436, 6455
6.2, 0.5, 6436, 6455
6.3, 0.5, 6436, 6455
6.4, 0.5, 6436, 6455
6.5, 0.5, 6436, 6455
6.6, 0.5, 6436, 6455
6.7, 0.5, 6436, 6455
6.8, 0.5, 6436, 6455
6.9, 0.5, 6436, 6455
7, 0.5, 6436, 6455
7.1, 0.5, 6436, 6455
7.2, 0.5, 6435, 6455
7.3, 0.5, 6435, 6455
7.4, 0.5, 6435, 6455
7.5, 0.5, 6435, 6455
7.6, 0.5, 6434, 6455
7.7, 0.5, 6434, 6455
7.8, 0.5, 6434, 6455
7.9, 0.5, 6434, 6455
8, 0.5, 6433, 6455
8.1, 0.5, 6433, 6455
8.2, 0.5, 6433, 6455
8.3, 0.5, 6432, 6455
8.4, 0.5, 6432, 6455
8.5, 0.5, 6432, 6455
8.6, 0.5, 6432, 6455
8.7, 0.5, 6432, 6455
8.8, 0.5, 6432, 6455
8.9, 0.5, 6432, 6455
9, 0.5, 6430, 6455
9.1, 0.5, 6428, 6455
9.2, 0.5, 6428, 6455
9.3, 0.5, 6428, 6455
9.4, 0.5, 6428, 6455
9.5, 0.5, 6428, 6455
9.6, 0.5, 6427, 6455
9.7, 0.5, 6427, 6455
9.8, 0.5, 6426, 6455
9.9, 0.5, 6426, 6455
10, 0.5, 6426, 6455
-10, 0.6, 1392, 4963
-9.9, 0.6, 1411, 4963
-9.8, 0.6, 1423, 4963
-9.7, 0.6, 1453, 4963
-9.6, 0.6, 1473, 4963
-9.5, 0.6, 1498, 4963
-9.4, 0.6, 1524, 4963
-9.3, 0.6, 1547, 4963
-9.2, 0.6, 1571, 4963
-9.1, 0.6, 1600, 4963
-9, 0.6, 1629, 4963
-8.9, 0.6, 1651, 4963
-8.8, 0.6, 1676, 4963
-8.7, 0.6, 1708, 4963
-8.6, 0.6, 1730, 4963
-8.5, 0.6, 1758, 4963
-8.4, 0.6, 1784, 4963
-8.3, 0.6, 1806, 4963
-8.2, 0.6, 1838, 4963
-8.1, 0.6, 1864, 4963
-8, 0.6, 1898, 4963
-7.9, 0.6, 1925, 4963
-7.8, 0.6, 1959, 4963
-7.7, 0.6, 1995, 4963
-7.6, 0.6, 2026, 4963
-7.5, 0.6, 2059, 4963
-7.4, 0.6, 2092, 4963
-7.3, 0.6, 2136, 4963
-7.2, 0.6, 2172, 4963
-7.1, 0.6, 2200, 4963
-7, 0.6, 2234, 4963
-6.9, 0.6, 2268, 4963
-6.8, 0.6, 2291, 4963
-6.7, 0.6, 2332, 4963
-6.6, 0.6, 2372, 4963
-6.5, 0.6, 2401, 4963
-6.4, 0.6, 2439, 4963
-6.3, 0.6, 2478, 4963
-6.2, 0.6, 2527, 4963
-6.1, 0.6, 2569, 4963
-6, 0.6, 2607, 4963
-5.9, 0.6, 2646, 4963
-5.8, 0.6, 2690, 4963
-5.7, 0.6, 2729, 4963
-5.6, 0.6, 2761, 4963
-5.5, 0.6, 2804, 4963
-5.4, 0.6, 2841, 4963
-5.3, 0.6, 2884, 4963
-5.2, 0.6, 2924, 4963
-5.1, 0.6, 2966, 4963
-5, 0.6, 3010, 4963
-4.9, 0.6, 3065, 4963
-4.8, 0.6, 3111, 4963
-4.7, 0.6, 3163, 4963
-4.6, 0.6, 3205, 4963
-4.5, 0.6, 3246, 4963
-4.4, 0.6, 3289, 4963
-4.3, 0.6, 3340, 4963
-4.2, 0.6, 3395, 4963
-4.1, 0.6, 3449, 4963
-4, 0.6, 3504, 4963
-3.9, 0.6, 3564, 4963
-3.8, 0.6, 3615, 4963
-3.7, 0.6, 3652, 4963
-3.6, 0.6, 3716, 4963
-3.5, 0.6, 3781, 4963
-3.4, 0.6, 3841, 4963
-3.3, 0.6, 3911, 4963
-3.2, 0.6, 3951, 4963
-3.1, 0.6, 4003, 4963
-3, 0.6, 4054, 4963
-2.9, 0.6, 4099, 4963
-2.8, 0.6, 4153, 4963
-2.7, 0.6, 4183, 4963
-2.6, 0.6, 4221, 4963
-2.5, 0.6, 4257, 4963
-2.4, 0.6, 4291, 4963
-2.3, 0.6, 4327, 4963
-2.2, 0.6, 4353, 4963
-2.1, 0.6, 4390, 4963
-2, 0.6, 4416, 4963
-1.9, 0.6, 4447, 4963
-1.8, 0.6, 4471, 4963
-1.7, 0.6, 4504, 4963
-1.6, 0.6, 4531, 4963
-1.5, 0.6, 4583, 4963
-1.4, 0.6, 4623, 4963
-1.3, 0.6, 4676, 4963
-1.2, 0.6, 4725, 4963
-1.1, 0.6, 4769, 4963
-1, 0.6, 4814, 4963
-0.9, 0.6, 4846, 4963
-0.8, 0.6, 4879, 4963
-0.7, 0.6, 4904, 4963
-0.6, 0.6, 4920, 4963
-0.5, 0.6, 4934, 4963
-0.4, 0.6, 4946, 4963
-0.3, 0.6, 4952, 4963
-0.2, 0.6, 4958, 4963
-0.1, 0.6, 4959, 4963
-1.87905e-14, 0.6, 4961, 4963
0.1, 0.6, 4963, 4963
0.2, 0.6, 4963, 4963
0.3, 0.6, 4963, 4963
0.4, 0.6, 4963, 4963
0.5, 0.6, 4963, 4963
0.6, 0.6, 4963, 4963
0.7, 0.6, 4963, 4963
0.8, 0.6, 4963, 4963
0.9, 0.6, 4963, 4963
1, 0.6, 4963, 4963
1.1, 0.6, 4963, 4963
1.2, 0.6, 4963, 4963
1.3, 0.6, 4963, 4963
1.4, 0.6, 4963, 4963
1.5, 0.6, 4963, 4963
1.6, 0.6, 4963, 4963
1.7, 0.6, 4963, 4963
1.8, 0.6, 4963, 4963
1.9, 0.6, 4963, 4963
2, 0.6, 4963, 4963
2.1, 0.6, 4963, 4963
2.2, 0.6, 4963, 4963
2.3, 0.6, 4963, 4963
2.4, 0.6, 4963, 4963
2.5, 0.6, 4963, 4963
2.6, 0.6, 4963, 4963
2.7, 0.6, 4963, 4963
2.8, 0.6, 4963, 4963
2.9, 0.6, 4963, 4963
3, 0.6, 4963, 4963
3.1, 0.6, 4963, 4963
3.2, 0.6, 4963, 4963
3.3, 0.6, 4963, 4963
3.4, 0.6, 4963, 4963
3.5, 0.6, 4963, 4963
3.6, 0.6, 4963, 4963
3.7, 0.6, 4963, 4963
3.8, 0.6, 4963, 4963
3.9, 0.6, 4963, 4963
4, 0.6, 4963, 4963
4.1, 0.6, 4963, 4963
4.2, 0.6, 4963, 4963
4.3, 0.6, 4963, 4963
4.4, 0.6, 4963, 4963
4.5, 0.6, 4963, 4963
4.6, 0.6, 4963, 4963
4.7, 0.6, 4963, 4963
4.8, 0.6, 4963, 4963
4.9, 0.6, 4963, 4963
5, 0.6, 4963, 4963
5.1, 0.6, 4963, 4963
5.2, 0.6, 4963, 4963
5.3, 0.6, 4963, 4963
5.4, 0.6, 4963, 4963
5.5, 0.6, 4963, 4963
5.6, 0.6, 4963, 4963
5.7, 0.6, 4963, 4963
5.8, 0.6, 4963, 4963
5.9, 0.6, 4963, 4963
6, 0.6, 4963, 4963
6.1, 0.6, 4963, 4963
6.2, 0.6, 4963, 4963
6.3, 0.6, 4963, 4963
6.4, 0.6, 4963, 4963
6.5, 0.6, 4963, 4963
6.6, 0.6, 4963, 4963
6.7, 0.6, 4963, 4963
6.8, 0.6, 4963, 4963
6.9, 0.6, 4963, 4963
7, 0.6, 4963, 4963
7.1, 0.6, 4963, 4963
7.2, 0.6, 4962, 4963
7.3, 0.6, 4962, 4963
7.4, 0.6, 4962, 4963
7.5, 0.6, 4962, 4963
7.6, 0.6, 4961, 4963
7.7, 0.6, 4961, 4963
7.8, 0.6, 4961, 4963
7.9, 0.6, 4961, 4963
8, 0.6, 4960, 4963
8.1, 0.6, 4960, 4963
8.2, 0.6, 4960, 4963
8.3, 0.6, 4960, 4963
8.4, 0.6, 4960, 4963
8.5, 0.6, 4960, 4963
8.6, 0.6, 4960, 4963
8.7, 0.6, 4960, 4963
8.8, 0.6, 4960, 4963
8.9, 0.6, 4960, 4963
9, 0.6, 4958, 4963
9.1, 0.6, 4956, 4963
9.2, 0.6, 4956, 4963
9.3, 0.6, 4956, 4963
9.4, 0.6, 4956, 4963
9.5, 0.6, 4956, 4963
9.6, 0.6, 4956, 4963
9.7, 0.6, 4956, 4963
9.8, 0.6, 4955, 4963
9.9, 0.6, 4955, 4963
10, 0.6, 4955, 4963
-10, 0.7, 1049, 3852
-9.9, 0.7, 1066, 3852
-9.8, 0.7, 1071, 3852
-9.7, 0.7, 1096, 3852
-9.6, 0.7, 1111, 3852
-9.5, 0.7, 1132, 3852
-9.4, 0.7, 1155, 3852
-9.3, 0.7, 1172, 3852
-9.2, 0.7, 1189, 3852
-9.1, 0.7, 1211, 3852
-9, 0.7, 1237, 3852
-8.9, 0.7, 1254, 3852
-8.8, 0.7, 1274, 3852
-8.7, 0.7, 1299, 3852
-8.6, 0.7, 1315, 3852
-8.5, 0.7, 1338, 3852
-8.4, 0.7, 1354, 3852
-8.3, 0.7, 1372, 3852
-8.2, 0.7, 1393, 3852
-8.1, 0.7, 1414, 3852
-8, 0.7, 1444, 3852
-7.9, 0.7, 1467, 3852
-7.8, 0.7, 1495, 3852
-7.7, 0.7, 1523, 3852
-7.6, 0.7, 1548, 3852
-7.5, 0.7, 1573, 3852
-7.4, 0.7, 1594, 3852
-7.3, 0.7, 1626, 3852
-7.2, 0.7, 1651, 3852
-7.1, 0.7, 1673, 3852
-7, 0.7, 1700, 3852
-6.9, 0.7, 1729, 3852
-6.8, 0.7, 1746, 3852
-6.7, 0.7, 1783, 3852
-6.6, 0.7, 1814, 3852
-6.5, 0.7, 1835, 3852
-6.4, 0.7, 1870, 3852
-6.3, 0.7, 1901, 3852
-6.2, 0.7, 1941, 3852
-6.1, 0.7, 1977, 3852
-6, 0.7, 2010, 3852
-5.9, 0.7, 2044, 3852
-5.8, 0.7, 2078, 3852
-5.7, 0.7, 2109, 3852
-5.6, 0.7, 2131, 3852
-5.5, 0.7, 2162, 3852
-5.4, 0.7, 2191, 3852
-5.3, 0.7, 2225, 3852
-5.2, 0.7, 2261, 3852
-5.1, 0.7, 2289, 3852
-5, 0.7, 2326, 3852
-4.9, 0.7, 2368, 3852
-4.8, 0.7, 2400, 3852
-4.7, 0.7, 2443, 3852
-4.6, 0.7, 2474, 3852
-4.5, 0.7, 2507, 3852
-4.4, 0.7, 2538, 3852
-4.3, 0.7, 2577, 3852
-4.2, 0.7, 2622, 3852
-4.1, 0.7, 2667, 3852
-4, 0.7, 2708, 3852
-3.9, 0.7, 2755, 3852
-3.8, 0.7, 2794, 3852
-3.7, 0.7, 2821, 3852
-3.6, 0.7, 2872, 3852
-3.5, 0.7, 2923, 3852
-3.4, 0.7, 2975, 3852
-3.3, 0.7, 3033, 3852
-3.2, 0.7, 3065, 3852
-3.1, 0.7, 3109, 3852
-3, 0.7, 3144, 3852
-2.9, 0.7, 3181, 3852
-2.8, 0.7, 3222, 3852
-2.7, 0.7, 3243, 3852
-2.6, 0.7, 3277, 3852
-2.5, 0.7, 3305, 3852
-2.4, 0.7, 3329, 3852
-2.3, 0.7, 3362, 3852
-2.2, 0.7, 3382, 3852
-2.1, 0.7, 3407, 3852
-2, 0.7, 3424, 3852
-1.9, 0.7, 3451, 3852
-1.8, 0.7, 3469, 3852
-1.7, 0.7, 3498, 3852
-1.6, 0.7, 3516, 3852
-1.5, 0.7, 3556, 3852
-1.4, 0.7, 3590, 3852
-1.3, 0.7, 3624, 3852
-1.2, 0.7, 3663, 3852
-1.1, 0.7, 3695, 3852
-1, 0.7, 3729, 3852
-0.9, 0.7, 3752, 3852
-0.8, 0.7, 3780, 3852
-0.7, 0.7, 3801, 3852
-0.6, 0.7, 3816, 3852
-0.5, 0.7, 3828, 3852
-0.4, 0.7, 3838, 3852
-0.3, 0.7, 3841, 3852
-0.2, 0.7, 3847, 3852
-0.1, 0.7, 3848, 3852
-1.87905e-14, 0.7, 3850, 3852
0.1, 0.7, 3852, 3852
0.2, 0.7, 3852, 3852
0.3, 0.7, 3852, 3852
0.4, 0.7, 3852, 3852
0.5, 0.7, 3852, 3852
0.6, 0.7, 3852, 3852
0.7, 0.7, 3852, 3852
0.8, 0.7, 3852, 3852
0.9, 0.7, 3852, 3852
1, 0.7, 3852, 3852
1.1, 0.7, 3852, 3852
1.2, 0.7, 3852, 3852
1.3, 0.7, 3852, 3852
1.4, 0.7, 3852, 3852
1.5, 0.7, 3852, 3852
1.6, 0.7, 3852, 3852
1.7, 0.7, 3852, 3852
1.8, 0.7, 3852, 3852
1.9, 0.7, 3852, 3852
2, 0.7, 3852, 3852
2.1, 0.7, 3852, 3852
2.2, 0.7, 3852, 3852
2.3, 0.7, 3852, 3852
2.4, 0.7, 3852, 3852
2.5, 0.7, 3852, 3852
2.6, 0.7, 3852, 3852
2.7, 0.7, 3852, 3852
2.8, 0.7, 3852, 3852
2.9, 0.7, 3852, 3852
3, 0.7, 3852, 3852
3.1, 0.7, 3852, 3852
3.2, 0.7, 3852, 3852
3.3, 0.7, 3852, 3852
3.4, 0.7, 3852, 3852
3.5, 0.7, 3852, 3852
3.6, 0.7, 3852, 3852
3.7, 0.7, 3852, 3852
3.8, 0.7, 3852, 3852
3.9, 0.7, 3852, 3852
4, 0.7, 3852, 3852
4.1, 0.7, 3852, 3852
4.2, 0.7, 3852, 3852
4.3, 0.7, 3852, 3852
4.4, 0.7, 3852, 3852
4.5, 0.7, 3852, 3852
4.6, 0.7, 3852, 3852
4.7, 0.7, 3852, 3852
4.8, 0.7, 3852, 3852
4.9, 0.7, 3852, 3852
5, 0.7, 3852, 3852
5.1, 0.7, 3852, 3852
5.2, 0.7, 3852, 3852
5.3, 0.7, 3852, 3852
5.4, 0.7, 3852, 3852
5.5, 0.7, 3852, 3852
5.6, 0.7, 3852, 3852
5.7, 0.7, 3852, 3852
5.8, 0.7, 3852, 3852
5.9, 0.7, 3852, 3852
6, 0.7, 3852, 3852
6.1, 0.7, 3852, 3852
6.2, 0.7, 3852, 3852
6.3, 0.7, 3852, 3852
6.4, 0.7, 3852, 3852
6.5, 0.7, 3852, 3852
6.6, 0.7, 3852, 3852
6.7, 0.7, 3852, 3852
6.8, 0.7, 3852, 3852
6.9, 0.7, 3852, 3852
7, 0.7, 3852, 3852
7.1, 0.7, 3852, 3852
7.2, 0.7, 3852, 3852
7.3, 0.7, 3852, 3852
7.4, 0.7, 3852, 3852
7.5, 0.7, 3852, 3852
7.6, 0.7, 3852, 3852
7.7, 0.7, 3852, 3852
7.8, 0.7, 3852, 3852
7.9, 0.7, 3852, 3852
8, 0.7, 3852, 3852
8.1, 0.7, 3852, 3852
8.2, 0.7, 3852, 3852
8.3, 0.7, 3852, 3852
8.4, 0.7, 3852, 3852
8.5, 0.7, 3852, 3852
8.6, 0.7, 3852, 3852
8.7, 0.7, 3852, 3852
8.8, 0.7, 3852, 3852
8.9, 0.7, 3852, 3852
9, 0.7, 3852, 3852
9.1, 0.7, 3852, 3852
9.2, 0.7, 3852, 3852
9.3, 0.7, 3852, 3852
9.4, 0.7, 3852, 3852
9.5, 0.7, 3852, 3852
9.6, 0.7, 3852, 3852
9.7, 0.7, 3852, 3852
9.8, 0.7, 3852, 3852
9.9, 0.7, 3852, 3852
10, 0.7, 3852, 3852
-10, 0.8, 850, 3037
-9.9, 0.8, 865, 3037
-9.8, 0.8, 869, 3037
-9.7, 0.8, 891, 3037
-9.6, 0.8, 902, 3037
-9.5, 0.8, 916, 3037
-9.4, 0.8, 930, 3037
-9.3, 0.8, 945, 3037
-9.2, 0.8, 959, 3037
-9.1, 0.8, 976, 3037
-9, 0.8, 999, 3037
-8.9, 0.8, 1011, 3037
-8.8, 0.8, 1024, 3037
-8.7, 0.8, 1043, 3037
-8.6, 0.8, 1056, 3037
-8.5, 0.8, 1074, 3037
-8.4, 0.8, 1084, 3037
-8.3, 0.8, 1100, 3037
-8.2, 0.8, 1119, 3037
-8.1, 0.8, 1139, 3037
-8, 0.8, 1162, 3037
-7.9, 0.8, 1179, 3037
-7.8, 0.8, 1203, 3037
-7.7, 0.8, 1227, 3037
-7.6, 0.8, 1248, 3037
-7.5, 0.8, 1267, 3037
-7.4, 0.8, 1283, 3037
-7.3, 0.8, 1308, 3037
-7.2, 0.8, 1328, 3037
-7.1, 0.8, 1345, 3037
-7, 0.8, 1366, 3037
-6.9, 0.8, 1392, 3037
-6.8, 0.8, 1402, 3037
-6.7, 0.8, 1430, 3037
-6.6, 0.8, 1455, 3037
-6.5, 0.8, 1473, 3037
-6.4, 0.8, 1502, 3037
-6.3, 0.8, 1530, 3037
-6.2, 0.8, 1561, 3037
-6.1, 0.8, 1585, 3037
-6, 0.8, 1612, 3037
-5.9, 0.8, 1639, 3037
-5.8, 0.8, 1667, 3037
-5.7, 0.8, 1690, 3037
-5.6, 0.8, 1708, 3037
-5.5, 0.8, 1728, 3037
-5.4, 0.8, 1750, 3037
-5.3, 0.8, 1774, 3037
-5.2, 0.8, 1800, 3037
-5.1, 0.8, 1823, 3037
-5, 0.8, 1855, 3037
-4.9, 0.8, 1886, 3037
-4.8, 0.8, 1909, 3037
-4.7, 0.8, 1936, 3037
-4.6, 0.8, 1959, 3037
-4.5, 0.8, 1989, 3037
-4.4, 0.8, 2010, 3037
-4.3, 0.8, 2039, 3037
-4.2, 0.8, 2076, 3037
-4.1, 0.8, 2107, 3037
-4, 0.8, 2140, 3037
-3.9, 0.8, 2180, 3037
-3.8, 0.8, 2209, 3037
-3.7, 0.8, 2227, 3037
-3.6, 0.8, 2263, 3037
-3.5, 0.8, 2306, 3037
-3.4, 0.8, 2349, 3037
-3.3, 0.8, 2389, 3037
-3.2, 0.8, 2414, 3037
-3.1, 0.8, 2451, 3037
-3, 0.8, 2479, 3037
-2.9, 0.8, 2509, 3037
-2.8, 0.8, 2540, 3037
-2.7, 0.8, 2553, 3037
-2.6, 0.8, 2579, 3037
-2.5, 0.8, 2597, 3037
-2.4, 0.8, 2616, 3037
-2.3, 0.8, 2643, 3037
-2.2, 0.8, 2660, 3037
-2.1, 0.8, 2683, 3037
-2, 0.8, 2696, 3037
-1.9, 0.8, 2718, 3037
-1.8, 0.8, 2734, 3037
-1.7, 0.8, 2756, 3037
-1.6, 0.8, 2770, 3037
-1.5, 0.8, 2803, 3037
-1.4, 0.8, 2830, 3037
-1.3, 0.8, 2860, 3037
-1.2, 0.8, 2891, 3037
-1.1, 0.8, 2915, 3037
-1, 0.8, 2940, 3037
-0.9, 0.8, 2961, 3037
-0.8, 0.8, 2984, 3037
-0.7, 0.8, 2998, 3037
-0.6, 0.8, 3009, 3037
-0.5, 0.8, 3018, 3037
-0.4, 0.8, 3027, 3037
-0.3, 0.8, 3029, 3037
-0.2, 0.8, 3032, 3037
-0.1, 0.8, 3033, 3037
-1.87905e-14, 0.8, 3035, 3037
0.1, 0.8, 3037, 3037
0.2, 0.8, 3037, 3037
0.3, 0.8, 3037, 3037
0.4, 0.8, 3037, 3037
0.5, 0.8, 3037, 3037
0.6, 0.8, 3037, 3037
0.7, 0.8, 3037, 3037
0.8, 0.8, 3037, 3037
0.9, 0.8, 3037, 3037
1, 0.8, 3037, 3037
1.1, 0.8, 3037, 3037
1.2, 0.8, 3037, 3037
1.3, 0.8, 3037, 3037
1.4, 0.8, 3037, 3037
1.5, 0.8, 3037, 3037
1.6, 0.8, 3037, 3037
1.7, 0.8, 3037, 3037
1.8, 0.8, 3037, 3037
1.9, 0.8, 3037, 3037
2, 0.8, 3037, 3037
2.1, 0.8, 3037, 3037
2.2, 0.8, 3037, 3037
2.3, 0.8, 3037, 3037
2.4, 0.8, 3037, 3037
2.5, 0.8, 3037, 3037
2.6, 0.8, 3037, 3037
2.7, 0.8, 3037, 3037
2.8, 0.8, 3037, 3037
2.9, 0.8, 3037, 3037
3, 0.8, 3037, 3037
3.1, 0.8, 3037, 3037
3.2, 0.8, 3037, 3037
3.3, 0.8, 3037, 3037
3.4, 0.8, 3037, 3037
3.5, 0.8, 3037, 3037
3.6, 0.8, 3037, 3037
3.7, 0.8, 3037, 3037
3.8, 0.8, 3037, 3037
3.9, 0.8, 3037, 3037
4, 0.8, 3037, 3037
4.1, 0.8, 3037, 3037
4.2, 0.8, 3037, 3037
4.3, 0.8, 3037, 3037
4.4, 0.8, 3037, 3037
4.5, 0.8, 3037, 3037
4.6, 0.8, 3037, 3037
4.7, 0.8, 3037, 3037
4.8, 0.8, 3037, 3037
4.9, 0.8, 3037, 3037
5, 0.8, 3037, 3037
5.1, 0.8, 3037, 3037
5.2, 0.8, 3037, 3037
5.3, 0.8, 3037, 3037
5.4, 0.8, 3037, 3037
5.5, 0.8, 3037, 3037
5.6, 0.8, 3037, 3037
5.7, 0.8, 3037, 3037
5.8, 0.8, 3037, 3037
5.9, 0.8, 3037, 3037
6, 0.8, 3037, 3037
6.1, 0.8, 3037, 3037
6.2, 0.8, 3037, 3037
6.3, 0.8, 3037, 3037
6.4, 0.8, 3037, 3037
6.5, 0.8, 3037, 3037
6.6, 0.8, 3037, 3037
6.7, 0.8, 3037, 3037
6.8, 0.8, 3037, 3037
6.9, 0.8, 3037, 3037
7, 0.8, 3037, 3037
7.1, 0.8, 3037, 3037
7.2, 0.8, 3037, 3037
7.3, 0.8, 3037, 3037
7.4, 0.8, 3037, 3037
7.5, 0.8, 3037, 3037
7.6, 0.8, 3037, 3037
7.7, 0.8, 3037, 3037
7.8, 0.8, 3037, 3037
7.9, 0.8, 3037, 3037
8, 0.8, 3037, 3037
8.1, 0.8, 3037, 3037
8.2, 0.8, 3037, 3037
8.3, 0.8, 3037, 3037
8.4, 0.8, 3037, 3037
8.5, 0.8, 3037, 3037
8.6, 0.8, 3037, 3037
8.7, 0.8, 3037, 3037
8.8, 0.8, 3037, 3037
8.9, 0.8, 3037, 3037
9, 0.8, 3037, 3037
9.1, 0.8, 3037, 3037
9.2, 0.8, 3037, 3037
9.3, 0.8, 3037, 3037
9.4, 0.8, 3037, 3037
9.5, 0.8, 3037, 3037
9.6, 0.8, 3037, 3037
9.7, 0.8, 3037, 3037
9.8, 0.8, 3037, 3037
9.9, 0.8, 3037, 3037
10, 0.8, 3037, 3037
-10, 0.9, 700, 2465
-9.9, 0.9, 709, 2465
-9.8, 0.9, 713, 2465
-9.7, 0.9, 732, 2465
-9.6, 0.9, 741, 2465
-9.5, 0.9, 752, 2465
-9.4, 0.9, 760, 2465
-9.3, 0.9, 771, 2465
-9.2, 0.9, 784, 2465
-9.1, 0.9, 798, 2465
-9, 0.9, 817, 2465
-8.9, 0.9, 826, 2465
-8.8, 0.9, 836, 2465
-8.7, 0.9, 849, 2465
-8.6, 0.9, 860, 2465
-8.5, 0.9, 872, 2465
-8.4, 0.9, 879, 2465
-8.3, 0.9, 892, 2465
-8.2, 0.9, 907, 2465
-8.1, 0.9, 923, 2465
-8, 0.9, 942, 2465
-7.9, 0.9, 958, 2465
-7.8, 0.9, 978, 2465
-7.7, 0.9, 999, 2465
-7.6, 0.9, 1012, 2465
-7.5, 0.9, 1030, 2465
-7.4, 0.9, 1041, 2465
-7.3, 0.9, 1061, 2465
-7.2, 0.9, 1077, 2465
-7.1, 0.9, 1088, 2465
-7, 0.9, 1106, 2465
-6.9, 0.9, 1126, 2465
-6.8, 0.9, 1136, 2465
-6.7, 0.9, 1162, 2465
-6.6, 0.9, 1183, 2465
-6.5, 0.9, 1199, 2465
-6.4, 0.9, 1222, 2465
-6.3, 0.9, 1246, 2465
-6.2, 0.9, 1272, 2465
-6.1, 0.9, 1294, 2465
-6, 0.9, 1317, 2465
-5.9, 0.9, 1341, 2465
-5.8, 0.9, 1362, 2465
-5.7, 0.9, 1379, 2465
-5.6, 0.9, 1392, 2465
-5.5, 0.9, 1409, 2465
-5.4, 0.9, 1427, 2465
-5.3, 0.9, 1443, 2465
-5.2, 0.9, 1463, 2465
-5.1, 0.9, 1481, 2465
-5, 0.9, 1506, 2465
-4.9, 0.9, 1533, 2465
-4.8, 0.9, 1551, 2465
-4.7, 0.9, 1573, 2465
-4.6, 0.9, 1592, 2465
-4.5, 0.9, 1619, 2465
-4.4, 0.9, 1637, 2465
-4.3, 0.9, 1662, 2465
-4.2, 0.9, 1686, 2465
-4.1, 0.9, 1712, 2465
-4, 0.9, 1738, 2465
-3.9, 0.9, 1773, 2465
-3.8, 0.9, 1799, 2465
-3.7, 0.9, 1815, 2465
-3.6, 0.9, 1846, 2465
-3.5, 0.9, 1878, 2465
-3.4, 0.9, 1914, 2465
-3.3, 0.9, 1948, 2465
-3.2, 0.9, 1966, 2465
-3.1, 0.9, 2000, 2465
-3, 0.9, 2022, 2465
-2.9, 0.9, 2044, 2465
-2.8, 0.9, 2070, 2465
-2.7, 0.9, 2081, 2465
-2.6, 0.9, 2101, 2465
-2.5, 0.9, 2113, 2465
-2.4, 0.9, 2129, 2465
-2.3, 0.9, 2153, 2465
-2.2, 0.9, 2167, 2465
-2.1, 0.9, 2186, 2465
-2, 0.9, 2198, 2465
-1.9, 0.9, 2214, 2465
-1.8, 0.9, 2228, 2465
-1.7, 0.9, 2246, 2465
-1.6, 0.9, 2259, 2465
-1.5, 0.9, 2284, 2465
-1.4, 0.9, 2305, 2465
-1.3, 0.9, 2329, 2465
-1.2, 0.9, 2350, 2465
-1.1, 0.9, 2366, 2465
-1, 0.9, 2388, 2465
-0.9, 0.9, 2407, 2465
-0.8, 0.9, 2423, 2465
-0.7, 0.9, 2431, 2465
-0.6, 0.9, 2439, 2465
-0.5, 0.9, 2447, 2465
-0.4, 0.9, 2456, 2465
-0.3, 0.9, 2458, 2465
-0.2, 0.9, 2461, 2465
-0.1, 0.9, 2462, 2465
-1.87905e-14, 0.9, 2464, 2465
0.1, 0.9, 2465, 2465
0.2, 0.9, 2465, 2465
0.3, 0.9, 2465, 2465
0.4, 0.9, 2465, 2465
0.5, 0.9, 2465, 2465
0.6, 0.9, 2465, 2465
0.7, 0.9, 2465, 2465
0.8, 0.9, 2465, 2465
0.9, 0.9, 2465, 2465
1, 0.9, 2465, 2465
1.1, 0.9, 2465, 2465
1.2, 0.9, 2465, 2465
1.3, 0.9, 2465, 2465
1.4, 0.9, 2465, 2465
1.5, 0.9, 2465, 2465
1.6, 0.9, 2465, 2465
1.7, 0.9, 2465, 2465
1.8, 0.9, 2465, 2465
1.9, 0.9, 2465, 2465
2, 0.9, 2465, 2465
2.1, 0.9, 2465, 2465
2.2, 0.9, 2465, 2465
2.3, 0.9, 2465, 2465
2.4, 0.9, 2465, 2465
2.5, 0.9, 2465, 2465
2.6, 0.9, 2465, 2465
2.7, 0.9, 2465, 2465
2.8, 0.9, 2465, 2465
2.9, 0.9, 2465, 2465
3, 0.9, 2465, 2465
3.1, 0.9, 2465, 2465
3.2, 0.9, 2465, 2465
3.3, 0.9, 2465, 2465
3.4, 0.9, 2465, 2465
3.5, 0.9, 2465, 2465
3.6, 0.9, 2465, 2465
3.7, 0.9, 2465, 2465
3.8, 0.9, 2465, 2465
3.9, 0.9, 2465, 2465
4, 0.9, 2465, 2465
4.1, 0.9, 2465, 2465
4.2, 0.9, 2465, 2465
4.3, 0.9, 2465, 2465
4.4, 0.9, 2465, 2465
4.5, 0.9, 2465, 2465
4.6, 0.9, 2465, 2465
4.7, 0.9, 2465, 2465
4.8, 0.9, 2465, 2465
4.9, 0.9, 2465, 2465
5, 0.9, 2465, 2465
5.1, 0.9, 2465, 2465
5.2, 0.9, 2465, 2465
5.3, 0.9, 2465, 2465
5.4, 0.9, 2465, 2465
5.5, 0.9, 2465, 2465
5.6, 0.9, 2465, 2465
5.7, 0.9, 2465, 2465
5.8, 0.9, 2465, 2465
5.9, 0.9, 2465, 2465
6, 0.9, 2465, 2465
6.1, 0.9, 2465, 2465
6.2, 0.9, 2465, 2465
6.3, 0.9, 2465, 2465
6.4, 0.9, 2465, 2465
6.5, 0.9, 2465, 2465
6.6, 0.9, 2465, 2465
6.7, 0.9, 2465, 2465
6.8, 0.9, 2465, 2465
6.9, 0.9, 2465, 2465
7, 0.9, 2465, 2465
7.1, 0.9, 2465, 2465
7.2, 0.9, 2465, 2465
7.3, 0.9, 2465, 2465
7.4, 0.9, 2465, 2465
7.5, 0.9, 2465, 2465
7.6, 0.9, 2465, 2465
7.7, 0.9, 2465, 2465
7.8, 0.9, 2465, 2465
7.9, 0.9, 2465, 2465
8, 0.9, 2465, 2465
8.1, 0.9, 2465, 2465
8.2, 0.9, 2465, 2465
8.3, 0.9, 2465, 2465
8.4, 0.9, 2465, 2465
8.5, 0.9, 2465, 2465
8.6, 0.9, 2465, 2465
8.7, 0.9, 2465, 2465
8.8, 0.9, 2465, 2465
8.9, 0.9, 2465, 2465
9, 0.9, 2465, 2465
9.1, 0.9, 2465, 2465
9.2, 0.9, 2465, 2465
9.3, 0.9, 2465, 2465
9.4, 0.9, 2465, 2465
9.5, 0.9, 2465, 2465
9.6, 0.9, 2465, 2465
9.7, 0.9, 2465, 2465
9.8, 0.9, 2465, 2465
9.9, 0.9, 2465, 2465
10, 0.9, 2465, 2465
-10, 1, 565, 2019
-9.9, 1, 569, 2019
-9.8, 1, 572, 2019
-9.7, 1, 589, 2019
-9.6, 1, 595, 2019
-9.5, 1, 605, 2019
-9.4, 1, 611, 2019
-9.3, 1, 620, 2019
-9.2, 1, 631, 2019
-9.1, 1, 643, 2019
-9, 1, 661, 2019
-8.9, 1, 668, 2019
-8.8, 1, 676, 2019
-8.7, 1, 688, 2019
-8.6, 1, 699, 2019
-8.5, 1, 708, 2019
-8.4, 1, 713, 2019
-8.3, 1, 726, 2019
-8.2, 1, 738, 2019
-8.1, 1, 752, 2019
-8, 1, 770, 2019
-7.9, 1, 783, 2019
-7.8, 1, 801, 2019
-7.7, 1, 820, 2019
-7.6, 1, 832, 2019
-7.5, 1, 848, 2019
-7.4, 1, 857, 2019
-7.3, 1, 871, 2019
-7.2, 1, 883, 2019
-7.1, 1, 892, 2019
-7, 1, 908, 2019
-6.9, 1, 923, 2019
-6.8, 1, 931, 2019
-6.7, 1, 955, 2019
-6.6, 1, 974, 2019
-6.5, 1, 986, 2019
-6.4, 1, 1007, 2019
-6.3, 1, 1024, 2019
-6.2, 1, 1037, 2019
-6.1, 1, 1057, 2019
-6, 1, 1076, 2019
-5.9, 1, 1094, 2019
-5.8, 1, 1111, 2019
-5.7, 1, 1126, 2019
-5.6, 1, 1136, 2019
-5.5, 1, 1148, 2019
-5.4, 1, 1165, 2019
-5.3, 1, 1180, 2019
-5.2, 1, 1199, 2019
-5.1, 1, 1215, 2019
-5, 1, 1236, 2019
-4.9, 1, 1259, 2019
-4.8, 1, 1274, 2019
-4.7, 1, 1293, 2019
-4.6, 1, 1305, 2019
-4.5, 1, 1324, 2019
-4.4, 1, 1342, 2019
-4.3, 1, 1358, 2019
-4.2, 1, 1376, 2019
-4.1, 1, 1399, 2019
-4, 1, 1422, 2019
-3.9, 1, 1449, 2019
-3.8, 1, 1471, 2019
-3.7, 1, 1480, 2019
-3.6, 1, 1503, 2019
-3.5, 1, 1531, 2019
-3.4, 1, 1562, 2019
-3.3, 1, 1589, 2019
-3.2, 1, 1607, 2019
-3.1, 1, 1634, 2019
-3, 1, 1653, 2019
-2.9, 1, 1673, 2019
-2.8, 1, 1697, 2019
-2.7, 1, 1706, 2019
-2.6, 1, 1722, 2019
-2.5, 1, 1732, 2019
-2.4, 1, 1747, 2019
-2.3, 1, 1766, 2019
-2.2, 1, 1778, 2019
-2.1, 1, 1796, 2019
-2, 1, 1804, 2019
-1.9, 1, 1816, 2019
-1.8, 1, 1827, 2019
-1.7, 1, 1841, 2019
-1.6, 1, 1852, 2019
-1.5, 1, 1872, 2019
-1.4, 1, 1888, 2019
-1.3, 1, 1908, 2019
-1.2, 1, 1923, 2019
-1.1, 1, 1935, 2019
-1, 1, 1955, 2019
-0.9, 1, 1969, 2019
-0.8, 1, 1982, 2019
-0.7, 1, 1989, 2019
-0.6, 1, 1996, 2019
-0.5, 1, 2002, 2019
-0.4, 1, 2011, 2019
-0.3, 1, 2013, 2019
-0.2, 1, 2016, 2019
-0.1, 1, 2016, 2019
-1.87905e-14, 1, 2018, 2019
0.1, 1, 2019, 2019
0.2, 1, 2019, 2019
0.3, 1, 2019, 2019
0.4, 1, 2019, 2019
0.5, 1, 2019, 2019
0.6, 1, 2019, 2019
0.7, 1, 2019, 2019
0.8, 1, 2019, 2019
0.9, 1, 2019, 2019
1, 1, 2019, 2019
1.1, 1, 2019, 2019
1.2, 1, 2019, 2019
1.3, 1, 2019, 2019
1.4, 1, 2019, 2019
1.5, 1, 2019, 2019
1.6, 1, 2019, 2019
1.7, 1, 2019, 2019
1.8, 1, 2019, 2019
1.9, 1, 2019, 2019
2, 1, 2019, 2019
2.1, 1, 2019, 2019
2.2, 1, 2019, 2019
2.3, 1, 2019, 2019
2.4, 1, 2019, 2019
2.5, 1, 2019, 2019
2.6, 1, 2019, 2019
2.7, 1, 2019, 2019
2.8, 1, 2019, 2019
2.9, 1, 2019, 2019
3, 1, 2019, 2019
3.1, 1, 2019, 2019
3.2, 1, 2019, 2019
3.3, 1, 2019, 2019
3.4, 1, 2019, 2019
3.5, 1, 2019, 2019
3.6, 1, 2019, 2019
3.7, 1, 2019, 2019
3.8, 1, 2019, 2019
3.9, 1, 2019, 2019
4, 1, 2019, 2019
4.1, 1, 2019, 2019
4.2, 1, 2019, 2019
4.3, 1, 2019, 2019
4.4, 1, 2019, 2019
4.5, 1, 2019, 2019
4.6, 1, 2019, 2019
4.7, 1, 2019, 2019
4.8, 1, 2019, 2019
4.9, 1, 2019, 2019
5, 1, 2019, 2019
5.1, 1, 2019, 2019
5.2, 1, 2019, 2019
5.3, 1, 2019, 2019
5.4, 1, 2019, 2019
5.5, 1, 2019, 2019
5.6, 1, 2019, 2019
5.7, 1, 2019, 2019
5.8, 1, 2019, 2019
5.9, 1, 2019, 2019
6, 1, 2019, 2019
6.1, 1, 2019, 2019
6.2, 1, 2019, 2019
6.3, 1, 2019, 2019
6.4, 1, 2019, 2019
6.5, 1, 2019, 2019
6.6, 1, 2019, 2019
6.7, 1, 2019, 2019
6.8, 1, 2019, 2019
6.9, 1, 2019, 2019
7, 1, 2019, 2019
7.1, 1, 2019, 2019
7.2, 1, 2019, 2019
7.3, 1, 2019, 2019
7.4, 1, 2019, 2019
7.5, 1, 2019, 2019
7.6, 1, 2019, 2019
7.7, 1, 2019, 2019
7.8, 1, 2019, 2019
7.9, 1, 2019, 2019
8, 1, 2019, 2019
8.1, 1, 2019, 2019
8.2, 1, 2019, 2019
8.3, 1, 2019, 2019
8.4, 1, 2019, 2019
8.5, 1, 2019, 2019
8.6, 1, 2019, 2019
8.7, 1, 2019, 2019
8.8, 1, 2019, 2019
8.9, 1, 2019, 2019
9, 1, 2019, 2019
9.1, 1, 2019, 2019
9.2, 1, 2019, 2019
9.3, 1, 2019, 2019
9.4, 1, 2019, 2019
9.5, 1, 2019, 2019
9.6, 1, 2019, 2019
9.7, 1, 2019, 2019
9.8, 1, 2019, 2019
9.9, 1, 2019, 2019
10, 1, 2019, 2019
