-25, 0.0874951, 0.0883003, 0.0125524, 0
-24, 0.102029, 0.102731, 0.023577, 0
-23, 0.118979, 0.119578, 0.0352417, 0
-22, 0.135929, 0.13659, 0.0483515, 0
-21, 0.155026, 0.15579, 0.0628032, 0
-20, 0.176167, 0.177117, 0.0788653, 0
-19, 0.198712, 0.199703, 0.0980655, 0
-18, 0.225468, 0.226748, 0.119289, 0
-17, 0.253835, 0.255404, 0.143444, 0
-16, 0.288333, 0.289964, 0.172657, 0
-15, 0.325536, 0.327147, 0.207527, 0
-14, 0.368561, 0.370213, 0.24985, 0
-13, 0.413568, 0.415261, 0.297128, 0
-12, 0.46064, 0.462291, 0.350517, 0
-11, 0.510374, 0.512666, 0.405351, 0
-10, 0.559469, 0.562008, 0.460846, 0
-9, 0.60941, 0.612362, 0.517394, 0
-8, 0.65898, 0.662448, 0.57615, 0
-7, 0.709767, 0.71336, 0.636084, 0
-6, 0.757252, 0.761009, 0.697855, 0
-5, 0.805975, 0.810207, 0.758119, 0
-4, 0.851271, 0.855978, 0.817247, 0
-3, 0.890497, 0.895617, 0.877201, 0
-2, 0.922807, 0.928133, 0.920825, 0
-1, 0.944691, 0.950038, 0.979396, 0
0, 0.955096, 0.961063, 0.999959, 1
1, 0.957264, 0.963582, 1, 1
2, 0.954312, 0.962343, 1, 1
3, 0.951236, 0.959432, 1, 1
4, 0.947313, 0.956769, 1, 1
5, 0.943617, 0.952867, 1, 1
6, 0.939943, 0.948634, 1, 1
7, 0.935793, 0.94529, 1, 1
8, 0.931189, 0.941264, 1, 1
9, 0.92545, 0.937445, 1, 1
10, 0.919834, 0.933336, 1, 1
11, 0.911762, 0.928835, 1, 1
12, 0.903008, 0.923839, 1, 1
13, 0.892107, 0.917604, 1, 1
14, 0.878192, 0.908975, 1, 1
15, 0.860293, 0.897929, 0.999959, 1
16, 0.841444, 0.885872, 0.999752, 1
17, 0.817908, 0.871111, 0.998493, 1
18, 0.789933, 0.852468, 0.994199, 1
19, 0.753246, 0.833846, 0.980139, 1
20, 0.699424, 0.811838, 0.944257, 1
21, 0.618721, 0.782769, 0.867312, 1
22, 0.495344, 0.747466, 0.716353, 1
23, 0.317939, 0.712843, 0.463716, 1
24, 0.146004, 0.658175, 0.136012, 1
25, 0.0426946, 0.209612, 0.000619361, 0
26, 0.00734975, 0, 0, 0
27, 0.000495489, 0, 0, 0
28, 2.06454e-05, 0, 0, 0
29, 0, 0, 0, 0
30, 0, 0, 0, 0
31, 0, 0, 0, 0
32, 0, 0, 0, 0
33, 0, 0, 0, 0
34, 0, 0, 0, 0
