-50, 0.00887751, 0.0091459, 0, 0
-49.75, 0.00926977, 0.00947623, 0, 0
-49.5, 0.0091459, 0.00945558, 0, 0
-49.25, 0.00945558, 0.00974462, 0, 0
-49, 0.00964139, 0.0100337, 0, 0
-48.75, 0.00990978, 0.0102195, 0, 0
-48.5, 0.00972397, 0.0101575, 0, 0
-48.25, 0.00995107, 0.010302, 0, 0
-48, 0.0103227, 0.0106943, 0, 0
-47.75, 0.0104259, 0.0107975, 0, 0
-47.5, 0.0105911, 0.011004, 0, 0
-47.25, 0.0106943, 0.0110453, 0, 0
-47, 0.0108595, 0.0110866, 0, 0
-46.75, 0.0112104, 0.0114995, 0, 0
-46.5, 0.011293, 0.0115614, 0, 0
-46.25, 0.0117885, 0.0120569, 0, 0
-46, 0.0117059, 0.011995, 0, 0
-45.75, 0.0122427, 0.0124492, 0, 0
-45.5, 0.0124698, 0.0126763, 0, 0
-45.25, 0.0129034, 0.0130685, 0, 0
-45, 0.0129446, 0.0130685, 0, 0
-44.75, 0.0132956, 0.0133988, 0, 0
-44.5, 0.0135847, 0.0136466, 0, 0
-44.25, 0.013853, 0.0139563, 0, 0
-44, 0.0145756, 0.0145343, 0, 0
-43.75, 0.0144724, 0.0145343, 0, 0
-43.5, 0.0148234, 0.0148647, 0, 0
-43.25, 0.0152569, 0.0152982, 0, 0
-43, 0.0156079, 0.0156698, 0, 0
-42.75, 0.0159176, 0.0160415, 0, 0
-42.5, 0.016124, 0.0162273, 0, 0
-42.25, 0.0164544, 0.0166402, 0, 0
-42, 0.0168673, 0.017115, 0, 0
-41.75, 0.0171563, 0.0173834, 0, 0
-41.5, 0.0174866, 0.0177344, 0, 0
-41.25, 0.0179408, 0.0182092, 0, 0
-41, 0.0183331, 0.0187254, 0, 0
-40.75, 0.0185395, 0.019035, 0, 0
-40.5, 0.0192828, 0.0197783, 0, 0
-40.25, 0.0192828, 0.0197576, 0, 0
-40, 0.0197989, 0.0204183, 0, 0
-39.75, 0.0200467, 0.0206041, 0, 0
-39.5, 0.0205628, 0.0209551, 0, 0
-39.25, 0.0210789, 0.0214299, 0, 0
-39, 0.0214299, 0.0216983, 0, 0
-38.75, 0.0219667, 0.0222351, 0, 0
-38.5, 0.0221525, 0.0224415, 0, 0
-38.25, 0.0229577, 0.023288, 0, 0
-38, 0.0229577, 0.0230609, 0, 0
-37.75, 0.0237422, 0.0238867, 0, 0
-37.5, 0.0240725, 0.024217, 0, 0
-37.25, 0.024857, 0.0249809, 0, 0
-37, 0.0251874, 0.0253319, 0, 0
-36.75, 0.0259719, 0.0260958, 0, 0
-36.5, 0.0263229, 0.02655, 0, 0
-36.25, 0.0269009, 0.0271074, 0, 0
-36, 0.0275822, 0.0277887, 0, 0
-35.75, 0.0279745, 0.0281603, 0, 0
-35.5, 0.028408, 0.02847, 0, 0
-35.25, 0.0291926, 0.0292751, 0, 0
-35, 0.0300597, 0.0301629, 0, 0
-34.75, 0.0304519, 0.0305758, 0, 0
-34.5, 0.0309474, 0.0311126, 0, 0
-34.25, 0.0315874, 0.0317319, 0, 0
-34, 0.0321861, 0.0323719, 0, 0
-33.75, 0.0328261, 0.0329707, 0, 0
-33.5, 0.0338378, 0.0340649, 0, 0
-33.25, 0.0343952, 0.0346842, 0, 0
-33, 0.0352623, 0.035572, 0, 0
-32.75, 0.036212, 0.0366249, 0, 0
-32.5, 0.037203, 0.037492, 0, 0
-32.25, 0.0374507, 0.0379256, 0, 0
-32, 0.038483, 0.0389372, 0, 0
-31.75, 0.0392262, 0.0396804, 0, 0
-31.5, 0.0401759, 0.0406095, 0, 0
-31.25, 0.0412082, 0.0415385, 0, 0
-31, 0.042034, 0.0424675, 0, 0
-30.75, 0.0429217, 0.0433759, 0, 0
-30.5, 0.0443256, 0.0447592, 0, 0
-30.25, 0.0454405, 0.0459153, 0, 0
-30, 0.0463695, 0.0468856, 0, 0
-29.75, 0.0474224, 0.0479592, 0, 0
-29.5, 0.0490328, 0.0495902, 0, 0
-29.25, 0.0502302, 0.0508496, 0, 0
-29, 0.0514276, 0.052047, 0, 0
-28.75, 0.0529967, 0.0536367, 0, 0
-28.5, 0.0540702, 0.0547102, 0, 0
-28.25, 0.0549786, 0.0557012, 0, 0
-28, 0.0567541, 0.0573735, 0, 0
-27.75, 0.0585709, 0.0591696, 0, 0
-27.5, 0.0599955, 0.0606148, 0, 0
-27.25, 0.0625142, 0.0631748, 0, 0
-27, 0.0644342, 0.0650536, 0, 0
-26.75, 0.0664368, 0.0670562, 0, 0
-26.5, 0.0686046, 0.0692239, 0, 0
-26.25, 0.0715982, 0.0721556, 0, 0
-26, 0.0738279, 0.0744885, 0.00158969, 0
-25.75, 0.0768627, 0.0776266, 0.00419101, 0
-25.5, 0.0799595, 0.0807441, 0.00662717, 0
-25.25, 0.0836344, 0.0844396, 0.00910461, 0
-25, 0.0871235, 0.0879286, 0.0125524, 0
-24.75, 0.0904887, 0.0913764, 0.0154014, 0
-24.5, 0.0942048, 0.0950513, 0.0187254, 0
-24.25, 0.0980242, 0.0988294, 0.0207486, 0
-24, 0.102195, 0.102979, 0.023577, 0
-23.75, 0.106406, 0.107088, 0.0269629, 0
-23.5, 0.11037, 0.110969, 0.0300803, 0
-23.25, 0.113673, 0.114272, 0.0323307, 0
-23, 0.118319, 0.118793, 0.0352417, 0
-22.75, 0.122757, 0.123335, 0.0386275, 0
-22.5, 0.127052, 0.127609, 0.0427979, 0
-22.25, 0.131387, 0.132027, 0.0458947, 0
-22, 0.136198, 0.136961, 0.0483515, 0
-21.75, 0.140017, 0.140698, 0.0522534, 0
-21.5, 0.144889, 0.145674, 0.0553502, 0
-21.25, 0.150402, 0.151103, 0.0590664, 0
-21, 0.155191, 0.156079, 0.0628032, 0
-20.75, 0.159382, 0.160311, 0.0666639, 0
-20.5, 0.166216, 0.166959, 0.0700704, 0
-20.25, 0.170407, 0.171295, 0.0750046, 0
-20, 0.175795, 0.176704, 0.0788653, 0
-19.75, 0.180957, 0.181906, 0.0839234, 0
-19.5, 0.187357, 0.18843, 0.0883003, 0
-19.25, 0.194314, 0.195202, 0.0924706, 0
-19, 0.199331, 0.200405, 0.0980655, 0
-18.75, 0.206206, 0.207218, 0.103784, 0
-18.5, 0.211161, 0.212276, 0.108512, 0
-18.25, 0.21818, 0.219398, 0.114024, 0
-18, 0.225695, 0.226872, 0.119289, 0
-17.75, 0.233644, 0.235027, 0.125276, 0
-17.5, 0.239858, 0.2412, 0.130437, 0
-17.25, 0.246939, 0.248261, 0.136631, 0
-17, 0.255301, 0.256808, 0.143444, 0
-16.75, 0.262485, 0.26391, 0.150051, 0
-16.5, 0.271198, 0.272684, 0.157359, 0
-16.25, 0.279518, 0.281025, 0.164606, 0
-16, 0.287136, 0.288932, 0.172657, 0
-15.75, 0.297397, 0.29911, 0.180792, 0
-15.5, 0.306522, 0.308256, 0.189236, 0
-15.25, 0.316494, 0.318145, 0.197721, 0
-15, 0.325598, 0.327209, 0.207527, 0
-14.75, 0.336767, 0.33846, 0.217416, 0
-14.5, 0.346966, 0.348535, 0.227677, 0
-14.25, 0.358528, 0.360138, 0.23895, 0
-14, 0.367508, 0.369139, 0.24985, 0
-13.75, 0.380556, 0.382187, 0.26201, 0
-13.5, 0.391374, 0.392985, 0.273696, 0
-13.25, 0.402358, 0.403927, 0.285422, 0
-13, 0.41458, 0.416293, 0.297128, 0
-12.75, 0.427401, 0.429217, 0.309557, 0
-12.5, 0.43698, 0.438694, 0.32341, 0
-12.25, 0.448686, 0.450503, 0.336643, 0
-12, 0.461961, 0.46386, 0.350517, 0
-11.75, 0.474121, 0.475897, 0.364122, 0
-11.5, 0.4856, 0.487706, 0.378017, 0
-11.25, 0.499143, 0.501311, 0.39123, 0
-11, 0.509445, 0.511716, 0.405351, 0
-10.75, 0.522122, 0.524578, 0.419019, 0
-10.5, 0.535644, 0.53808, 0.433119, 0
-10.25, 0.546524, 0.548919, 0.446498, 0
-10, 0.560584, 0.563123, 0.460846, 0
-9.75, 0.571567, 0.574189, 0.474967, 0
-9.5, 0.585049, 0.587918, 0.488759, 0
-9.25, 0.596011, 0.599046, 0.503644, 0
-9, 0.610401, 0.613457, 0.517394, 0
-8.75, 0.62252, 0.625431, 0.531928, 0
-8.5, 0.635114, 0.638438, 0.545781, 0
-8.25, 0.647811, 0.651176, 0.561038, 0
-8, 0.659351, 0.662861, 0.57615, 0
-7.75, 0.670686, 0.674278, 0.591366, 0
-7.5, 0.685034, 0.688523, 0.60588, 0
-7.25, 0.697153, 0.700869, 0.6206, 0
-7, 0.708611, 0.712286, 0.636084, 0
-6.75, 0.721019, 0.724715, 0.650618, 0
-6.5, 0.733468, 0.737391, 0.666412, 0
-6.25, 0.747507, 0.751079, 0.681524, 0
-6, 0.758903, 0.762578, 0.697855, 0
-5.75, 0.769371, 0.773149, 0.713339, 0
-5.5, 0.783182, 0.787043, 0.727688, 0
-5.25, 0.794042, 0.798006, 0.743295, 0
-5, 0.805376, 0.809753, 0.758119, 0
-4.75, 0.816297, 0.820592, 0.77288, 0
-4.5, 0.829139, 0.833702, 0.787373, 0
-4.25, 0.839296, 0.84388, 0.80263, 0
-4, 0.850238, 0.854636, 0.817247, 0
-3.75, 0.861263, 0.866012, 0.832421, 0
-3.5, 0.871668, 0.876458, 0.847493, 0
-3.25, 0.881165, 0.885934, 0.862357, 0
-3, 0.891054, 0.896154, 0.877201, 0
-2.75, 0.900097, 0.905403, 0.890352, 0
-2.5, 0.907344, 0.91236, 0.902719, 0
-2.25, 0.915044, 0.919875, 0.911803, 0
-2, 0.9226, 0.927886, 0.920825, 0
-1.75, 0.929104, 0.934141, 0.929434, 0
-1.5, 0.934967, 0.940273, 0.941491, 0
-1.25, 0.939592, 0.944402, 0.960216, 0
-1, 0.944608, 0.949811, 0.979396, 0
-0.75, 0.948201, 0.953218, 0.991577, 0
-0.5, 0.95138, 0.956872, 0.997337, 0
-0.25, 0.953259, 0.959163, 0.999566, 0
0, 0.955034, 0.961022, 0.999959, 1
0.25, 0.956087, 0.962384, 0.999979, 1
0.5, 0.956067, 0.962921, 1, 1
0.75, 0.95712, 0.963478, 1, 1
1, 0.956645, 0.96352, 1, 1
1.25, 0.956087, 0.963375, 1, 1
1.5, 0.955674, 0.963127, 1, 1
1.75, 0.955447, 0.9629, 1, 1
2, 0.954436, 0.962363, 1, 1
2.25, 0.953424, 0.961868, 1, 1
2.5, 0.952929, 0.961207, 1, 1
2.75, 0.95171, 0.960031, 1, 1
3, 0.951256, 0.959452, 1, 1
3.25, 0.949935, 0.958978, 1, 1
3.5, 0.949233, 0.958441, 1, 1
3.75, 0.948449, 0.95745, 1, 1
4, 0.947581, 0.956769, 1, 1
4.25, 0.946487, 0.955736, 1, 1
4.5, 0.945331, 0.954869, 1, 1
4.75, 0.944712, 0.953899, 1, 1
5, 0.943328, 0.952867, 1, 1
5.25, 0.942792, 0.951772, 1, 1
5.5, 0.941863, 0.950823, 1, 1
5.75, 0.941037, 0.949439, 1, 1
6, 0.939695, 0.948634, 1, 1
6.25, 0.938725, 0.947788, 1, 1
6.5, 0.937816, 0.946941, 1, 1
6.75, 0.936247, 0.946239, 1, 1
7, 0.935607, 0.94529, 1, 1
7.25, 0.934575, 0.94434, 1, 1
7.5, 0.933377, 0.94339, 1, 1
7.75, 0.932469, 0.942193, 1, 1
8, 0.931106, 0.941264, 1, 1
8.25, 0.929661, 0.940273, 1, 1
8.5, 0.928877, 0.939261, 1, 1
8.75, 0.927142, 0.938539, 1, 1
9, 0.925904, 0.937445, 1, 1
9.25, 0.924582, 0.936474, 1, 1
9.5, 0.922869, 0.935463, 1, 1
9.75, 0.92132, 0.934389, 1, 1
10, 0.919607, 0.933336, 1, 1
10.25, 0.918059, 0.93218, 1, 1
10.5, 0.916345, 0.931333, 1, 1
10.75, 0.914404, 0.930115, 1, 1
11, 0.912278, 0.928835, 1, 1
11.25, 0.910131, 0.927473, 1, 1
11.5, 0.907798, 0.926461, 1, 1
11.75, 0.905651, 0.925099, 1, 1
12, 0.903297, 0.923839, 1, 1
12.25, 0.900696, 0.922353, 1, 1
12.5, 0.897764, 0.920887, 1, 1
12.75, 0.895328, 0.919215, 1, 1
13, 0.89122, 0.917604, 1, 1
13.25, 0.889341, 0.916097, 1, 1
13.5, 0.885934, 0.913991, 1, 1
13.75, 0.882197, 0.911431, 1, 1
14, 0.878213, 0.908975, 1, 1
14.25, 0.873815, 0.906683, 1, 1
14.5, 0.870409, 0.903359, 0.999959, 1
14.75, 0.865103, 0.900448, 0.999959, 1
15, 0.861242, 0.897929, 0.999959, 1
15.25, 0.857113, 0.894667, 0.999938, 1
15.5, 0.852303, 0.891818, 0.999917, 1
15.75, 0.846729, 0.888907, 0.999876, 1
16, 0.840989, 0.885872, 0.999752, 1
16.25, 0.83525, 0.882817, 0.999608, 1
16.5, 0.830357, 0.879245, 0.999381, 1
16.75, 0.824679, 0.875426, 0.99903, 1
17, 0.817061, 0.871111, 0.998493, 1
17.25, 0.811219, 0.867023, 0.997915, 1
17.5, 0.805273, 0.862522, 0.996821, 1
17.75, 0.796829, 0.85796, 0.995726, 1
18, 0.789479, 0.852468, 0.994199, 1
18.25, 0.781324, 0.847369, 0.99199, 1
18.5, 0.772632, 0.84324, 0.988893, 1
18.75, 0.764085, 0.839214, 0.985073, 1
19, 0.752999, 0.833846, 0.980139, 1
19.25, 0.741788, 0.82918, 0.973718, 1
19.5, 0.730227, 0.823998, 0.965956, 1
19.75, 0.71656, 0.817825, 0.955901, 1
20, 0.700167, 0.811838, 0.944257, 1
20.25, 0.683073, 0.805644, 0.929888, 1
20.5, 0.66604, 0.798068, 0.911597, 1
20.75, 0.645787, 0.790553, 0.89155, 1
21, 0.620559, 0.782769, 0.867312, 1
21.25, 0.595041, 0.772839, 0.838512, 1
21.5, 0.564321, 0.764271, 0.803724, 1
21.75, 0.53168, 0.7556, 0.763879, 1
22, 0.494766, 0.747466, 0.716353, 1
22.25, 0.454178, 0.739249, 0.664182, 1
22.5, 0.410926, 0.731094, 0.604331, 1
22.75, 0.363978, 0.722278, 0.537936, 1
23, 0.316556, 0.712843, 0.463716, 1
23.25, 0.271879, 0.700931, 0.383426, 1
23.5, 0.228049, 0.689225, 0.29814, 1
23.75, 0.185767, 0.67498, 0.211553, 1
24, 0.14652, 0.658175, 0.136012, 1
24.25, 0.111857, 0.635568, 0.079526, 1
24.5, 0.0839441, 0.592749, 0.0364184, 1
24.75, 0.0617503, 0.456758, 0.0075975, 1
25, 0.0422404, 0.209612, 0.000619361, 0
25.25, 0.0274377, 0.0357165, 0.000350971, 0
25.5, 0.0188286, 0.00140389, 0, 0
25.75, 0.0114788, 0, 0, 0
26, 0.00716394, 0, 0, 0
26.25, 0.00384004, 0, 0, 0
26.5, 0.00196131, 0, 0, 0
26.75, 0.00130066, 0, 0, 0
27, 0.00057807, 0, 0, 0
27.25, 0.000206454, 0, 0, 0
27.5, 0.000103227, 0, 0, 0
27.75, 2.06454e-05, 0, 0, 0
28, 4.12907e-05, 0, 0, 0
28.25, 0, 0, 0, 0
28.5, 0, 0, 0, 0
28.75, 2.06454e-05, 0, 0, 0
29, 0, 0, 0, 0
29.25, 0, 0, 0, 0
29.5, 0, 0, 0, 0
29.75, 0, 0, 0, 0
30, 0, 0, 0, 0
30.25, 0, 0, 0, 0
30.5, 0, 0, 0, 0
30.75, 0, 0, 0, 0
31, 0, 0, 0, 0
31.25, 0, 0, 0, 0
31.5, 0, 0, 0, 0
31.75, 0, 0, 0, 0
32, 0, 0, 0, 0
32.25, 0, 0, 0, 0
32.5, 0, 0, 0, 0
32.75, 0, 0, 0, 0
33, 0, 0, 0, 0
33.25, 0, 0, 0, 0
33.5, 0, 0, 0, 0
33.75, 0, 0, 0, 0
34, 0, 0, 0, 0
34.25, 0, 0, 0, 0
34.5, 0, 0, 0, 0
34.75, 0, 0, 0, 0
35, 0, 0, 0, 0
35.25, 0, 0, 0, 0
35.5, 0, 0, 0, 0
35.75, 0, 0, 0, 0
36, 0, 0, 0, 0
36.25, 0, 0, 0, 0
36.5, 0, 0, 0, 0
36.75, 0, 0, 0, 0
37, 0, 0, 0, 0
37.25, 0, 0, 0, 0
37.5, 0, 0, 0, 0
37.75, 0, 0, 0, 0
38, 0, 0, 0, 0
38.25, 0, 0, 0, 0
38.5, 0, 0, 0, 0
38.75, 0, 0, 0, 0
39, 0, 0, 0, 0
39.25, 0, 0, 0, 0
39.5, 0, 0, 0, 0
39.75, 0, 0, 0, 0
40, 0, 0, 0, 0
40.25, 0, 0, 0, 0
40.5, 0, 0, 0, 0
40.75, 0, 0, 0, 0
41, 0, 0, 0, 0
41.25, 0, 0, 0, 0
41.5, 0, 0, 0, 0
41.75, 0, 0, 0, 0
42, 0, 0, 0, 0
42.25, 0, 0, 0, 0
42.5, 0, 0, 0, 0
42.75, 0, 0, 0, 0
43, 0, 0, 0, 0
43.25, 0, 0, 0, 0
43.5, 0, 0, 0, 0
43.75, 0, 0, 0, 0
44, 0, 0, 0, 0
44.25, 0, 0, 0, 0
44.5, 0, 0, 0, 0
44.75, 0, 0, 0, 0
45, 0, 0, 0, 0
45.25, 0, 0, 0, 0
45.5, 0, 0, 0, 0
45.75, 0, 0, 0, 0
46, 0, 0, 0, 0
46.25, 0, 0, 0, 0
46.5, 0, 0, 0, 0
46.75, 0, 0, 0, 0
47, 0, 0, 0, 0
47.25, 0, 0, 0, 0
47.5, 0, 0, 0, 0
47.75, 0, 0, 0, 0
48, 0, 0, 0, 0
48.25, 0, 0, 0, 0
48.5, 0, 0, 0, 0
48.75, 0, 0, 0, 0
49, 0, 0, 0, 0
49.25, 0, 0, 0, 0
49.5, 0, 0, 0, 0
49.75, 0, 0, 0, 0
